<?xml version="1.0" encoding="UTF-8"?>
<model ref="r:24910b30-008a-4310-bb8c-81839c086972(no.uio.mLab.entities.core.runtime)">
  <persistence version="9" />
  <languages />
  <imports />
  <registry />
</model>

