<?xml version="1.0" encoding="UTF-8"?>
<model ref="r:3092020d-ed76-440f-b5d2-eb8c0fa4a839(main@generator)">
  <persistence version="9" />
  <languages>
    <devkit ref="a2eb3a43-fcc2-4200-80dc-c60110c4862d(jetbrains.mps.devkit.templates)" />
  </languages>
  <imports>
    <import index="hpcx" ref="r:2530bb31-0779-45e3-bc3f-01507d6b2623(no.uio.mLab.decisions.references.specialistType.structure)" />
  </imports>
  <registry>
    <language id="b401a680-8325-4110-8fd3-84331ff25bef" name="jetbrains.mps.lang.generator">
      <concept id="1095416546421" name="jetbrains.mps.lang.generator.structure.MappingConfiguration" flags="ig" index="bUwia" />
    </language>
    <language id="ceab5195-25ea-4f22-9b92-103b95ca8c0c" name="jetbrains.mps.lang.core">
      <concept id="1169194658468" name="jetbrains.mps.lang.core.structure.INamedConcept" flags="ng" index="TrEIO">
        <property id="1169194664001" name="name" index="TrG5h" />
      </concept>
    </language>
  </registry>
  <node concept="bUwia" id="4QUW3edDSZ0">
    <property role="TrG5h" value="specialistTypeReferencesMain" />
  </node>
</model>

