<?xml version="1.0" encoding="UTF-8"?>
<model ref="r:ff06c7ae-d9d2-4a9d-a6a5-d29c7fa1a7fb(no.uio.mLab.entities.laboratoryTest.runtime)">
  <persistence version="9" />
  <languages>
    <use id="f3061a53-9226-4cc5-a443-f952ceaf5816" name="jetbrains.mps.baseLanguage" version="6" />
  </languages>
  <imports>
    <import index="c5de" ref="r:7fcd5412-0e66-48f8-8a88-4eb56394cc6d(no.uio.mLab.shared.runtime)" />
    <import index="8r9s" ref="r:0e143259-7e64-4fad-906c-02a97b75504d(no.uio.mLab.decisions.core.runtime)" />
  </imports>
  <registry />
</model>

