<?xml version="1.0" encoding="UTF-8"?>
<model ref="r:1f3d7978-c4d8-49f2-9740-c6bcb0182cce(no.uio.mLab.decisions.data.patient.runtime)">
  <persistence version="9" />
  <languages>
    <use id="f3061a53-9226-4cc5-a443-f952ceaf5816" name="jetbrains.mps.baseLanguage" version="6" />
  </languages>
  <imports>
    <import index="8r9s" ref="r:0e143259-7e64-4fad-906c-02a97b75504d(no.uio.mLab.decisions.core.runtime)" />
    <import index="33ny" ref="6354ebe7-c22a-4a0f-ac54-50b52ab9b065/java:java.util(JDK/)" />
    <import index="28m1" ref="6354ebe7-c22a-4a0f-ac54-50b52ab9b065/java:java.time(JDK/)" />
    <import index="wyt6" ref="6354ebe7-c22a-4a0f-ac54-50b52ab9b065/java:java.lang(JDK/)" implicit="true" />
  </imports>
  <registry>
    <language id="f3061a53-9226-4cc5-a443-f952ceaf5816" name="jetbrains.mps.baseLanguage">
      <concept id="1080223426719" name="jetbrains.mps.baseLanguage.structure.OrExpression" flags="nn" index="22lmx$" />
      <concept id="1215693861676" name="jetbrains.mps.baseLanguage.structure.BaseAssignmentExpression" flags="nn" index="d038R">
        <child id="1068498886297" name="rValue" index="37vLTx" />
        <child id="1068498886295" name="lValue" index="37vLTJ" />
      </concept>
      <concept id="1202948039474" name="jetbrains.mps.baseLanguage.structure.InstanceMethodCallOperation" flags="nn" index="liA8E" />
      <concept id="1465982738277781862" name="jetbrains.mps.baseLanguage.structure.PlaceholderMember" flags="ng" index="2tJIrI" />
      <concept id="1188207840427" name="jetbrains.mps.baseLanguage.structure.AnnotationInstance" flags="nn" index="2AHcQZ">
        <reference id="1188208074048" name="annotation" index="2AI5Lk" />
      </concept>
      <concept id="1188208481402" name="jetbrains.mps.baseLanguage.structure.HasAnnotation" flags="ng" index="2AJDlI">
        <child id="1188208488637" name="annotation" index="2AJF6D" />
      </concept>
      <concept id="2820489544401957797" name="jetbrains.mps.baseLanguage.structure.DefaultClassCreator" flags="nn" index="HV5vD">
        <reference id="2820489544401957798" name="classifier" index="HV5vE" />
      </concept>
      <concept id="1197027756228" name="jetbrains.mps.baseLanguage.structure.DotExpression" flags="nn" index="2OqwBi">
        <child id="1197027771414" name="operand" index="2Oq$k0" />
        <child id="1197027833540" name="operation" index="2OqNvi" />
      </concept>
      <concept id="1197029447546" name="jetbrains.mps.baseLanguage.structure.FieldReferenceOperation" flags="nn" index="2OwXpG">
        <reference id="1197029500499" name="fieldDeclaration" index="2Oxat5" />
      </concept>
      <concept id="1145552977093" name="jetbrains.mps.baseLanguage.structure.GenericNewExpression" flags="nn" index="2ShNRf">
        <child id="1145553007750" name="creator" index="2ShVmc" />
      </concept>
      <concept id="1070462154015" name="jetbrains.mps.baseLanguage.structure.StaticFieldDeclaration" flags="ig" index="Wx3nA">
        <property id="6468716278899126575" name="isVolatile" index="2dlcS1" />
        <property id="6468716278899125786" name="isTransient" index="2dld4O" />
      </concept>
      <concept id="1070475354124" name="jetbrains.mps.baseLanguage.structure.ThisExpression" flags="nn" index="Xjq3P" />
      <concept id="1081236700938" name="jetbrains.mps.baseLanguage.structure.StaticMethodDeclaration" flags="ig" index="2YIFZL" />
      <concept id="1081236700937" name="jetbrains.mps.baseLanguage.structure.StaticMethodCall" flags="nn" index="2YIFZM">
        <reference id="1144433194310" name="classConcept" index="1Pybhc" />
      </concept>
      <concept id="1081256982272" name="jetbrains.mps.baseLanguage.structure.InstanceOfExpression" flags="nn" index="2ZW3vV">
        <child id="1081256993305" name="classType" index="2ZW6by" />
        <child id="1081256993304" name="leftExpression" index="2ZW6bz" />
      </concept>
      <concept id="1070534058343" name="jetbrains.mps.baseLanguage.structure.NullLiteral" flags="nn" index="10Nm6u" />
      <concept id="1070534370425" name="jetbrains.mps.baseLanguage.structure.IntegerType" flags="in" index="10Oyi0" />
      <concept id="1070534644030" name="jetbrains.mps.baseLanguage.structure.BooleanType" flags="in" index="10P_77" />
      <concept id="1070534934090" name="jetbrains.mps.baseLanguage.structure.CastExpression" flags="nn" index="10QFUN">
        <child id="1070534934091" name="type" index="10QFUM" />
        <child id="1070534934092" name="expression" index="10QFUP" />
      </concept>
      <concept id="1068390468200" name="jetbrains.mps.baseLanguage.structure.FieldDeclaration" flags="ig" index="312cEg">
        <property id="8606350594693632173" name="isTransient" index="eg7rD" />
        <property id="1240249534625" name="isVolatile" index="34CwA1" />
      </concept>
      <concept id="1068390468198" name="jetbrains.mps.baseLanguage.structure.ClassConcept" flags="ig" index="312cEu">
        <property id="1075300953594" name="abstractClass" index="1sVAO0" />
        <child id="1165602531693" name="superclass" index="1zkMxy" />
      </concept>
      <concept id="1068431474542" name="jetbrains.mps.baseLanguage.structure.VariableDeclaration" flags="ng" index="33uBYm">
        <property id="1176718929932" name="isFinal" index="3TUv4t" />
        <child id="1068431790190" name="initializer" index="33vP2m" />
      </concept>
      <concept id="1068498886296" name="jetbrains.mps.baseLanguage.structure.VariableReference" flags="nn" index="37vLTw">
        <reference id="1068581517664" name="variableDeclaration" index="3cqZAo" />
      </concept>
      <concept id="1068498886292" name="jetbrains.mps.baseLanguage.structure.ParameterDeclaration" flags="ir" index="37vLTG" />
      <concept id="1068498886294" name="jetbrains.mps.baseLanguage.structure.AssignmentExpression" flags="nn" index="37vLTI" />
      <concept id="4972933694980447171" name="jetbrains.mps.baseLanguage.structure.BaseVariableDeclaration" flags="ng" index="19Szcq">
        <child id="5680397130376446158" name="type" index="1tU5fm" />
      </concept>
      <concept id="1068580123132" name="jetbrains.mps.baseLanguage.structure.BaseMethodDeclaration" flags="ng" index="3clF44">
        <property id="4276006055363816570" name="isSynchronized" index="od$2w" />
        <property id="1181808852946" name="isFinal" index="DiZV1" />
        <child id="1068580123133" name="returnType" index="3clF45" />
        <child id="1068580123134" name="parameter" index="3clF46" />
        <child id="1068580123135" name="body" index="3clF47" />
      </concept>
      <concept id="1068580123165" name="jetbrains.mps.baseLanguage.structure.InstanceMethodDeclaration" flags="ig" index="3clFb_">
        <property id="1178608670077" name="isAbstract" index="1EzhhJ" />
      </concept>
      <concept id="1068580123152" name="jetbrains.mps.baseLanguage.structure.EqualsExpression" flags="nn" index="3clFbC" />
      <concept id="1068580123155" name="jetbrains.mps.baseLanguage.structure.ExpressionStatement" flags="nn" index="3clFbF">
        <child id="1068580123156" name="expression" index="3clFbG" />
      </concept>
      <concept id="1068580123159" name="jetbrains.mps.baseLanguage.structure.IfStatement" flags="nn" index="3clFbJ">
        <child id="1068580123160" name="condition" index="3clFbw" />
        <child id="1068580123161" name="ifTrue" index="3clFbx" />
      </concept>
      <concept id="1068580123136" name="jetbrains.mps.baseLanguage.structure.StatementList" flags="sn" stub="5293379017992965193" index="3clFbS">
        <child id="1068581517665" name="statement" index="3cqZAp" />
      </concept>
      <concept id="1068580123137" name="jetbrains.mps.baseLanguage.structure.BooleanConstant" flags="nn" index="3clFbT">
        <property id="1068580123138" name="value" index="3clFbU" />
      </concept>
      <concept id="1068580123140" name="jetbrains.mps.baseLanguage.structure.ConstructorDeclaration" flags="ig" index="3clFbW" />
      <concept id="1068581242878" name="jetbrains.mps.baseLanguage.structure.ReturnStatement" flags="nn" index="3cpWs6">
        <child id="1068581517676" name="expression" index="3cqZAk" />
      </concept>
      <concept id="1068581242864" name="jetbrains.mps.baseLanguage.structure.LocalVariableDeclarationStatement" flags="nn" index="3cpWs8">
        <child id="1068581242865" name="localVariableDeclaration" index="3cpWs9" />
      </concept>
      <concept id="1068581242863" name="jetbrains.mps.baseLanguage.structure.LocalVariableDeclaration" flags="nr" index="3cpWsn" />
      <concept id="1068581517677" name="jetbrains.mps.baseLanguage.structure.VoidType" flags="in" index="3cqZAl" />
      <concept id="1079359253375" name="jetbrains.mps.baseLanguage.structure.ParenthesizedExpression" flags="nn" index="1eOMI4">
        <child id="1079359253376" name="expression" index="1eOMHV" />
      </concept>
      <concept id="1204053956946" name="jetbrains.mps.baseLanguage.structure.IMethodCall" flags="ng" index="1ndlxa">
        <reference id="1068499141037" name="baseMethodDeclaration" index="37wK5l" />
        <child id="1068499141038" name="actualArgument" index="37wK5m" />
      </concept>
      <concept id="1107461130800" name="jetbrains.mps.baseLanguage.structure.Classifier" flags="ng" index="3pOWGL">
        <child id="5375687026011219971" name="member" index="jymVt" unordered="true" />
      </concept>
      <concept id="7812454656619025416" name="jetbrains.mps.baseLanguage.structure.MethodDeclaration" flags="ng" index="1rXfSm">
        <property id="8355037393041754995" name="isNative" index="2aFKle" />
      </concept>
      <concept id="1107535904670" name="jetbrains.mps.baseLanguage.structure.ClassifierType" flags="in" index="3uibUv">
        <reference id="1107535924139" name="classifier" index="3uigEE" />
        <child id="1109201940907" name="parameter" index="11_B2D" />
      </concept>
      <concept id="1081773326031" name="jetbrains.mps.baseLanguage.structure.BinaryOperation" flags="nn" index="3uHJSO">
        <child id="1081773367579" name="rightExpression" index="3uHU7w" />
        <child id="1081773367580" name="leftExpression" index="3uHU7B" />
      </concept>
      <concept id="1073239437375" name="jetbrains.mps.baseLanguage.structure.NotEqualsExpression" flags="nn" index="3y3z36" />
      <concept id="1178549954367" name="jetbrains.mps.baseLanguage.structure.IVisible" flags="ng" index="1B3ioH">
        <child id="1178549979242" name="visibility" index="1B3o_S" />
      </concept>
      <concept id="1107796713796" name="jetbrains.mps.baseLanguage.structure.Interface" flags="ig" index="3HP615" />
      <concept id="1146644602865" name="jetbrains.mps.baseLanguage.structure.PublicVisibility" flags="nn" index="3Tm1VV" />
      <concept id="1146644623116" name="jetbrains.mps.baseLanguage.structure.PrivateVisibility" flags="nn" index="3Tm6S6" />
    </language>
    <language id="ceab5195-25ea-4f22-9b92-103b95ca8c0c" name="jetbrains.mps.lang.core">
      <concept id="1133920641626" name="jetbrains.mps.lang.core.structure.BaseConcept" flags="ng" index="2VYdi">
        <property id="1193676396447" name="virtualPackage" index="3GE5qa" />
      </concept>
      <concept id="1169194658468" name="jetbrains.mps.lang.core.structure.INamedConcept" flags="ng" index="TrEIO">
        <property id="1169194664001" name="name" index="TrG5h" />
      </concept>
    </language>
  </registry>
  <node concept="312cEu" id="ofcHXg79c8">
    <property role="TrG5h" value="PatientGenderEqualTo" />
    <property role="3GE5qa" value="constraints" />
    <node concept="312cEg" id="ofcHXg79EX" role="jymVt">
      <property role="34CwA1" value="false" />
      <property role="eg7rD" value="false" />
      <property role="TrG5h" value="gender" />
      <property role="3TUv4t" value="false" />
      <node concept="3Tm6S6" id="ofcHXg79Cf" role="1B3o_S" />
      <node concept="3uibUv" id="ofcHXg79DP" role="1tU5fm">
        <ref role="3uigEE" node="ofcHXg79jx" resolve="GenderLiteral" />
      </node>
    </node>
    <node concept="2tJIrI" id="ofcHXg79K1" role="jymVt" />
    <node concept="3clFbW" id="ofcHXg79Id" role="jymVt">
      <node concept="3cqZAl" id="ofcHXg79If" role="3clF45" />
      <node concept="3Tm1VV" id="ofcHXg79Ig" role="1B3o_S" />
      <node concept="3clFbS" id="ofcHXg79Ih" role="3clF47">
        <node concept="3clFbF" id="ofcHXg79RB" role="3cqZAp">
          <node concept="37vLTI" id="ofcHXg7a30" role="3clFbG">
            <node concept="37vLTw" id="ofcHXg7a72" role="37vLTx">
              <ref role="3cqZAo" node="ofcHXg79Pr" resolve="genderConstraint" />
            </node>
            <node concept="2OqwBi" id="ofcHXg79TL" role="37vLTJ">
              <node concept="Xjq3P" id="ofcHXg79RA" role="2Oq$k0" />
              <node concept="2OwXpG" id="ofcHXg79WL" role="2OqNvi">
                <ref role="2Oxat5" node="ofcHXg79EX" resolve="gender" />
              </node>
            </node>
          </node>
        </node>
      </node>
      <node concept="37vLTG" id="ofcHXg79Pr" role="3clF46">
        <property role="TrG5h" value="genderConstraint" />
        <node concept="3uibUv" id="ofcHXg79Pq" role="1tU5fm">
          <ref role="3uigEE" node="ofcHXg79jx" resolve="GenderLiteral" />
        </node>
      </node>
    </node>
    <node concept="2tJIrI" id="ofcHXg7a8a" role="jymVt" />
    <node concept="3clFb_" id="ofcHXg7ahW" role="jymVt">
      <property role="1EzhhJ" value="false" />
      <property role="TrG5h" value="getGender" />
      <property role="od$2w" value="false" />
      <property role="DiZV1" value="false" />
      <property role="2aFKle" value="false" />
      <node concept="3clFbS" id="ofcHXg7ahZ" role="3clF47">
        <node concept="3cpWs6" id="ofcHXg7alm" role="3cqZAp">
          <node concept="2OqwBi" id="ofcHXg7ao1" role="3cqZAk">
            <node concept="Xjq3P" id="ofcHXg7al_" role="2Oq$k0" />
            <node concept="2OwXpG" id="ofcHXg7asS" role="2OqNvi">
              <ref role="2Oxat5" node="ofcHXg79EX" resolve="gender" />
            </node>
          </node>
        </node>
      </node>
      <node concept="3Tm1VV" id="ofcHXg7adT" role="1B3o_S" />
      <node concept="3uibUv" id="ofcHXg7agO" role="3clF45">
        <ref role="3uigEE" node="ofcHXg79jx" resolve="GenderLiteral" />
      </node>
    </node>
    <node concept="2tJIrI" id="ofcHXg79LD" role="jymVt" />
    <node concept="3Tm1VV" id="ofcHXg79c9" role="1B3o_S" />
    <node concept="3uibUv" id="ofcHXg79de" role="1zkMxy">
      <ref role="3uigEE" to="8r9s:1mAGFBLm1nT" resolve="Constraint" />
    </node>
    <node concept="3clFb_" id="ofcHXg79ds" role="jymVt">
      <property role="TrG5h" value="isSatisfiedBy" />
      <property role="DiZV1" value="false" />
      <property role="od$2w" value="false" />
      <property role="1EzhhJ" value="false" />
      <node concept="37vLTG" id="ofcHXg79du" role="3clF46">
        <property role="TrG5h" value="value" />
        <node concept="3uibUv" id="ofcHXg79dv" role="1tU5fm">
          <ref role="3uigEE" to="wyt6:~Object" resolve="Object" />
        </node>
      </node>
      <node concept="10P_77" id="ofcHXg79dw" role="3clF45" />
      <node concept="3Tm1VV" id="ofcHXg79dx" role="1B3o_S" />
      <node concept="3clFbS" id="ofcHXg79dy" role="3clF47">
        <node concept="3clFbJ" id="ofcHXg79jd" role="3cqZAp">
          <node concept="3clFbS" id="ofcHXg79jf" role="3clFbx">
            <node concept="3cpWs6" id="ofcHXg79tI" role="3cqZAp">
              <node concept="2OqwBi" id="ofcHXg7b9K" role="3cqZAk">
                <node concept="2OqwBi" id="ofcHXg7aVz" role="2Oq$k0">
                  <node concept="Xjq3P" id="ofcHXg7aPU" role="2Oq$k0" />
                  <node concept="2OwXpG" id="ofcHXg7b1h" role="2OqNvi">
                    <ref role="2Oxat5" node="ofcHXg79EX" resolve="gender" />
                  </node>
                </node>
                <node concept="liA8E" id="ofcHXg7bfj" role="2OqNvi">
                  <ref role="37wK5l" node="ofcHXg7c3a" resolve="equals" />
                  <node concept="37vLTw" id="ofcHXg7bkI" role="37wK5m">
                    <ref role="3cqZAo" node="ofcHXg79du" resolve="value" />
                  </node>
                </node>
              </node>
            </node>
          </node>
          <node concept="2ZW3vV" id="ofcHXg79qc" role="3clFbw">
            <node concept="3uibUv" id="ofcHXg79t4" role="2ZW6by">
              <ref role="3uigEE" node="ofcHXg79jx" resolve="GenderLiteral" />
            </node>
            <node concept="37vLTw" id="ofcHXg79l5" role="2ZW6bz">
              <ref role="3cqZAo" node="ofcHXg79du" resolve="value" />
            </node>
          </node>
        </node>
        <node concept="3cpWs6" id="ofcHXg7bEN" role="3cqZAp">
          <node concept="3clFbT" id="ofcHXg7bJn" role="3cqZAk">
            <property role="3clFbU" value="false" />
          </node>
        </node>
      </node>
      <node concept="2AHcQZ" id="ofcHXg79dz" role="2AJF6D">
        <ref role="2AI5Lk" to="wyt6:~Override" resolve="Override" />
      </node>
    </node>
    <node concept="2tJIrI" id="2XLt5KWSy_4" role="jymVt" />
    <node concept="2tJIrI" id="2XLt5KWS1Uf" role="jymVt" />
    <node concept="3clFb_" id="2XLt5KWS1Ug" role="jymVt">
      <property role="1EzhhJ" value="false" />
      <property role="TrG5h" value="hashCode" />
      <property role="DiZV1" value="false" />
      <property role="od$2w" value="false" />
      <node concept="3Tm1VV" id="2XLt5KWS1Uh" role="1B3o_S" />
      <node concept="10Oyi0" id="2XLt5KWS1Ui" role="3clF45" />
      <node concept="3clFbS" id="2XLt5KWS1Uj" role="3clF47">
        <node concept="3clFbF" id="2XLt5KWS1Uk" role="3cqZAp">
          <node concept="2YIFZM" id="2XLt5KWS1Ul" role="3clFbG">
            <ref role="1Pybhc" to="33ny:~Objects" resolve="Objects" />
            <ref role="37wK5l" to="33ny:~Objects.hash(java.lang.Object...):int" resolve="hash" />
            <node concept="2OqwBi" id="2XLt5KWS1Um" role="37wK5m">
              <node concept="Xjq3P" id="2XLt5KWS1Un" role="2Oq$k0" />
              <node concept="liA8E" id="2XLt5KWS1Uo" role="2OqNvi">
                <ref role="37wK5l" to="wyt6:~Object.getClass():java.lang.Class" resolve="getClass" />
              </node>
            </node>
            <node concept="2OqwBi" id="2XLt5KWS1Up" role="37wK5m">
              <node concept="Xjq3P" id="2XLt5KWS1Uq" role="2Oq$k0" />
              <node concept="2OwXpG" id="2XLt5KWSzcb" role="2OqNvi">
                <ref role="2Oxat5" node="ofcHXg79EX" resolve="gender" />
              </node>
            </node>
          </node>
        </node>
      </node>
      <node concept="2AHcQZ" id="2XLt5KWS1Us" role="2AJF6D">
        <ref role="2AI5Lk" to="wyt6:~Override" resolve="Override" />
      </node>
    </node>
    <node concept="2tJIrI" id="2XLt5KWS1Ut" role="jymVt" />
    <node concept="3clFb_" id="2XLt5KWS1Uu" role="jymVt">
      <property role="1EzhhJ" value="false" />
      <property role="TrG5h" value="equals" />
      <property role="DiZV1" value="false" />
      <property role="od$2w" value="false" />
      <node concept="3Tm1VV" id="2XLt5KWS1Uv" role="1B3o_S" />
      <node concept="10P_77" id="2XLt5KWS1Uw" role="3clF45" />
      <node concept="37vLTG" id="2XLt5KWS1Ux" role="3clF46">
        <property role="TrG5h" value="object" />
        <node concept="3uibUv" id="2XLt5KWS1Uy" role="1tU5fm">
          <ref role="3uigEE" to="wyt6:~Object" resolve="Object" />
        </node>
      </node>
      <node concept="3clFbS" id="2XLt5KWS1Uz" role="3clF47">
        <node concept="3clFbJ" id="4B5aqq5POKw" role="3cqZAp">
          <node concept="3clFbS" id="4B5aqq5POKx" role="3clFbx">
            <node concept="3cpWs6" id="4B5aqq5POKy" role="3cqZAp">
              <node concept="3clFbT" id="4B5aqq5POKz" role="3cqZAk">
                <property role="3clFbU" value="true" />
              </node>
            </node>
          </node>
          <node concept="3clFbC" id="4B5aqq5POK$" role="3clFbw">
            <node concept="Xjq3P" id="4B5aqq5POK_" role="3uHU7B" />
            <node concept="37vLTw" id="4B5aqq5POKA" role="3uHU7w">
              <ref role="3cqZAo" node="2XLt5KWS1Ux" resolve="object" />
            </node>
          </node>
        </node>
        <node concept="3clFbJ" id="4B5aqq5POKB" role="3cqZAp">
          <node concept="3clFbS" id="4B5aqq5POKC" role="3clFbx">
            <node concept="3cpWs6" id="4B5aqq5POKD" role="3cqZAp">
              <node concept="3clFbT" id="4B5aqq5POKE" role="3cqZAk">
                <property role="3clFbU" value="false" />
              </node>
            </node>
          </node>
          <node concept="22lmx$" id="4B5aqq5POKF" role="3clFbw">
            <node concept="3clFbC" id="4B5aqq5POKG" role="3uHU7B">
              <node concept="10Nm6u" id="4B5aqq5POKH" role="3uHU7w" />
              <node concept="37vLTw" id="4B5aqq5POKI" role="3uHU7B">
                <ref role="3cqZAo" node="2XLt5KWS1Ux" resolve="object" />
              </node>
            </node>
            <node concept="3y3z36" id="4B5aqq5POKJ" role="3uHU7w">
              <node concept="2OqwBi" id="4B5aqq5POKK" role="3uHU7B">
                <node concept="Xjq3P" id="4B5aqq5POKL" role="2Oq$k0" />
                <node concept="liA8E" id="4B5aqq5POKM" role="2OqNvi">
                  <ref role="37wK5l" to="wyt6:~Object.getClass():java.lang.Class" resolve="getClass" />
                </node>
              </node>
              <node concept="2OqwBi" id="4B5aqq5POKN" role="3uHU7w">
                <node concept="37vLTw" id="4B5aqq5POKO" role="2Oq$k0">
                  <ref role="3cqZAo" node="2XLt5KWS1Ux" resolve="object" />
                </node>
                <node concept="liA8E" id="4B5aqq5POKP" role="2OqNvi">
                  <ref role="37wK5l" to="wyt6:~Object.getClass():java.lang.Class" resolve="getClass" />
                </node>
              </node>
            </node>
          </node>
        </node>
        <node concept="3cpWs8" id="2XLt5KWS1UG" role="3cqZAp">
          <node concept="3cpWsn" id="2XLt5KWS1UH" role="3cpWs9">
            <property role="TrG5h" value="other" />
            <node concept="3uibUv" id="2XLt5KWSzxw" role="1tU5fm">
              <ref role="3uigEE" node="ofcHXg79c8" resolve="PatientGenderEqualTo" />
            </node>
            <node concept="10QFUN" id="2XLt5KWS1UJ" role="33vP2m">
              <node concept="3uibUv" id="2XLt5KWSzBU" role="10QFUM">
                <ref role="3uigEE" node="ofcHXg79c8" resolve="PatientGenderEqualTo" />
              </node>
              <node concept="37vLTw" id="2XLt5KWS1UL" role="10QFUP">
                <ref role="3cqZAo" node="2XLt5KWS1Ux" resolve="object" />
              </node>
            </node>
          </node>
        </node>
        <node concept="3cpWs6" id="2XLt5KWS1UM" role="3cqZAp">
          <node concept="2YIFZM" id="4B5aqq5PPzb" role="3cqZAk">
            <ref role="37wK5l" to="33ny:~Objects.equals(java.lang.Object,java.lang.Object):boolean" resolve="equals" />
            <ref role="1Pybhc" to="33ny:~Objects" resolve="Objects" />
            <node concept="2OqwBi" id="4B5aqq5PPT3" role="37wK5m">
              <node concept="Xjq3P" id="4B5aqq5PPJs" role="2Oq$k0" />
              <node concept="2OwXpG" id="4B5aqq5PQ7X" role="2OqNvi">
                <ref role="2Oxat5" node="ofcHXg79EX" resolve="gender" />
              </node>
            </node>
            <node concept="2OqwBi" id="4B5aqq5PQJN" role="37wK5m">
              <node concept="37vLTw" id="4B5aqq5PQx2" role="2Oq$k0">
                <ref role="3cqZAo" node="2XLt5KWS1UH" resolve="other" />
              </node>
              <node concept="2OwXpG" id="4B5aqq5PQYY" role="2OqNvi">
                <ref role="2Oxat5" node="ofcHXg79EX" resolve="gender" />
              </node>
            </node>
          </node>
        </node>
      </node>
      <node concept="2AHcQZ" id="2XLt5KWS1UU" role="2AJF6D">
        <ref role="2AI5Lk" to="wyt6:~Override" resolve="Override" />
      </node>
    </node>
    <node concept="2tJIrI" id="2XLt5KWSyDY" role="jymVt" />
  </node>
  <node concept="312cEu" id="ofcHXg79jx">
    <property role="TrG5h" value="GenderLiteral" />
    <property role="1sVAO0" value="true" />
    <property role="3GE5qa" value="literals" />
    <node concept="3Tm1VV" id="ofcHXg79jy" role="1B3o_S" />
    <node concept="3clFb_" id="2XLt5KWS$Tk" role="jymVt">
      <property role="1EzhhJ" value="false" />
      <property role="TrG5h" value="hashCode" />
      <property role="DiZV1" value="false" />
      <property role="od$2w" value="false" />
      <node concept="3Tm1VV" id="2XLt5KWS$Tl" role="1B3o_S" />
      <node concept="10Oyi0" id="2XLt5KWS$Tn" role="3clF45" />
      <node concept="3clFbS" id="2XLt5KWS$To" role="3clF47">
        <node concept="3clFbF" id="2XLt5KWS$Tr" role="3cqZAp">
          <node concept="2YIFZM" id="2XLt5KWS_6X" role="3clFbG">
            <ref role="37wK5l" to="33ny:~Objects.hash(java.lang.Object...):int" resolve="hash" />
            <ref role="1Pybhc" to="33ny:~Objects" resolve="Objects" />
            <node concept="2OqwBi" id="2XLt5KWS_bJ" role="37wK5m">
              <node concept="Xjq3P" id="2XLt5KWS_7B" role="2Oq$k0" />
              <node concept="liA8E" id="2XLt5KWS_mQ" role="2OqNvi">
                <ref role="37wK5l" to="wyt6:~Object.getClass():java.lang.Class" resolve="getClass" />
              </node>
            </node>
          </node>
        </node>
      </node>
      <node concept="2AHcQZ" id="2XLt5KWS$Tp" role="2AJF6D">
        <ref role="2AI5Lk" to="wyt6:~Override" resolve="Override" />
      </node>
    </node>
    <node concept="2tJIrI" id="2XLt5KWS_wm" role="jymVt" />
    <node concept="3clFb_" id="ofcHXg7c3a" role="jymVt">
      <property role="1EzhhJ" value="false" />
      <property role="TrG5h" value="equals" />
      <property role="DiZV1" value="false" />
      <property role="od$2w" value="false" />
      <node concept="3Tm1VV" id="ofcHXg7c3b" role="1B3o_S" />
      <node concept="10P_77" id="ofcHXg7c3d" role="3clF45" />
      <node concept="37vLTG" id="ofcHXg7c3e" role="3clF46">
        <property role="TrG5h" value="object" />
        <node concept="3uibUv" id="ofcHXg7c3f" role="1tU5fm">
          <ref role="3uigEE" to="wyt6:~Object" resolve="Object" />
        </node>
      </node>
      <node concept="3clFbS" id="ofcHXg7c3g" role="3clF47">
        <node concept="3clFbJ" id="4B5aqq5PTHq" role="3cqZAp">
          <node concept="3clFbS" id="4B5aqq5PTHr" role="3clFbx">
            <node concept="3cpWs6" id="4B5aqq5PTHs" role="3cqZAp">
              <node concept="3clFbT" id="4B5aqq5PTHt" role="3cqZAk">
                <property role="3clFbU" value="true" />
              </node>
            </node>
          </node>
          <node concept="3clFbC" id="4B5aqq5PTHu" role="3clFbw">
            <node concept="Xjq3P" id="4B5aqq5PTHv" role="3uHU7B" />
            <node concept="37vLTw" id="4B5aqq5PTHw" role="3uHU7w">
              <ref role="3cqZAo" node="ofcHXg7c3e" resolve="object" />
            </node>
          </node>
        </node>
        <node concept="3clFbJ" id="4B5aqq5PTHx" role="3cqZAp">
          <node concept="3clFbS" id="4B5aqq5PTHy" role="3clFbx">
            <node concept="3cpWs6" id="4B5aqq5PTHz" role="3cqZAp">
              <node concept="3clFbT" id="4B5aqq5PTH$" role="3cqZAk">
                <property role="3clFbU" value="false" />
              </node>
            </node>
          </node>
          <node concept="22lmx$" id="4B5aqq5PTH_" role="3clFbw">
            <node concept="3clFbC" id="4B5aqq5PTHA" role="3uHU7B">
              <node concept="10Nm6u" id="4B5aqq5PTHB" role="3uHU7w" />
              <node concept="37vLTw" id="4B5aqq5PTHC" role="3uHU7B">
                <ref role="3cqZAo" node="ofcHXg7c3e" resolve="object" />
              </node>
            </node>
            <node concept="3y3z36" id="4B5aqq5PTHD" role="3uHU7w">
              <node concept="2OqwBi" id="4B5aqq5PTHE" role="3uHU7B">
                <node concept="Xjq3P" id="4B5aqq5PTHF" role="2Oq$k0" />
                <node concept="liA8E" id="4B5aqq5PTHG" role="2OqNvi">
                  <ref role="37wK5l" to="wyt6:~Object.getClass():java.lang.Class" resolve="getClass" />
                </node>
              </node>
              <node concept="2OqwBi" id="4B5aqq5PTHH" role="3uHU7w">
                <node concept="37vLTw" id="4B5aqq5PTHI" role="2Oq$k0">
                  <ref role="3cqZAo" node="ofcHXg7c3e" resolve="object" />
                </node>
                <node concept="liA8E" id="4B5aqq5PTHJ" role="2OqNvi">
                  <ref role="37wK5l" to="wyt6:~Object.getClass():java.lang.Class" resolve="getClass" />
                </node>
              </node>
            </node>
          </node>
        </node>
        <node concept="3cpWs6" id="4B5aqq5PU5g" role="3cqZAp">
          <node concept="3clFbT" id="4B5aqq5PU5Q" role="3cqZAk">
            <property role="3clFbU" value="true" />
          </node>
        </node>
      </node>
      <node concept="2AHcQZ" id="ofcHXg7c3h" role="2AJF6D">
        <ref role="2AI5Lk" to="wyt6:~Override" resolve="Override" />
      </node>
    </node>
  </node>
  <node concept="312cEu" id="ofcHXg7dcR">
    <property role="TrG5h" value="MaleGender" />
    <property role="3GE5qa" value="literals" />
    <node concept="Wx3nA" id="2XLt5KWSABv" role="jymVt">
      <property role="2dlcS1" value="false" />
      <property role="2dld4O" value="false" />
      <property role="TrG5h" value="instance" />
      <property role="3TUv4t" value="false" />
      <node concept="3Tm6S6" id="2XLt5KWSAB9" role="1B3o_S" />
      <node concept="3uibUv" id="2XLt5KWSABo" role="1tU5fm">
        <ref role="3uigEE" node="ofcHXg7dcR" resolve="MaleGender" />
      </node>
    </node>
    <node concept="2tJIrI" id="4B5aqq5PVk2" role="jymVt" />
    <node concept="3clFbW" id="4B5aqq5PVlz" role="jymVt">
      <node concept="3cqZAl" id="4B5aqq5PVl_" role="3clF45" />
      <node concept="3Tm6S6" id="4B5aqq5PVmW" role="1B3o_S" />
      <node concept="3clFbS" id="4B5aqq5PVlB" role="3clF47" />
    </node>
    <node concept="2tJIrI" id="2XLt5KWSABE" role="jymVt" />
    <node concept="2YIFZL" id="2XLt5KWSACo" role="jymVt">
      <property role="TrG5h" value="getInstance" />
      <property role="od$2w" value="false" />
      <property role="DiZV1" value="false" />
      <property role="2aFKle" value="false" />
      <node concept="3clFbS" id="2XLt5KWSACr" role="3clF47">
        <node concept="3clFbJ" id="2XLt5KWSACX" role="3cqZAp">
          <node concept="3clFbC" id="2XLt5KWSAHL" role="3clFbw">
            <node concept="10Nm6u" id="2XLt5KWSAIr" role="3uHU7w" />
            <node concept="37vLTw" id="2XLt5KWSADr" role="3uHU7B">
              <ref role="3cqZAo" node="2XLt5KWSABv" resolve="instance" />
            </node>
          </node>
          <node concept="3clFbS" id="2XLt5KWSACZ" role="3clFbx">
            <node concept="3clFbF" id="2XLt5KWSAJ0" role="3cqZAp">
              <node concept="37vLTI" id="2XLt5KWSALq" role="3clFbG">
                <node concept="2ShNRf" id="2XLt5KWSAM4" role="37vLTx">
                  <node concept="HV5vD" id="2XLt5KWSATA" role="2ShVmc">
                    <ref role="HV5vE" node="ofcHXg7dcR" resolve="MaleGender" />
                  </node>
                </node>
                <node concept="37vLTw" id="2XLt5KWSAIZ" role="37vLTJ">
                  <ref role="3cqZAo" node="2XLt5KWSABv" resolve="instance" />
                </node>
              </node>
            </node>
          </node>
        </node>
        <node concept="3cpWs6" id="2XLt5KWSAUC" role="3cqZAp">
          <node concept="37vLTw" id="2XLt5KWSAVj" role="3cqZAk">
            <ref role="3cqZAo" node="2XLt5KWSABv" resolve="instance" />
          </node>
        </node>
      </node>
      <node concept="3Tm1VV" id="2XLt5KWSABW" role="1B3o_S" />
      <node concept="3uibUv" id="2XLt5KWSACh" role="3clF45">
        <ref role="3uigEE" node="ofcHXg7dcR" resolve="MaleGender" />
      </node>
    </node>
    <node concept="3Tm1VV" id="ofcHXg7dcS" role="1B3o_S" />
    <node concept="3uibUv" id="ofcHXg7ddv" role="1zkMxy">
      <ref role="3uigEE" node="ofcHXg79jx" resolve="GenderLiteral" />
    </node>
  </node>
  <node concept="312cEu" id="ofcHXg7ddB">
    <property role="TrG5h" value="FemaleGender" />
    <property role="3GE5qa" value="literals" />
    <node concept="Wx3nA" id="2XLt5KWSAZ8" role="jymVt">
      <property role="2dlcS1" value="false" />
      <property role="2dld4O" value="false" />
      <property role="TrG5h" value="instance" />
      <property role="3TUv4t" value="false" />
      <node concept="3Tm6S6" id="2XLt5KWSAZ9" role="1B3o_S" />
      <node concept="3uibUv" id="2XLt5KWSB0R" role="1tU5fm">
        <ref role="3uigEE" node="ofcHXg7ddB" resolve="FemaleGender" />
      </node>
    </node>
    <node concept="2tJIrI" id="4B5aqq5PVfc" role="jymVt" />
    <node concept="3clFbW" id="4B5aqq5PVhx" role="jymVt">
      <node concept="3cqZAl" id="4B5aqq5PVhz" role="3clF45" />
      <node concept="3Tm6S6" id="4B5aqq5PViU" role="1B3o_S" />
      <node concept="3clFbS" id="4B5aqq5PVh_" role="3clF47" />
    </node>
    <node concept="2tJIrI" id="2XLt5KWSAZb" role="jymVt" />
    <node concept="2YIFZL" id="2XLt5KWSAZc" role="jymVt">
      <property role="TrG5h" value="getInstance" />
      <property role="od$2w" value="false" />
      <property role="DiZV1" value="false" />
      <property role="2aFKle" value="false" />
      <node concept="3clFbS" id="2XLt5KWSAZd" role="3clF47">
        <node concept="3clFbJ" id="2XLt5KWSAZe" role="3cqZAp">
          <node concept="3clFbC" id="2XLt5KWSAZf" role="3clFbw">
            <node concept="10Nm6u" id="2XLt5KWSAZg" role="3uHU7w" />
            <node concept="37vLTw" id="2XLt5KWSAZr" role="3uHU7B">
              <ref role="3cqZAo" node="2XLt5KWSAZ8" resolve="instance" />
            </node>
          </node>
          <node concept="3clFbS" id="2XLt5KWSAZh" role="3clFbx">
            <node concept="3clFbF" id="2XLt5KWSAZi" role="3cqZAp">
              <node concept="37vLTI" id="2XLt5KWSAZj" role="3clFbG">
                <node concept="2ShNRf" id="2XLt5KWSAZk" role="37vLTx">
                  <node concept="HV5vD" id="2XLt5KWSAZl" role="2ShVmc">
                    <ref role="HV5vE" node="ofcHXg7ddB" resolve="FemaleGender" />
                  </node>
                </node>
                <node concept="37vLTw" id="2XLt5KWSAZv" role="37vLTJ">
                  <ref role="3cqZAo" node="2XLt5KWSAZ8" resolve="instance" />
                </node>
              </node>
            </node>
          </node>
        </node>
        <node concept="3cpWs6" id="2XLt5KWSAZm" role="3cqZAp">
          <node concept="37vLTw" id="2XLt5KWSAZz" role="3cqZAk">
            <ref role="3cqZAo" node="2XLt5KWSAZ8" resolve="instance" />
          </node>
        </node>
      </node>
      <node concept="3Tm1VV" id="2XLt5KWSAZn" role="1B3o_S" />
      <node concept="3uibUv" id="2XLt5KWSB1I" role="3clF45">
        <ref role="3uigEE" node="ofcHXg7ddB" resolve="FemaleGender" />
      </node>
    </node>
    <node concept="3Tm1VV" id="ofcHXg7ddC" role="1B3o_S" />
    <node concept="3uibUv" id="ofcHXg7de9" role="1zkMxy">
      <ref role="3uigEE" node="ofcHXg79jx" resolve="GenderLiteral" />
    </node>
  </node>
  <node concept="312cEu" id="ofcHXgar$B">
    <property role="TrG5h" value="PatientAge" />
    <property role="3GE5qa" value="data" />
    <node concept="3clFb_" id="5jVYnMGMI1T" role="jymVt">
      <property role="1EzhhJ" value="false" />
      <property role="TrG5h" value="accept" />
      <property role="od$2w" value="false" />
      <property role="DiZV1" value="false" />
      <property role="2aFKle" value="false" />
      <node concept="3Tm1VV" id="5jVYnMGMI1U" role="1B3o_S" />
      <node concept="37vLTG" id="5jVYnMGMI1W" role="3clF46">
        <property role="TrG5h" value="visitor" />
        <node concept="3uibUv" id="5jVYnMGMI1X" role="1tU5fm">
          <ref role="3uigEE" to="8r9s:5jVYnMGKCt5" resolve="DataValueVisitor" />
        </node>
      </node>
      <node concept="3clFbS" id="5jVYnMGMI1Y" role="3clF47">
        <node concept="3clFbJ" id="5jVYnMGMI1Z" role="3cqZAp">
          <node concept="2ZW3vV" id="5jVYnMGMI20" role="3clFbw">
            <node concept="3uibUv" id="5jVYnMGNTeo" role="2ZW6by">
              <ref role="3uigEE" node="5jVYnMGJD4D" resolve="PatientDataValueVisitor" />
            </node>
            <node concept="37vLTw" id="5jVYnMGMI22" role="2ZW6bz">
              <ref role="3cqZAo" node="5jVYnMGMI1W" resolve="visitor" />
            </node>
          </node>
          <node concept="3clFbS" id="5jVYnMGMI23" role="3clFbx">
            <node concept="3cpWs6" id="5jVYnMGMI24" role="3cqZAp">
              <node concept="2OqwBi" id="5jVYnMGMI25" role="3cqZAk">
                <node concept="1eOMI4" id="5jVYnMGMI26" role="2Oq$k0">
                  <node concept="10QFUN" id="5jVYnMGMI27" role="1eOMHV">
                    <node concept="3uibUv" id="5jVYnMGNTeO" role="10QFUM">
                      <ref role="3uigEE" node="5jVYnMGJD4D" resolve="PatientDataValueVisitor" />
                    </node>
                    <node concept="37vLTw" id="5jVYnMGMI29" role="10QFUP">
                      <ref role="3cqZAo" node="5jVYnMGMI1W" resolve="visitor" />
                    </node>
                  </node>
                </node>
                <node concept="liA8E" id="5jVYnMGMI2a" role="2OqNvi">
                  <ref role="37wK5l" node="5jVYnMGJD5t" resolve="visit" />
                  <node concept="Xjq3P" id="5jVYnMGMI2b" role="37wK5m" />
                </node>
              </node>
            </node>
          </node>
        </node>
        <node concept="3cpWs6" id="5jVYnMGMI2c" role="3cqZAp">
          <node concept="10Nm6u" id="5jVYnMGMI2d" role="3cqZAk" />
        </node>
      </node>
      <node concept="2AHcQZ" id="5jVYnMGMI2e" role="2AJF6D">
        <ref role="2AI5Lk" to="wyt6:~Override" resolve="Override" />
      </node>
      <node concept="3uibUv" id="5jVYnMGVoMa" role="3clF45">
        <ref role="3uigEE" to="8r9s:2XLt5KVsHET" resolve="LisResponse" />
        <node concept="3uibUv" id="5jVYnMGVpcH" role="11_B2D">
          <ref role="3uigEE" to="28m1:~Duration" resolve="Duration" />
        </node>
      </node>
    </node>
    <node concept="2tJIrI" id="5jVYnMGNRYz" role="jymVt" />
    <node concept="3clFb_" id="7lYCqhv3CY9" role="jymVt">
      <property role="1EzhhJ" value="false" />
      <property role="TrG5h" value="hashCode" />
      <property role="DiZV1" value="false" />
      <property role="od$2w" value="false" />
      <node concept="3Tm1VV" id="7lYCqhv3CYa" role="1B3o_S" />
      <node concept="10Oyi0" id="7lYCqhv3CYc" role="3clF45" />
      <node concept="3clFbS" id="7lYCqhv3CYd" role="3clF47">
        <node concept="3clFbF" id="7lYCqhv3FhU" role="3cqZAp">
          <node concept="2YIFZM" id="7lYCqhv3F_U" role="3clFbG">
            <ref role="37wK5l" to="33ny:~Objects.hash(java.lang.Object...):int" resolve="hash" />
            <ref role="1Pybhc" to="33ny:~Objects" resolve="Objects" />
            <node concept="2OqwBi" id="7lYCqhv3FKJ" role="37wK5m">
              <node concept="Xjq3P" id="7lYCqhv3FA$" role="2Oq$k0" />
              <node concept="liA8E" id="7lYCqhv3G1G" role="2OqNvi">
                <ref role="37wK5l" to="wyt6:~Object.getClass():java.lang.Class" resolve="getClass" />
              </node>
            </node>
          </node>
        </node>
      </node>
      <node concept="2AHcQZ" id="7lYCqhv3CYe" role="2AJF6D">
        <ref role="2AI5Lk" to="wyt6:~Override" resolve="Override" />
      </node>
    </node>
    <node concept="2tJIrI" id="7lYCqhv43_k" role="jymVt" />
    <node concept="3clFb_" id="7lYCqhv3CYh" role="jymVt">
      <property role="1EzhhJ" value="false" />
      <property role="TrG5h" value="equals" />
      <property role="DiZV1" value="false" />
      <property role="od$2w" value="false" />
      <node concept="3Tm1VV" id="7lYCqhv3CYi" role="1B3o_S" />
      <node concept="10P_77" id="7lYCqhv3CYk" role="3clF45" />
      <node concept="37vLTG" id="7lYCqhv3CYl" role="3clF46">
        <property role="TrG5h" value="object" />
        <node concept="3uibUv" id="7lYCqhv3CYm" role="1tU5fm">
          <ref role="3uigEE" to="wyt6:~Object" resolve="Object" />
        </node>
      </node>
      <node concept="3clFbS" id="7lYCqhv3CYn" role="3clF47">
        <node concept="3clFbJ" id="4B5aqq5OJ30" role="3cqZAp">
          <node concept="3clFbS" id="4B5aqq5OJ31" role="3clFbx">
            <node concept="3cpWs6" id="4B5aqq5OJ32" role="3cqZAp">
              <node concept="3clFbT" id="4B5aqq5OJ33" role="3cqZAk">
                <property role="3clFbU" value="true" />
              </node>
            </node>
          </node>
          <node concept="3clFbC" id="4B5aqq5OJ34" role="3clFbw">
            <node concept="Xjq3P" id="4B5aqq5OJ35" role="3uHU7B" />
            <node concept="37vLTw" id="4B5aqq5OJ36" role="3uHU7w">
              <ref role="3cqZAo" node="7lYCqhv3CYl" resolve="object" />
            </node>
          </node>
        </node>
        <node concept="3clFbJ" id="4B5aqq5OJ37" role="3cqZAp">
          <node concept="3clFbS" id="4B5aqq5OJ38" role="3clFbx">
            <node concept="3cpWs6" id="4B5aqq5OJ39" role="3cqZAp">
              <node concept="3clFbT" id="4B5aqq5OJ3a" role="3cqZAk">
                <property role="3clFbU" value="false" />
              </node>
            </node>
          </node>
          <node concept="22lmx$" id="4B5aqq5OJW5" role="3clFbw">
            <node concept="3clFbC" id="4B5aqq5OKlz" role="3uHU7B">
              <node concept="10Nm6u" id="4B5aqq5OKtL" role="3uHU7w" />
              <node concept="37vLTw" id="4B5aqq5OKbr" role="3uHU7B">
                <ref role="3cqZAo" node="7lYCqhv3CYl" resolve="object" />
              </node>
            </node>
            <node concept="3y3z36" id="4B5aqq5OJ3b" role="3uHU7w">
              <node concept="2OqwBi" id="4B5aqq5OJ3c" role="3uHU7B">
                <node concept="Xjq3P" id="4B5aqq5OJ3d" role="2Oq$k0" />
                <node concept="liA8E" id="4B5aqq5OJ3e" role="2OqNvi">
                  <ref role="37wK5l" to="wyt6:~Object.getClass():java.lang.Class" resolve="getClass" />
                </node>
              </node>
              <node concept="2OqwBi" id="4B5aqq5OJ3f" role="3uHU7w">
                <node concept="37vLTw" id="4B5aqq5OJ3g" role="2Oq$k0">
                  <ref role="3cqZAo" node="7lYCqhv3CYl" resolve="object" />
                </node>
                <node concept="liA8E" id="4B5aqq5OJ3h" role="2OqNvi">
                  <ref role="37wK5l" to="wyt6:~Object.getClass():java.lang.Class" resolve="getClass" />
                </node>
              </node>
            </node>
          </node>
        </node>
        <node concept="3cpWs6" id="4B5aqq5PMcC" role="3cqZAp">
          <node concept="3clFbT" id="4B5aqq5PMde" role="3cqZAk">
            <property role="3clFbU" value="true" />
          </node>
        </node>
      </node>
      <node concept="2AHcQZ" id="7lYCqhv3CYo" role="2AJF6D">
        <ref role="2AI5Lk" to="wyt6:~Override" resolve="Override" />
      </node>
    </node>
    <node concept="3Tm1VV" id="ofcHXgar$C" role="1B3o_S" />
    <node concept="3uibUv" id="5jVYnMGNU2U" role="1zkMxy">
      <ref role="3uigEE" to="8r9s:1mAGFBLlvBo" resolve="TimeSpanDataValue" />
    </node>
  </node>
  <node concept="312cEu" id="ofcHXgarFi">
    <property role="3GE5qa" value="data" />
    <property role="TrG5h" value="PatientGender" />
    <node concept="3clFb_" id="5jVYnMGORuf" role="jymVt">
      <property role="1EzhhJ" value="false" />
      <property role="TrG5h" value="accept" />
      <property role="od$2w" value="false" />
      <property role="DiZV1" value="false" />
      <property role="2aFKle" value="false" />
      <node concept="3Tm1VV" id="5jVYnMGORug" role="1B3o_S" />
      <node concept="37vLTG" id="5jVYnMGORuh" role="3clF46">
        <property role="TrG5h" value="visitor" />
        <node concept="3uibUv" id="5jVYnMGORui" role="1tU5fm">
          <ref role="3uigEE" to="8r9s:5jVYnMGKCt5" resolve="DataValueVisitor" />
        </node>
      </node>
      <node concept="3clFbS" id="5jVYnMGORuj" role="3clF47">
        <node concept="3clFbJ" id="5jVYnMGORuk" role="3cqZAp">
          <node concept="2ZW3vV" id="5jVYnMGORul" role="3clFbw">
            <node concept="3uibUv" id="5jVYnMGOSCK" role="2ZW6by">
              <ref role="3uigEE" node="5jVYnMGJD4D" resolve="PatientDataValueVisitor" />
            </node>
            <node concept="37vLTw" id="5jVYnMGORum" role="2ZW6bz">
              <ref role="3cqZAo" node="5jVYnMGORuh" resolve="visitor" />
            </node>
          </node>
          <node concept="3clFbS" id="5jVYnMGORun" role="3clFbx">
            <node concept="3cpWs6" id="5jVYnMGORuo" role="3cqZAp">
              <node concept="2OqwBi" id="5jVYnMGORup" role="3cqZAk">
                <node concept="1eOMI4" id="5jVYnMGORuq" role="2Oq$k0">
                  <node concept="10QFUN" id="5jVYnMGORur" role="1eOMHV">
                    <node concept="3uibUv" id="5jVYnMGOSDc" role="10QFUM">
                      <ref role="3uigEE" node="5jVYnMGJD4D" resolve="PatientDataValueVisitor" />
                    </node>
                    <node concept="37vLTw" id="5jVYnMGORus" role="10QFUP">
                      <ref role="3cqZAo" node="5jVYnMGORuh" resolve="visitor" />
                    </node>
                  </node>
                </node>
                <node concept="liA8E" id="5jVYnMGORut" role="2OqNvi">
                  <ref role="37wK5l" node="5jVYnMGJD7G" resolve="visit" />
                  <node concept="Xjq3P" id="5jVYnMGORuu" role="37wK5m" />
                </node>
              </node>
            </node>
          </node>
        </node>
        <node concept="3cpWs6" id="5jVYnMGORuv" role="3cqZAp">
          <node concept="10Nm6u" id="5jVYnMGORuw" role="3cqZAk" />
        </node>
      </node>
      <node concept="2AHcQZ" id="5jVYnMGORux" role="2AJF6D">
        <ref role="2AI5Lk" to="wyt6:~Override" resolve="Override" />
      </node>
      <node concept="3uibUv" id="5jVYnMGVq0$" role="3clF45">
        <ref role="3uigEE" to="8r9s:2XLt5KVsHET" resolve="LisResponse" />
        <node concept="3uibUv" id="5jVYnMGVqo_" role="11_B2D">
          <ref role="3uigEE" node="ofcHXg79jx" resolve="GenderLiteral" />
        </node>
      </node>
    </node>
    <node concept="2tJIrI" id="5jVYnMGORbg" role="jymVt" />
    <node concept="3clFb_" id="7lYCqhv4s3C" role="jymVt">
      <property role="1EzhhJ" value="false" />
      <property role="TrG5h" value="hashCode" />
      <property role="DiZV1" value="false" />
      <property role="od$2w" value="false" />
      <node concept="3Tm1VV" id="7lYCqhv4s3D" role="1B3o_S" />
      <node concept="10Oyi0" id="7lYCqhv4s3E" role="3clF45" />
      <node concept="3clFbS" id="7lYCqhv4s3F" role="3clF47">
        <node concept="3clFbF" id="7lYCqhv4s3G" role="3cqZAp">
          <node concept="2YIFZM" id="7lYCqhv4s3H" role="3clFbG">
            <ref role="37wK5l" to="33ny:~Objects.hash(java.lang.Object...):int" resolve="hash" />
            <ref role="1Pybhc" to="33ny:~Objects" resolve="Objects" />
            <node concept="2OqwBi" id="7lYCqhv4s3I" role="37wK5m">
              <node concept="Xjq3P" id="7lYCqhv4s3J" role="2Oq$k0" />
              <node concept="liA8E" id="7lYCqhv4s3K" role="2OqNvi">
                <ref role="37wK5l" to="wyt6:~Object.getClass():java.lang.Class" resolve="getClass" />
              </node>
            </node>
          </node>
        </node>
      </node>
      <node concept="2AHcQZ" id="7lYCqhv4s3L" role="2AJF6D">
        <ref role="2AI5Lk" to="wyt6:~Override" resolve="Override" />
      </node>
    </node>
    <node concept="2tJIrI" id="7lYCqhv4s3M" role="jymVt" />
    <node concept="3clFb_" id="7lYCqhv4s3N" role="jymVt">
      <property role="1EzhhJ" value="false" />
      <property role="TrG5h" value="equals" />
      <property role="DiZV1" value="false" />
      <property role="od$2w" value="false" />
      <node concept="3Tm1VV" id="7lYCqhv4s3O" role="1B3o_S" />
      <node concept="10P_77" id="7lYCqhv4s3P" role="3clF45" />
      <node concept="37vLTG" id="7lYCqhv4s3Q" role="3clF46">
        <property role="TrG5h" value="object" />
        <node concept="3uibUv" id="7lYCqhv4s3R" role="1tU5fm">
          <ref role="3uigEE" to="wyt6:~Object" resolve="Object" />
        </node>
      </node>
      <node concept="3clFbS" id="7lYCqhv4s3S" role="3clF47">
        <node concept="3clFbJ" id="4B5aqq5PMED" role="3cqZAp">
          <node concept="3clFbS" id="4B5aqq5PMEE" role="3clFbx">
            <node concept="3cpWs6" id="4B5aqq5PMEF" role="3cqZAp">
              <node concept="3clFbT" id="4B5aqq5PMEG" role="3cqZAk">
                <property role="3clFbU" value="true" />
              </node>
            </node>
          </node>
          <node concept="3clFbC" id="4B5aqq5PMEH" role="3clFbw">
            <node concept="Xjq3P" id="4B5aqq5PMEI" role="3uHU7B" />
            <node concept="37vLTw" id="4B5aqq5PMEJ" role="3uHU7w">
              <ref role="3cqZAo" node="7lYCqhv4s3Q" resolve="object" />
            </node>
          </node>
        </node>
        <node concept="3clFbJ" id="4B5aqq5PMEK" role="3cqZAp">
          <node concept="3clFbS" id="4B5aqq5PMEL" role="3clFbx">
            <node concept="3cpWs6" id="4B5aqq5PMEM" role="3cqZAp">
              <node concept="3clFbT" id="4B5aqq5PMEN" role="3cqZAk">
                <property role="3clFbU" value="false" />
              </node>
            </node>
          </node>
          <node concept="22lmx$" id="4B5aqq5PMEO" role="3clFbw">
            <node concept="3clFbC" id="4B5aqq5PMEP" role="3uHU7B">
              <node concept="10Nm6u" id="4B5aqq5PMEQ" role="3uHU7w" />
              <node concept="37vLTw" id="4B5aqq5PMER" role="3uHU7B">
                <ref role="3cqZAo" node="7lYCqhv4s3Q" resolve="object" />
              </node>
            </node>
            <node concept="3y3z36" id="4B5aqq5PMES" role="3uHU7w">
              <node concept="2OqwBi" id="4B5aqq5PMET" role="3uHU7B">
                <node concept="Xjq3P" id="4B5aqq5PMEU" role="2Oq$k0" />
                <node concept="liA8E" id="4B5aqq5PMEV" role="2OqNvi">
                  <ref role="37wK5l" to="wyt6:~Object.getClass():java.lang.Class" resolve="getClass" />
                </node>
              </node>
              <node concept="2OqwBi" id="4B5aqq5PMEW" role="3uHU7w">
                <node concept="37vLTw" id="4B5aqq5PMEX" role="2Oq$k0">
                  <ref role="3cqZAo" node="7lYCqhv4s3Q" resolve="object" />
                </node>
                <node concept="liA8E" id="4B5aqq5PMEY" role="2OqNvi">
                  <ref role="37wK5l" to="wyt6:~Object.getClass():java.lang.Class" resolve="getClass" />
                </node>
              </node>
            </node>
          </node>
        </node>
        <node concept="3cpWs6" id="4B5aqq5PN83" role="3cqZAp">
          <node concept="3clFbT" id="4B5aqq5PNmv" role="3cqZAk">
            <property role="3clFbU" value="true" />
          </node>
        </node>
      </node>
      <node concept="2AHcQZ" id="7lYCqhv4s41" role="2AJF6D">
        <ref role="2AI5Lk" to="wyt6:~Override" resolve="Override" />
      </node>
    </node>
    <node concept="3Tm1VV" id="ofcHXgarFj" role="1B3o_S" />
    <node concept="3uibUv" id="ofcHXgarFI" role="1zkMxy">
      <ref role="3uigEE" to="8r9s:1mAGFBLk5bI" resolve="NonBooleanDataValue" />
      <node concept="3uibUv" id="5jVYnMGOQAO" role="11_B2D">
        <ref role="3uigEE" node="ofcHXg79jx" resolve="GenderLiteral" />
      </node>
    </node>
  </node>
  <node concept="3HP615" id="5jVYnMGJD4D">
    <property role="3GE5qa" value="" />
    <property role="TrG5h" value="PatientDataValueVisitor" />
    <node concept="3clFb_" id="5jVYnMGJD5t" role="jymVt">
      <property role="1EzhhJ" value="true" />
      <property role="2aFKle" value="false" />
      <property role="TrG5h" value="visit" />
      <node concept="3clFbS" id="5jVYnMGJD5w" role="3clF47" />
      <node concept="3Tm1VV" id="5jVYnMGJD5x" role="1B3o_S" />
      <node concept="37vLTG" id="5jVYnMGJD5V" role="3clF46">
        <property role="TrG5h" value="dataValue" />
        <node concept="3uibUv" id="5jVYnMGJLib" role="1tU5fm">
          <ref role="3uigEE" node="ofcHXgar$B" resolve="PatientAge" />
        </node>
      </node>
      <node concept="3uibUv" id="5jVYnMGUYaN" role="3clF45">
        <ref role="3uigEE" to="8r9s:2XLt5KVsHET" resolve="LisResponse" />
        <node concept="3uibUv" id="5jVYnMGVoik" role="11_B2D">
          <ref role="3uigEE" to="28m1:~Duration" resolve="Duration" />
        </node>
      </node>
    </node>
    <node concept="3clFb_" id="5jVYnMGJD7G" role="jymVt">
      <property role="1EzhhJ" value="true" />
      <property role="2aFKle" value="false" />
      <property role="TrG5h" value="visit" />
      <node concept="3clFbS" id="5jVYnMGJD7J" role="3clF47" />
      <node concept="3Tm1VV" id="5jVYnMGJD7K" role="1B3o_S" />
      <node concept="37vLTG" id="5jVYnMGJD8s" role="3clF46">
        <property role="TrG5h" value="dataValue" />
        <node concept="3uibUv" id="5jVYnMGJLk8" role="1tU5fm">
          <ref role="3uigEE" node="ofcHXgarFi" resolve="PatientGender" />
        </node>
      </node>
      <node concept="3uibUv" id="5jVYnMGVojv" role="3clF45">
        <ref role="3uigEE" to="8r9s:2XLt5KVsHET" resolve="LisResponse" />
        <node concept="3uibUv" id="5jVYnMGVol9" role="11_B2D">
          <ref role="3uigEE" node="ofcHXg79jx" resolve="GenderLiteral" />
        </node>
      </node>
    </node>
    <node concept="3Tm1VV" id="5jVYnMGJD4E" role="1B3o_S" />
  </node>
</model>

