<?xml version="1.0" encoding="UTF-8"?>
<model ref="r:9508070b-94a6-47cc-a279-7b9d2ab44f4b(no.furst.mLab.decisions.tasks.autocommentation.runtime)">
  <persistence version="9" />
  <languages>
    <use id="f3061a53-9226-4cc5-a443-f952ceaf5816" name="jetbrains.mps.baseLanguage" version="6" />
  </languages>
  <imports>
    <import index="8r9s" ref="r:0e143259-7e64-4fad-906c-02a97b75504d(no.uio.mLab.decisions.core.runtime)" />
    <import index="raik" ref="r:80119bb0-41d8-4e59-a1ce-200704faa812(no.uio.mLab.decisions.tasks.autocommentation.runtime)" />
    <import index="33ny" ref="6354ebe7-c22a-4a0f-ac54-50b52ab9b065/java:java.util(JDK/)" />
    <import index="wyt6" ref="6354ebe7-c22a-4a0f-ac54-50b52ab9b065/java:java.lang(JDK/)" implicit="true" />
  </imports>
  <registry>
    <language id="f3061a53-9226-4cc5-a443-f952ceaf5816" name="jetbrains.mps.baseLanguage">
      <concept id="1080223426719" name="jetbrains.mps.baseLanguage.structure.OrExpression" flags="nn" index="22lmx$" />
      <concept id="1215693861676" name="jetbrains.mps.baseLanguage.structure.BaseAssignmentExpression" flags="nn" index="d038R">
        <child id="1068498886297" name="rValue" index="37vLTx" />
        <child id="1068498886295" name="lValue" index="37vLTJ" />
      </concept>
      <concept id="1202948039474" name="jetbrains.mps.baseLanguage.structure.InstanceMethodCallOperation" flags="nn" index="liA8E" />
      <concept id="1465982738277781862" name="jetbrains.mps.baseLanguage.structure.PlaceholderMember" flags="ng" index="2tJIrI" />
      <concept id="1188207840427" name="jetbrains.mps.baseLanguage.structure.AnnotationInstance" flags="nn" index="2AHcQZ">
        <reference id="1188208074048" name="annotation" index="2AI5Lk" />
      </concept>
      <concept id="1188208481402" name="jetbrains.mps.baseLanguage.structure.HasAnnotation" flags="ng" index="2AJDlI">
        <child id="1188208488637" name="annotation" index="2AJF6D" />
      </concept>
      <concept id="2820489544401957797" name="jetbrains.mps.baseLanguage.structure.DefaultClassCreator" flags="nn" index="HV5vD">
        <reference id="2820489544401957798" name="classifier" index="HV5vE" />
      </concept>
      <concept id="1197027756228" name="jetbrains.mps.baseLanguage.structure.DotExpression" flags="nn" index="2OqwBi">
        <child id="1197027771414" name="operand" index="2Oq$k0" />
        <child id="1197027833540" name="operation" index="2OqNvi" />
      </concept>
      <concept id="1197029447546" name="jetbrains.mps.baseLanguage.structure.FieldReferenceOperation" flags="nn" index="2OwXpG">
        <reference id="1197029500499" name="fieldDeclaration" index="2Oxat5" />
      </concept>
      <concept id="1145552977093" name="jetbrains.mps.baseLanguage.structure.GenericNewExpression" flags="nn" index="2ShNRf">
        <child id="1145553007750" name="creator" index="2ShVmc" />
      </concept>
      <concept id="1070462154015" name="jetbrains.mps.baseLanguage.structure.StaticFieldDeclaration" flags="ig" index="Wx3nA">
        <property id="6468716278899126575" name="isVolatile" index="2dlcS1" />
        <property id="6468716278899125786" name="isTransient" index="2dld4O" />
      </concept>
      <concept id="1070475354124" name="jetbrains.mps.baseLanguage.structure.ThisExpression" flags="nn" index="Xjq3P" />
      <concept id="1070475926800" name="jetbrains.mps.baseLanguage.structure.StringLiteral" flags="nn" index="Xl_RD">
        <property id="1070475926801" name="value" index="Xl_RC" />
      </concept>
      <concept id="1081236700938" name="jetbrains.mps.baseLanguage.structure.StaticMethodDeclaration" flags="ig" index="2YIFZL" />
      <concept id="1081236700937" name="jetbrains.mps.baseLanguage.structure.StaticMethodCall" flags="nn" index="2YIFZM">
        <reference id="1144433194310" name="classConcept" index="1Pybhc" />
      </concept>
      <concept id="1081256982272" name="jetbrains.mps.baseLanguage.structure.InstanceOfExpression" flags="nn" index="2ZW3vV">
        <child id="1081256993305" name="classType" index="2ZW6by" />
        <child id="1081256993304" name="leftExpression" index="2ZW6bz" />
      </concept>
      <concept id="1070534058343" name="jetbrains.mps.baseLanguage.structure.NullLiteral" flags="nn" index="10Nm6u" />
      <concept id="1070534370425" name="jetbrains.mps.baseLanguage.structure.IntegerType" flags="in" index="10Oyi0" />
      <concept id="1070534644030" name="jetbrains.mps.baseLanguage.structure.BooleanType" flags="in" index="10P_77" />
      <concept id="1070534934090" name="jetbrains.mps.baseLanguage.structure.CastExpression" flags="nn" index="10QFUN">
        <child id="1070534934091" name="type" index="10QFUM" />
        <child id="1070534934092" name="expression" index="10QFUP" />
      </concept>
      <concept id="1068390468200" name="jetbrains.mps.baseLanguage.structure.FieldDeclaration" flags="ig" index="312cEg">
        <property id="8606350594693632173" name="isTransient" index="eg7rD" />
        <property id="1240249534625" name="isVolatile" index="34CwA1" />
      </concept>
      <concept id="1068390468198" name="jetbrains.mps.baseLanguage.structure.ClassConcept" flags="ig" index="312cEu">
        <property id="1075300953594" name="abstractClass" index="1sVAO0" />
        <child id="1165602531693" name="superclass" index="1zkMxy" />
      </concept>
      <concept id="1068431474542" name="jetbrains.mps.baseLanguage.structure.VariableDeclaration" flags="ng" index="33uBYm">
        <property id="1176718929932" name="isFinal" index="3TUv4t" />
        <child id="1068431790190" name="initializer" index="33vP2m" />
      </concept>
      <concept id="1068498886296" name="jetbrains.mps.baseLanguage.structure.VariableReference" flags="nn" index="37vLTw">
        <reference id="1068581517664" name="variableDeclaration" index="3cqZAo" />
      </concept>
      <concept id="1068498886292" name="jetbrains.mps.baseLanguage.structure.ParameterDeclaration" flags="ir" index="37vLTG" />
      <concept id="1068498886294" name="jetbrains.mps.baseLanguage.structure.AssignmentExpression" flags="nn" index="37vLTI" />
      <concept id="1225271177708" name="jetbrains.mps.baseLanguage.structure.StringType" flags="in" index="17QB3L" />
      <concept id="4972933694980447171" name="jetbrains.mps.baseLanguage.structure.BaseVariableDeclaration" flags="ng" index="19Szcq">
        <child id="5680397130376446158" name="type" index="1tU5fm" />
      </concept>
      <concept id="1068580123132" name="jetbrains.mps.baseLanguage.structure.BaseMethodDeclaration" flags="ng" index="3clF44">
        <property id="4276006055363816570" name="isSynchronized" index="od$2w" />
        <property id="1181808852946" name="isFinal" index="DiZV1" />
        <child id="1068580123133" name="returnType" index="3clF45" />
        <child id="1068580123134" name="parameter" index="3clF46" />
        <child id="1068580123135" name="body" index="3clF47" />
      </concept>
      <concept id="1068580123165" name="jetbrains.mps.baseLanguage.structure.InstanceMethodDeclaration" flags="ig" index="3clFb_">
        <property id="1178608670077" name="isAbstract" index="1EzhhJ" />
      </concept>
      <concept id="1068580123152" name="jetbrains.mps.baseLanguage.structure.EqualsExpression" flags="nn" index="3clFbC" />
      <concept id="1068580123155" name="jetbrains.mps.baseLanguage.structure.ExpressionStatement" flags="nn" index="3clFbF">
        <child id="1068580123156" name="expression" index="3clFbG" />
      </concept>
      <concept id="1068580123159" name="jetbrains.mps.baseLanguage.structure.IfStatement" flags="nn" index="3clFbJ">
        <child id="1068580123160" name="condition" index="3clFbw" />
        <child id="1068580123161" name="ifTrue" index="3clFbx" />
      </concept>
      <concept id="1068580123136" name="jetbrains.mps.baseLanguage.structure.StatementList" flags="sn" stub="5293379017992965193" index="3clFbS">
        <child id="1068581517665" name="statement" index="3cqZAp" />
      </concept>
      <concept id="1068580123137" name="jetbrains.mps.baseLanguage.structure.BooleanConstant" flags="nn" index="3clFbT">
        <property id="1068580123138" name="value" index="3clFbU" />
      </concept>
      <concept id="1068580123140" name="jetbrains.mps.baseLanguage.structure.ConstructorDeclaration" flags="ig" index="3clFbW" />
      <concept id="1068581242878" name="jetbrains.mps.baseLanguage.structure.ReturnStatement" flags="nn" index="3cpWs6">
        <child id="1068581517676" name="expression" index="3cqZAk" />
      </concept>
      <concept id="1068581242864" name="jetbrains.mps.baseLanguage.structure.LocalVariableDeclarationStatement" flags="nn" index="3cpWs8">
        <child id="1068581242865" name="localVariableDeclaration" index="3cpWs9" />
      </concept>
      <concept id="1068581242863" name="jetbrains.mps.baseLanguage.structure.LocalVariableDeclaration" flags="nr" index="3cpWsn" />
      <concept id="1068581517677" name="jetbrains.mps.baseLanguage.structure.VoidType" flags="in" index="3cqZAl" />
      <concept id="1079359253375" name="jetbrains.mps.baseLanguage.structure.ParenthesizedExpression" flags="nn" index="1eOMI4">
        <child id="1079359253376" name="expression" index="1eOMHV" />
      </concept>
      <concept id="1081516740877" name="jetbrains.mps.baseLanguage.structure.NotExpression" flags="nn" index="3fqX7Q">
        <child id="1081516765348" name="expression" index="3fr31v" />
      </concept>
      <concept id="1204053956946" name="jetbrains.mps.baseLanguage.structure.IMethodCall" flags="ng" index="1ndlxa">
        <reference id="1068499141037" name="baseMethodDeclaration" index="37wK5l" />
        <child id="1068499141038" name="actualArgument" index="37wK5m" />
      </concept>
      <concept id="1073063089578" name="jetbrains.mps.baseLanguage.structure.SuperMethodCall" flags="nn" index="3nyPlj" />
      <concept id="1107461130800" name="jetbrains.mps.baseLanguage.structure.Classifier" flags="ng" index="3pOWGL">
        <child id="5375687026011219971" name="member" index="jymVt" unordered="true" />
      </concept>
      <concept id="7812454656619025416" name="jetbrains.mps.baseLanguage.structure.MethodDeclaration" flags="ng" index="1rXfSm">
        <property id="8355037393041754995" name="isNative" index="2aFKle" />
      </concept>
      <concept id="1107535904670" name="jetbrains.mps.baseLanguage.structure.ClassifierType" flags="in" index="3uibUv">
        <reference id="1107535924139" name="classifier" index="3uigEE" />
        <child id="1109201940907" name="parameter" index="11_B2D" />
      </concept>
      <concept id="1081773326031" name="jetbrains.mps.baseLanguage.structure.BinaryOperation" flags="nn" index="3uHJSO">
        <child id="1081773367579" name="rightExpression" index="3uHU7w" />
        <child id="1081773367580" name="leftExpression" index="3uHU7B" />
      </concept>
      <concept id="1073239437375" name="jetbrains.mps.baseLanguage.structure.NotEqualsExpression" flags="nn" index="3y3z36" />
      <concept id="1178549954367" name="jetbrains.mps.baseLanguage.structure.IVisible" flags="ng" index="1B3ioH">
        <child id="1178549979242" name="visibility" index="1B3o_S" />
      </concept>
      <concept id="1107796713796" name="jetbrains.mps.baseLanguage.structure.Interface" flags="ig" index="3HP615">
        <child id="1107797138135" name="extendedInterface" index="3HQHJm" />
      </concept>
      <concept id="1146644602865" name="jetbrains.mps.baseLanguage.structure.PublicVisibility" flags="nn" index="3Tm1VV" />
      <concept id="1146644623116" name="jetbrains.mps.baseLanguage.structure.PrivateVisibility" flags="nn" index="3Tm6S6" />
    </language>
    <language id="ceab5195-25ea-4f22-9b92-103b95ca8c0c" name="jetbrains.mps.lang.core">
      <concept id="1133920641626" name="jetbrains.mps.lang.core.structure.BaseConcept" flags="ng" index="2VYdi">
        <property id="1193676396447" name="virtualPackage" index="3GE5qa" />
      </concept>
      <concept id="1169194658468" name="jetbrains.mps.lang.core.structure.INamedConcept" flags="ng" index="TrEIO">
        <property id="1169194664001" name="name" index="TrG5h" />
      </concept>
    </language>
  </registry>
  <node concept="312cEu" id="ofcHXfNN3c">
    <property role="TrG5h" value="CodedInterpretativeComment" />
    <property role="3GE5qa" value="parameters.comments" />
    <node concept="312cEg" id="ofcHXfNN4I" role="jymVt">
      <property role="34CwA1" value="false" />
      <property role="eg7rD" value="false" />
      <property role="TrG5h" value="code" />
      <property role="3TUv4t" value="false" />
      <node concept="3Tm6S6" id="ofcHXfNN4t" role="1B3o_S" />
      <node concept="17QB3L" id="ofcHXfNN4B" role="1tU5fm" />
    </node>
    <node concept="2tJIrI" id="ofcHXfNN4U" role="jymVt" />
    <node concept="3clFbW" id="ofcHXfNN5f" role="jymVt">
      <node concept="3cqZAl" id="ofcHXfNN5h" role="3clF45" />
      <node concept="3Tm1VV" id="ofcHXfNN5i" role="1B3o_S" />
      <node concept="3clFbS" id="ofcHXfNN5j" role="3clF47">
        <node concept="3clFbF" id="ofcHXfNN6f" role="3cqZAp">
          <node concept="37vLTI" id="ofcHXfNNjr" role="3clFbG">
            <node concept="37vLTw" id="ofcHXfNNkN" role="37vLTx">
              <ref role="3cqZAo" node="ofcHXfNN5D" resolve="code" />
            </node>
            <node concept="2OqwBi" id="ofcHXfNN8m" role="37vLTJ">
              <node concept="Xjq3P" id="ofcHXfNN6e" role="2Oq$k0" />
              <node concept="2OwXpG" id="ofcHXfNNbj" role="2OqNvi">
                <ref role="2Oxat5" node="ofcHXfNN4I" resolve="code" />
              </node>
            </node>
          </node>
        </node>
      </node>
      <node concept="37vLTG" id="ofcHXfNN5D" role="3clF46">
        <property role="TrG5h" value="code" />
        <node concept="17QB3L" id="ofcHXfNN5C" role="1tU5fm" />
      </node>
    </node>
    <node concept="2tJIrI" id="ofcHXfNNmd" role="jymVt" />
    <node concept="3clFb_" id="ofcHXfNNpF" role="jymVt">
      <property role="1EzhhJ" value="false" />
      <property role="TrG5h" value="getCode" />
      <property role="od$2w" value="false" />
      <property role="DiZV1" value="false" />
      <property role="2aFKle" value="false" />
      <node concept="3clFbS" id="ofcHXfNNpI" role="3clF47">
        <node concept="3cpWs6" id="ofcHXfNNrA" role="3cqZAp">
          <node concept="2OqwBi" id="ofcHXfNNw9" role="3cqZAk">
            <node concept="Xjq3P" id="ofcHXfNNrP" role="2Oq$k0" />
            <node concept="2OwXpG" id="ofcHXfNN$m" role="2OqNvi">
              <ref role="2Oxat5" node="ofcHXfNN4I" resolve="code" />
            </node>
          </node>
        </node>
      </node>
      <node concept="3Tm1VV" id="ofcHXfNNo1" role="1B3o_S" />
      <node concept="17QB3L" id="ofcHXfNNpA" role="3clF45" />
    </node>
    <node concept="2tJIrI" id="7lYCqhv4Xr0" role="jymVt" />
    <node concept="3clFb_" id="7lYCqhv4LBo" role="jymVt">
      <property role="1EzhhJ" value="false" />
      <property role="TrG5h" value="hashCode" />
      <property role="DiZV1" value="false" />
      <property role="od$2w" value="false" />
      <node concept="3Tm1VV" id="7lYCqhv4LBp" role="1B3o_S" />
      <node concept="10Oyi0" id="7lYCqhv4LBr" role="3clF45" />
      <node concept="3clFbS" id="7lYCqhv4LBs" role="3clF47">
        <node concept="3clFbF" id="7lYCqhv4Mlk" role="3cqZAp">
          <node concept="2YIFZM" id="7lYCqhv4MBO" role="3clFbG">
            <ref role="1Pybhc" to="33ny:~Objects" resolve="Objects" />
            <ref role="37wK5l" to="33ny:~Objects.hash(java.lang.Object...):int" resolve="hash" />
            <node concept="2OqwBi" id="7lYCqhv4MIr" role="37wK5m">
              <node concept="Xjq3P" id="7lYCqhv4MCo" role="2Oq$k0" />
              <node concept="liA8E" id="7lYCqhv4MUb" role="2OqNvi">
                <ref role="37wK5l" to="wyt6:~Object.getClass():java.lang.Class" resolve="getClass" />
              </node>
            </node>
            <node concept="37vLTw" id="7lYCqhv4XHd" role="37wK5m">
              <ref role="3cqZAo" node="ofcHXfNN4I" resolve="code" />
            </node>
          </node>
        </node>
      </node>
      <node concept="2AHcQZ" id="7lYCqhv4LBt" role="2AJF6D">
        <ref role="2AI5Lk" to="wyt6:~Override" resolve="Override" />
      </node>
    </node>
    <node concept="2tJIrI" id="7lYCqhv4M2C" role="jymVt" />
    <node concept="3clFb_" id="7lYCqhv4LBw" role="jymVt">
      <property role="1EzhhJ" value="false" />
      <property role="TrG5h" value="equals" />
      <property role="DiZV1" value="false" />
      <property role="od$2w" value="false" />
      <node concept="3Tm1VV" id="7lYCqhv4LBx" role="1B3o_S" />
      <node concept="10P_77" id="7lYCqhv4LBz" role="3clF45" />
      <node concept="37vLTG" id="7lYCqhv4LB$" role="3clF46">
        <property role="TrG5h" value="object" />
        <node concept="3uibUv" id="7lYCqhv4LB_" role="1tU5fm">
          <ref role="3uigEE" to="wyt6:~Object" resolve="Object" />
        </node>
      </node>
      <node concept="3clFbS" id="7lYCqhv4LBA" role="3clF47">
        <node concept="3clFbJ" id="7lYCqhv4NlX" role="3cqZAp">
          <node concept="3fqX7Q" id="7lYCqhv4NH1" role="3clFbw">
            <node concept="2ZW3vV" id="7lYCqhv4NH3" role="3fr31v">
              <node concept="3uibUv" id="7lYCqhv4YaZ" role="2ZW6by">
                <ref role="3uigEE" node="ofcHXfNN3c" resolve="CodedInterpretativeComment" />
              </node>
              <node concept="37vLTw" id="7lYCqhv4NH5" role="2ZW6bz">
                <ref role="3cqZAo" node="7lYCqhv4LB$" resolve="object" />
              </node>
            </node>
          </node>
          <node concept="3clFbS" id="7lYCqhv4NlZ" role="3clFbx">
            <node concept="3cpWs6" id="7lYCqhv4NMS" role="3cqZAp">
              <node concept="3clFbT" id="7lYCqhv4NN7" role="3cqZAk">
                <property role="3clFbU" value="false" />
              </node>
            </node>
          </node>
        </node>
        <node concept="3cpWs8" id="7lYCqhv4Ogi" role="3cqZAp">
          <node concept="3cpWsn" id="7lYCqhv4Ogj" role="3cpWs9">
            <property role="TrG5h" value="other" />
            <node concept="3uibUv" id="7lYCqhv4YiP" role="1tU5fm">
              <ref role="3uigEE" node="ofcHXfNN3c" resolve="CodedInterpretativeComment" />
            </node>
            <node concept="10QFUN" id="7lYCqhv4Tin" role="33vP2m">
              <node concept="3uibUv" id="7lYCqhv4XTZ" role="10QFUM">
                <ref role="3uigEE" node="ofcHXfNN3c" resolve="CodedInterpretativeComment" />
              </node>
              <node concept="37vLTw" id="7lYCqhv4Ovp" role="10QFUP">
                <ref role="3cqZAo" node="7lYCqhv4LB$" resolve="object" />
              </node>
            </node>
          </node>
        </node>
        <node concept="3cpWs6" id="7lYCqhv4ONh" role="3cqZAp">
          <node concept="2OqwBi" id="7lYCqhv4S0E" role="3cqZAk">
            <node concept="2OqwBi" id="7lYCqhv4Rfa" role="2Oq$k0">
              <node concept="Xjq3P" id="7lYCqhv4R2s" role="2Oq$k0" />
              <node concept="2OwXpG" id="7lYCqhv4YW4" role="2OqNvi">
                <ref role="2Oxat5" node="ofcHXfNN4I" resolve="code" />
              </node>
            </node>
            <node concept="liA8E" id="7lYCqhv4SgS" role="2OqNvi">
              <ref role="37wK5l" to="wyt6:~String.equals(java.lang.Object):boolean" resolve="equals" />
              <node concept="2OqwBi" id="7lYCqhv4SHf" role="37wK5m">
                <node concept="37vLTw" id="7lYCqhv4SxX" role="2Oq$k0">
                  <ref role="3cqZAo" node="7lYCqhv4Ogj" resolve="other" />
                </node>
                <node concept="2OwXpG" id="7lYCqhv4YBm" role="2OqNvi">
                  <ref role="2Oxat5" node="ofcHXfNN4I" resolve="code" />
                </node>
              </node>
            </node>
          </node>
        </node>
      </node>
      <node concept="2AHcQZ" id="7lYCqhv4LBB" role="2AJF6D">
        <ref role="2AI5Lk" to="wyt6:~Override" resolve="Override" />
      </node>
    </node>
    <node concept="2tJIrI" id="7lYCqhv4J5q" role="jymVt" />
    <node concept="3clFb_" id="7lYCqhv4J0i" role="jymVt">
      <property role="1EzhhJ" value="false" />
      <property role="TrG5h" value="toString" />
      <property role="DiZV1" value="false" />
      <property role="od$2w" value="false" />
      <node concept="3Tm1VV" id="7lYCqhv4J0j" role="1B3o_S" />
      <node concept="3uibUv" id="7lYCqhv4J0l" role="3clF45">
        <ref role="3uigEE" to="wyt6:~String" resolve="String" />
      </node>
      <node concept="3clFbS" id="7lYCqhv4J0n" role="3clF47">
        <node concept="3cpWs6" id="7lYCqhv4JcU" role="3cqZAp">
          <node concept="2YIFZM" id="7lYCqhv4JhM" role="3cqZAk">
            <ref role="37wK5l" to="wyt6:~String.format(java.lang.String,java.lang.Object...):java.lang.String" resolve="format" />
            <ref role="1Pybhc" to="wyt6:~String" resolve="String" />
            <node concept="Xl_RD" id="7lYCqhv4Jmm" role="37wK5m">
              <property role="Xl_RC" value="CodedInterpretativeComment{code=%s}" />
            </node>
            <node concept="37vLTw" id="7lYCqhv4Kh7" role="37wK5m">
              <ref role="3cqZAo" node="ofcHXfNN4I" resolve="code" />
            </node>
          </node>
        </node>
      </node>
      <node concept="2AHcQZ" id="7lYCqhv4J0o" role="2AJF6D">
        <ref role="2AI5Lk" to="wyt6:~Override" resolve="Override" />
      </node>
    </node>
    <node concept="3Tm1VV" id="ofcHXfNN3d" role="1B3o_S" />
    <node concept="3uibUv" id="4QUW3ee0N9Y" role="1zkMxy">
      <ref role="3uigEE" to="raik:4QUW3ee0JoW" resolve="InterpretativeCommentForRequestor" />
    </node>
  </node>
  <node concept="312cEu" id="7lYCqhv527r">
    <property role="TrG5h" value="AddStatisticalLabel" />
    <property role="3GE5qa" value="actions" />
    <node concept="312cEg" id="7lYCqhv528z" role="jymVt">
      <property role="34CwA1" value="false" />
      <property role="eg7rD" value="false" />
      <property role="TrG5h" value="label" />
      <property role="3TUv4t" value="false" />
      <node concept="3Tm6S6" id="7lYCqhv528i" role="1B3o_S" />
      <node concept="17QB3L" id="7lYCqhv528s" role="1tU5fm" />
    </node>
    <node concept="2tJIrI" id="7lYCqhv528Q" role="jymVt" />
    <node concept="3clFbW" id="7lYCqhv529b" role="jymVt">
      <node concept="3cqZAl" id="7lYCqhv529d" role="3clF45" />
      <node concept="3Tm1VV" id="7lYCqhv529e" role="1B3o_S" />
      <node concept="3clFbS" id="7lYCqhv529f" role="3clF47">
        <node concept="3clFbF" id="7lYCqhv52ab" role="3cqZAp">
          <node concept="37vLTI" id="7lYCqhv52nn" role="3clFbG">
            <node concept="37vLTw" id="7lYCqhv52oJ" role="37vLTx">
              <ref role="3cqZAo" node="7lYCqhv529_" resolve="label" />
            </node>
            <node concept="2OqwBi" id="7lYCqhv52ci" role="37vLTJ">
              <node concept="Xjq3P" id="7lYCqhv52aa" role="2Oq$k0" />
              <node concept="2OwXpG" id="7lYCqhv52ff" role="2OqNvi">
                <ref role="2Oxat5" node="7lYCqhv528z" resolve="label" />
              </node>
            </node>
          </node>
        </node>
      </node>
      <node concept="37vLTG" id="7lYCqhv529_" role="3clF46">
        <property role="TrG5h" value="label" />
        <node concept="17QB3L" id="7lYCqhv529$" role="1tU5fm" />
      </node>
    </node>
    <node concept="2tJIrI" id="7lYCqhv52q9" role="jymVt" />
    <node concept="3clFb_" id="7lYCqhv533o" role="jymVt">
      <property role="1EzhhJ" value="false" />
      <property role="TrG5h" value="getLabel" />
      <property role="od$2w" value="false" />
      <property role="DiZV1" value="false" />
      <property role="2aFKle" value="false" />
      <node concept="3clFbS" id="7lYCqhv533r" role="3clF47">
        <node concept="3cpWs6" id="7lYCqhv53bR" role="3cqZAp">
          <node concept="2OqwBi" id="7lYCqhv53i9" role="3cqZAk">
            <node concept="Xjq3P" id="7lYCqhv53ck" role="2Oq$k0" />
            <node concept="2OwXpG" id="7lYCqhv53mv" role="2OqNvi">
              <ref role="2Oxat5" node="7lYCqhv528z" resolve="label" />
            </node>
          </node>
        </node>
      </node>
      <node concept="3Tm1VV" id="7lYCqhv52QF" role="1B3o_S" />
      <node concept="17QB3L" id="7lYCqhv52YB" role="3clF45" />
    </node>
    <node concept="2tJIrI" id="7lYCqhv52rE" role="jymVt" />
    <node concept="3clFb_" id="7lYCqhv52ti" role="jymVt">
      <property role="1EzhhJ" value="false" />
      <property role="TrG5h" value="hashCode" />
      <property role="DiZV1" value="false" />
      <property role="od$2w" value="false" />
      <node concept="3Tm1VV" id="7lYCqhv52tj" role="1B3o_S" />
      <node concept="10Oyi0" id="7lYCqhv52tl" role="3clF45" />
      <node concept="3clFbS" id="7lYCqhv52tm" role="3clF47">
        <node concept="3clFbF" id="7lYCqhv53zH" role="3cqZAp">
          <node concept="2YIFZM" id="7lYCqhv53$r" role="3clFbG">
            <ref role="37wK5l" to="33ny:~Objects.hash(java.lang.Object...):int" resolve="hash" />
            <ref role="1Pybhc" to="33ny:~Objects" resolve="Objects" />
            <node concept="2OqwBi" id="7lYCqhv53Fo" role="37wK5m">
              <node concept="Xjq3P" id="7lYCqhv53_5" role="2Oq$k0" />
              <node concept="liA8E" id="7lYCqhv53R8" role="2OqNvi">
                <ref role="37wK5l" to="wyt6:~Object.getClass():java.lang.Class" resolve="getClass" />
              </node>
            </node>
            <node concept="2OqwBi" id="7lYCqhv54jj" role="37wK5m">
              <node concept="Xjq3P" id="7lYCqhv54e5" role="2Oq$k0" />
              <node concept="2OwXpG" id="7lYCqhv54nX" role="2OqNvi">
                <ref role="2Oxat5" node="7lYCqhv528z" resolve="label" />
              </node>
            </node>
          </node>
        </node>
      </node>
      <node concept="2AHcQZ" id="7lYCqhv52tn" role="2AJF6D">
        <ref role="2AI5Lk" to="wyt6:~Override" resolve="Override" />
      </node>
    </node>
    <node concept="2tJIrI" id="7lYCqhv58ex" role="jymVt" />
    <node concept="3clFb_" id="7lYCqhv52tq" role="jymVt">
      <property role="1EzhhJ" value="false" />
      <property role="TrG5h" value="equals" />
      <property role="DiZV1" value="false" />
      <property role="od$2w" value="false" />
      <node concept="3Tm1VV" id="7lYCqhv52tr" role="1B3o_S" />
      <node concept="10P_77" id="7lYCqhv52tt" role="3clF45" />
      <node concept="37vLTG" id="7lYCqhv52tu" role="3clF46">
        <property role="TrG5h" value="object" />
        <node concept="3uibUv" id="7lYCqhv52tv" role="1tU5fm">
          <ref role="3uigEE" to="wyt6:~Object" resolve="Object" />
        </node>
      </node>
      <node concept="3clFbS" id="7lYCqhv52tw" role="3clF47">
        <node concept="3clFbJ" id="4B5aqq5OJ30" role="3cqZAp">
          <node concept="3clFbS" id="4B5aqq5OJ31" role="3clFbx">
            <node concept="3cpWs6" id="4B5aqq5OJ32" role="3cqZAp">
              <node concept="3clFbT" id="4B5aqq5OJ33" role="3cqZAk">
                <property role="3clFbU" value="true" />
              </node>
            </node>
          </node>
          <node concept="3clFbC" id="4B5aqq5OJ34" role="3clFbw">
            <node concept="Xjq3P" id="4B5aqq5OJ35" role="3uHU7B" />
            <node concept="37vLTw" id="4B5aqq5OJ36" role="3uHU7w">
              <ref role="3cqZAo" node="7lYCqhv52tu" resolve="object" />
            </node>
          </node>
        </node>
        <node concept="3clFbJ" id="4B5aqq5OJ37" role="3cqZAp">
          <node concept="3clFbS" id="4B5aqq5OJ38" role="3clFbx">
            <node concept="3cpWs6" id="4B5aqq5OJ39" role="3cqZAp">
              <node concept="3clFbT" id="4B5aqq5OJ3a" role="3cqZAk">
                <property role="3clFbU" value="false" />
              </node>
            </node>
          </node>
          <node concept="22lmx$" id="4B5aqq5OJW5" role="3clFbw">
            <node concept="3clFbC" id="4B5aqq5OKlz" role="3uHU7B">
              <node concept="10Nm6u" id="4B5aqq5OKtL" role="3uHU7w" />
              <node concept="37vLTw" id="4B5aqq5OKbr" role="3uHU7B">
                <ref role="3cqZAo" node="7lYCqhv52tu" resolve="object" />
              </node>
            </node>
            <node concept="3y3z36" id="4B5aqq5OJ3b" role="3uHU7w">
              <node concept="2OqwBi" id="4B5aqq5OJ3c" role="3uHU7B">
                <node concept="Xjq3P" id="4B5aqq5OJ3d" role="2Oq$k0" />
                <node concept="liA8E" id="4B5aqq5OJ3e" role="2OqNvi">
                  <ref role="37wK5l" to="wyt6:~Object.getClass():java.lang.Class" resolve="getClass" />
                </node>
              </node>
              <node concept="2OqwBi" id="4B5aqq5OJ3f" role="3uHU7w">
                <node concept="37vLTw" id="4B5aqq5OJ3g" role="2Oq$k0">
                  <ref role="3cqZAo" node="7lYCqhv52tu" resolve="object" />
                </node>
                <node concept="liA8E" id="4B5aqq5OJ3h" role="2OqNvi">
                  <ref role="37wK5l" to="wyt6:~Object.getClass():java.lang.Class" resolve="getClass" />
                </node>
              </node>
            </node>
          </node>
        </node>
        <node concept="3cpWs8" id="7lYCqhv55gX" role="3cqZAp">
          <node concept="3cpWsn" id="7lYCqhv55gY" role="3cpWs9">
            <property role="TrG5h" value="other" />
            <node concept="3uibUv" id="7lYCqhv55gZ" role="1tU5fm">
              <ref role="3uigEE" node="7lYCqhv527r" resolve="AddStatisticalLabel" />
            </node>
            <node concept="10QFUN" id="7lYCqhv55wA" role="33vP2m">
              <node concept="3uibUv" id="7lYCqhv55AC" role="10QFUM">
                <ref role="3uigEE" node="7lYCqhv527r" resolve="AddStatisticalLabel" />
              </node>
              <node concept="37vLTw" id="7lYCqhv55r8" role="10QFUP">
                <ref role="3cqZAo" node="7lYCqhv52tu" resolve="object" />
              </node>
            </node>
          </node>
        </node>
        <node concept="3cpWs6" id="7lYCqhv55R1" role="3cqZAp">
          <node concept="2YIFZM" id="4B5aqq5Q8UI" role="3cqZAk">
            <ref role="37wK5l" to="33ny:~Objects.equals(java.lang.Object,java.lang.Object):boolean" resolve="equals" />
            <ref role="1Pybhc" to="33ny:~Objects" resolve="Objects" />
            <node concept="2OqwBi" id="4B5aqq5Q9p7" role="37wK5m">
              <node concept="Xjq3P" id="4B5aqq5Q9bb" role="2Oq$k0" />
              <node concept="2OwXpG" id="4B5aqq5Q9G9" role="2OqNvi">
                <ref role="2Oxat5" node="7lYCqhv528z" resolve="label" />
              </node>
            </node>
            <node concept="2OqwBi" id="4B5aqq5Qaa0" role="37wK5m">
              <node concept="37vLTw" id="4B5aqq5Q9X5" role="2Oq$k0">
                <ref role="3cqZAo" node="7lYCqhv55gY" resolve="other" />
              </node>
              <node concept="2OwXpG" id="4B5aqq5Qatj" role="2OqNvi">
                <ref role="2Oxat5" node="7lYCqhv528z" resolve="label" />
              </node>
            </node>
          </node>
        </node>
      </node>
      <node concept="2AHcQZ" id="7lYCqhv52tx" role="2AJF6D">
        <ref role="2AI5Lk" to="wyt6:~Override" resolve="Override" />
      </node>
    </node>
    <node concept="2tJIrI" id="7lYCqhv582Z" role="jymVt" />
    <node concept="3clFb_" id="7lYCqhv52t_" role="jymVt">
      <property role="1EzhhJ" value="false" />
      <property role="TrG5h" value="toString" />
      <property role="DiZV1" value="false" />
      <property role="od$2w" value="false" />
      <node concept="3Tm1VV" id="7lYCqhv52tA" role="1B3o_S" />
      <node concept="3uibUv" id="7lYCqhv52tC" role="3clF45">
        <ref role="3uigEE" to="wyt6:~String" resolve="String" />
      </node>
      <node concept="3clFbS" id="7lYCqhv52tD" role="3clF47">
        <node concept="3cpWs6" id="7lYCqhv5mcm" role="3cqZAp">
          <node concept="2YIFZM" id="7lYCqhv5mxt" role="3cqZAk">
            <ref role="1Pybhc" to="wyt6:~String" resolve="String" />
            <ref role="37wK5l" to="wyt6:~String.format(java.lang.String,java.lang.Object...):java.lang.String" resolve="format" />
            <node concept="Xl_RD" id="7lYCqhv5mG3" role="37wK5m">
              <property role="Xl_RC" value="AddStatisticalLabel{label=%s}" />
            </node>
            <node concept="2OqwBi" id="7lYCqhv5oTo" role="37wK5m">
              <node concept="Xjq3P" id="7lYCqhv5oIL" role="2Oq$k0" />
              <node concept="2OwXpG" id="7lYCqhv5p78" role="2OqNvi">
                <ref role="2Oxat5" node="7lYCqhv528z" resolve="label" />
              </node>
            </node>
          </node>
        </node>
      </node>
      <node concept="2AHcQZ" id="7lYCqhv52tE" role="2AJF6D">
        <ref role="2AI5Lk" to="wyt6:~Override" resolve="Override" />
      </node>
    </node>
    <node concept="3Tm1VV" id="7lYCqhv527s" role="1B3o_S" />
    <node concept="3uibUv" id="7lYCqhv5283" role="1zkMxy">
      <ref role="3uigEE" to="8r9s:1mAGFBLiCZV" resolve="Action" />
    </node>
  </node>
  <node concept="312cEu" id="2FjKBCR6ZnR">
    <property role="TrG5h" value="SuggestAdditionalTestToRequestor" />
    <property role="3GE5qa" value="actions" />
    <node concept="312cEg" id="2FjKBCR6ZGJ" role="jymVt">
      <property role="34CwA1" value="false" />
      <property role="eg7rD" value="false" />
      <property role="TrG5h" value="test" />
      <property role="3TUv4t" value="false" />
      <node concept="3Tm6S6" id="2FjKBCR6ZGt" role="1B3o_S" />
      <node concept="17QB3L" id="2FjKBCR6ZGC" role="1tU5fm" />
    </node>
    <node concept="2tJIrI" id="2FjKBCR6ZGW" role="jymVt" />
    <node concept="3clFbW" id="2FjKBCR6ZHd" role="jymVt">
      <node concept="3cqZAl" id="2FjKBCR6ZHf" role="3clF45" />
      <node concept="3Tm1VV" id="2FjKBCR6ZHg" role="1B3o_S" />
      <node concept="3clFbS" id="2FjKBCR6ZHh" role="3clF47">
        <node concept="3clFbF" id="2FjKBCR6ZII" role="3cqZAp">
          <node concept="37vLTI" id="2FjKBCR77ef" role="3clFbG">
            <node concept="37vLTw" id="2FjKBCR77l6" role="37vLTx">
              <ref role="3cqZAo" node="2FjKBCR6ZHC" resolve="test" />
            </node>
            <node concept="2OqwBi" id="2FjKBCR6ZKc" role="37vLTJ">
              <node concept="Xjq3P" id="2FjKBCR6ZIH" role="2Oq$k0" />
              <node concept="2OwXpG" id="2FjKBCR6ZMw" role="2OqNvi">
                <ref role="2Oxat5" node="2FjKBCR6ZGJ" resolve="test" />
              </node>
            </node>
          </node>
        </node>
      </node>
      <node concept="37vLTG" id="2FjKBCR6ZHC" role="3clF46">
        <property role="TrG5h" value="test" />
        <node concept="17QB3L" id="2FjKBCR6ZHB" role="1tU5fm" />
      </node>
    </node>
    <node concept="2tJIrI" id="2FjKBCR6ZNM" role="jymVt" />
    <node concept="3clFb_" id="2FjKBCR6ZS4" role="jymVt">
      <property role="1EzhhJ" value="false" />
      <property role="TrG5h" value="getTest" />
      <property role="od$2w" value="false" />
      <property role="DiZV1" value="false" />
      <property role="2aFKle" value="false" />
      <node concept="3clFbS" id="2FjKBCR6ZS7" role="3clF47">
        <node concept="3cpWs6" id="2FjKBCR6ZWr" role="3cqZAp">
          <node concept="2OqwBi" id="2FjKBCR6ZZG" role="3cqZAk">
            <node concept="Xjq3P" id="2FjKBCR6ZWE" role="2Oq$k0" />
            <node concept="2OwXpG" id="2FjKBCR7038" role="2OqNvi">
              <ref role="2Oxat5" node="2FjKBCR6ZGJ" resolve="test" />
            </node>
          </node>
        </node>
      </node>
      <node concept="3Tm1VV" id="2FjKBCR6ZQz" role="1B3o_S" />
      <node concept="17QB3L" id="2FjKBCR6ZRZ" role="3clF45" />
    </node>
    <node concept="2tJIrI" id="2FjKBCR705d" role="jymVt" />
    <node concept="3clFb_" id="2FjKBCR707h" role="jymVt">
      <property role="1EzhhJ" value="false" />
      <property role="TrG5h" value="hashCode" />
      <property role="DiZV1" value="false" />
      <property role="od$2w" value="false" />
      <node concept="3Tm1VV" id="2FjKBCR707i" role="1B3o_S" />
      <node concept="10Oyi0" id="2FjKBCR707k" role="3clF45" />
      <node concept="3clFbS" id="2FjKBCR707l" role="3clF47">
        <node concept="3clFbF" id="2FjKBCR707o" role="3cqZAp">
          <node concept="2YIFZM" id="2FjKBCR70Au" role="3clFbG">
            <ref role="37wK5l" to="33ny:~Objects.hash(java.lang.Object...):int" resolve="hash" />
            <ref role="1Pybhc" to="33ny:~Objects" resolve="Objects" />
            <node concept="2OqwBi" id="2FjKBCR70H4" role="37wK5m">
              <node concept="Xjq3P" id="2FjKBCR70B1" role="2Oq$k0" />
              <node concept="liA8E" id="2FjKBCR70SO" role="2OqNvi">
                <ref role="37wK5l" to="wyt6:~Object.getClass():java.lang.Class" resolve="getClass" />
              </node>
            </node>
            <node concept="2OqwBi" id="2FjKBCR715N" role="37wK5m">
              <node concept="Xjq3P" id="2FjKBCR70YE" role="2Oq$k0" />
              <node concept="2OwXpG" id="2FjKBCR71at" role="2OqNvi">
                <ref role="2Oxat5" node="2FjKBCR6ZGJ" resolve="test" />
              </node>
            </node>
          </node>
        </node>
      </node>
      <node concept="2AHcQZ" id="2FjKBCR707m" role="2AJF6D">
        <ref role="2AI5Lk" to="wyt6:~Override" resolve="Override" />
      </node>
    </node>
    <node concept="2tJIrI" id="2FjKBCR71Y2" role="jymVt" />
    <node concept="3clFb_" id="2FjKBCR71Ch" role="jymVt">
      <property role="1EzhhJ" value="false" />
      <property role="TrG5h" value="equals" />
      <property role="DiZV1" value="false" />
      <property role="od$2w" value="false" />
      <node concept="3Tm1VV" id="2FjKBCR71Ci" role="1B3o_S" />
      <node concept="10P_77" id="2FjKBCR71Cj" role="3clF45" />
      <node concept="37vLTG" id="2FjKBCR71Ck" role="3clF46">
        <property role="TrG5h" value="object" />
        <node concept="3uibUv" id="2FjKBCR71Cl" role="1tU5fm">
          <ref role="3uigEE" to="wyt6:~Object" resolve="Object" />
        </node>
      </node>
      <node concept="3clFbS" id="2FjKBCR71Cm" role="3clF47">
        <node concept="3clFbJ" id="2FjKBCR71Cn" role="3cqZAp">
          <node concept="3clFbS" id="2FjKBCR71Co" role="3clFbx">
            <node concept="3cpWs6" id="2FjKBCR71Cp" role="3cqZAp">
              <node concept="3clFbT" id="2FjKBCR71Cq" role="3cqZAk">
                <property role="3clFbU" value="true" />
              </node>
            </node>
          </node>
          <node concept="3clFbC" id="2FjKBCR71Cr" role="3clFbw">
            <node concept="Xjq3P" id="2FjKBCR71Cs" role="3uHU7B" />
            <node concept="37vLTw" id="2FjKBCR71Ct" role="3uHU7w">
              <ref role="3cqZAo" node="2FjKBCR71Ck" resolve="object" />
            </node>
          </node>
        </node>
        <node concept="3clFbJ" id="2FjKBCR71Cu" role="3cqZAp">
          <node concept="3clFbS" id="2FjKBCR71Cv" role="3clFbx">
            <node concept="3cpWs6" id="2FjKBCR71Cw" role="3cqZAp">
              <node concept="3clFbT" id="2FjKBCR71Cx" role="3cqZAk">
                <property role="3clFbU" value="false" />
              </node>
            </node>
          </node>
          <node concept="22lmx$" id="2FjKBCR71Cy" role="3clFbw">
            <node concept="3clFbC" id="2FjKBCR71Cz" role="3uHU7B">
              <node concept="10Nm6u" id="2FjKBCR71C$" role="3uHU7w" />
              <node concept="37vLTw" id="2FjKBCR71C_" role="3uHU7B">
                <ref role="3cqZAo" node="2FjKBCR71Ck" resolve="object" />
              </node>
            </node>
            <node concept="3y3z36" id="2FjKBCR71CA" role="3uHU7w">
              <node concept="2OqwBi" id="2FjKBCR71CB" role="3uHU7B">
                <node concept="Xjq3P" id="2FjKBCR71CC" role="2Oq$k0" />
                <node concept="liA8E" id="2FjKBCR71CD" role="2OqNvi">
                  <ref role="37wK5l" to="wyt6:~Object.getClass():java.lang.Class" resolve="getClass" />
                </node>
              </node>
              <node concept="2OqwBi" id="2FjKBCR71CE" role="3uHU7w">
                <node concept="37vLTw" id="2FjKBCR71CF" role="2Oq$k0">
                  <ref role="3cqZAo" node="2FjKBCR71Ck" resolve="object" />
                </node>
                <node concept="liA8E" id="2FjKBCR71CG" role="2OqNvi">
                  <ref role="37wK5l" to="wyt6:~Object.getClass():java.lang.Class" resolve="getClass" />
                </node>
              </node>
            </node>
          </node>
        </node>
        <node concept="3cpWs8" id="2FjKBCR71CH" role="3cqZAp">
          <node concept="3cpWsn" id="2FjKBCR71CI" role="3cpWs9">
            <property role="TrG5h" value="other" />
            <node concept="3uibUv" id="2FjKBCR72fL" role="1tU5fm">
              <ref role="3uigEE" node="2FjKBCR6ZnR" resolve="SuggestAdditionalTestToRequestor" />
            </node>
            <node concept="10QFUN" id="2FjKBCR71CK" role="33vP2m">
              <node concept="3uibUv" id="2FjKBCR72wg" role="10QFUM">
                <ref role="3uigEE" node="2FjKBCR6ZnR" resolve="SuggestAdditionalTestToRequestor" />
              </node>
              <node concept="37vLTw" id="2FjKBCR71CM" role="10QFUP">
                <ref role="3cqZAo" node="2FjKBCR71Ck" resolve="object" />
              </node>
            </node>
          </node>
        </node>
        <node concept="3cpWs6" id="2FjKBCR71CN" role="3cqZAp">
          <node concept="2YIFZM" id="2FjKBCR71CO" role="3cqZAk">
            <ref role="37wK5l" to="33ny:~Objects.equals(java.lang.Object,java.lang.Object):boolean" resolve="equals" />
            <ref role="1Pybhc" to="33ny:~Objects" resolve="Objects" />
            <node concept="2OqwBi" id="2FjKBCR71CP" role="37wK5m">
              <node concept="Xjq3P" id="2FjKBCR71CQ" role="2Oq$k0" />
              <node concept="2OwXpG" id="2FjKBCR72PF" role="2OqNvi">
                <ref role="2Oxat5" node="2FjKBCR6ZGJ" resolve="test" />
              </node>
            </node>
            <node concept="2OqwBi" id="2FjKBCR71CS" role="37wK5m">
              <node concept="37vLTw" id="2FjKBCR71CT" role="2Oq$k0">
                <ref role="3cqZAo" node="2FjKBCR71CI" resolve="other" />
              </node>
              <node concept="2OwXpG" id="2FjKBCR738Q" role="2OqNvi">
                <ref role="2Oxat5" node="2FjKBCR6ZGJ" resolve="test" />
              </node>
            </node>
          </node>
        </node>
      </node>
      <node concept="2AHcQZ" id="2FjKBCR71CV" role="2AJF6D">
        <ref role="2AI5Lk" to="wyt6:~Override" resolve="Override" />
      </node>
    </node>
    <node concept="2tJIrI" id="2FjKBCR71D0" role="jymVt" />
    <node concept="3clFb_" id="2FjKBCR71D1" role="jymVt">
      <property role="1EzhhJ" value="false" />
      <property role="TrG5h" value="toString" />
      <property role="DiZV1" value="false" />
      <property role="od$2w" value="false" />
      <node concept="3Tm1VV" id="2FjKBCR71D2" role="1B3o_S" />
      <node concept="3uibUv" id="2FjKBCR71D3" role="3clF45">
        <ref role="3uigEE" to="wyt6:~String" resolve="String" />
      </node>
      <node concept="3clFbS" id="2FjKBCR71D4" role="3clF47">
        <node concept="3cpWs6" id="2FjKBCR71D5" role="3cqZAp">
          <node concept="2YIFZM" id="2FjKBCR71D6" role="3cqZAk">
            <ref role="37wK5l" to="wyt6:~String.format(java.lang.String,java.lang.Object...):java.lang.String" resolve="format" />
            <ref role="1Pybhc" to="wyt6:~String" resolve="String" />
            <node concept="Xl_RD" id="2FjKBCR71D7" role="37wK5m">
              <property role="Xl_RC" value="SuggestAdditionalTestToRequestor{test=%s}" />
            </node>
            <node concept="2OqwBi" id="2FjKBCR71D8" role="37wK5m">
              <node concept="Xjq3P" id="2FjKBCR71D9" role="2Oq$k0" />
              <node concept="2OwXpG" id="2FjKBCR73rV" role="2OqNvi">
                <ref role="2Oxat5" node="2FjKBCR6ZGJ" resolve="test" />
              </node>
            </node>
          </node>
        </node>
      </node>
      <node concept="2AHcQZ" id="2FjKBCR71Db" role="2AJF6D">
        <ref role="2AI5Lk" to="wyt6:~Override" resolve="Override" />
      </node>
    </node>
    <node concept="3Tm1VV" id="2FjKBCR6ZnS" role="1B3o_S" />
    <node concept="3uibUv" id="2FjKBCR70ip" role="1zkMxy">
      <ref role="3uigEE" to="8r9s:1mAGFBLiCZV" resolve="Action" />
    </node>
  </node>
  <node concept="312cEu" id="2FjKBCRqCki">
    <property role="TrG5h" value="TestResultVarianceLiteral" />
    <property role="3GE5qa" value="literals" />
    <property role="1sVAO0" value="true" />
    <node concept="3clFb_" id="2FjKBCRqCml" role="jymVt">
      <property role="1EzhhJ" value="false" />
      <property role="TrG5h" value="hashCode" />
      <property role="DiZV1" value="false" />
      <property role="od$2w" value="false" />
      <node concept="3Tm1VV" id="2FjKBCRqCmm" role="1B3o_S" />
      <node concept="10Oyi0" id="2FjKBCRqCmo" role="3clF45" />
      <node concept="3clFbS" id="2FjKBCRqCmp" role="3clF47">
        <node concept="3clFbF" id="2FjKBCRqCms" role="3cqZAp">
          <node concept="2YIFZM" id="2FjKBCRqCZd" role="3clFbG">
            <ref role="37wK5l" to="33ny:~Objects.hash(java.lang.Object...):int" resolve="hash" />
            <ref role="1Pybhc" to="33ny:~Objects" resolve="Objects" />
            <node concept="2OqwBi" id="2FjKBCRqD3T" role="37wK5m">
              <node concept="Xjq3P" id="2FjKBCRqCZL" role="2Oq$k0" />
              <node concept="liA8E" id="2FjKBCRqDf0" role="2OqNvi">
                <ref role="37wK5l" to="wyt6:~Object.getClass():java.lang.Class" resolve="getClass" />
              </node>
            </node>
          </node>
        </node>
      </node>
      <node concept="2AHcQZ" id="2FjKBCRqCmq" role="2AJF6D">
        <ref role="2AI5Lk" to="wyt6:~Override" resolve="Override" />
      </node>
    </node>
    <node concept="3clFb_" id="2FjKBCRqCmt" role="jymVt">
      <property role="1EzhhJ" value="false" />
      <property role="TrG5h" value="equals" />
      <property role="DiZV1" value="false" />
      <property role="od$2w" value="false" />
      <node concept="3Tm1VV" id="2FjKBCRqCmu" role="1B3o_S" />
      <node concept="10P_77" id="2FjKBCRqCmw" role="3clF45" />
      <node concept="37vLTG" id="2FjKBCRqCmx" role="3clF46">
        <property role="TrG5h" value="object" />
        <node concept="3uibUv" id="2FjKBCRqCmy" role="1tU5fm">
          <ref role="3uigEE" to="wyt6:~Object" resolve="Object" />
        </node>
      </node>
      <node concept="3clFbS" id="2FjKBCRqCmz" role="3clF47">
        <node concept="3clFbJ" id="4B5aqq5PMED" role="3cqZAp">
          <node concept="3clFbS" id="4B5aqq5PMEE" role="3clFbx">
            <node concept="3cpWs6" id="4B5aqq5PMEF" role="3cqZAp">
              <node concept="3clFbT" id="4B5aqq5PMEG" role="3cqZAk">
                <property role="3clFbU" value="true" />
              </node>
            </node>
          </node>
          <node concept="3clFbC" id="4B5aqq5PMEH" role="3clFbw">
            <node concept="Xjq3P" id="4B5aqq5PMEI" role="3uHU7B" />
            <node concept="37vLTw" id="4B5aqq5PMEJ" role="3uHU7w">
              <ref role="3cqZAo" node="2FjKBCRqCmx" resolve="object" />
            </node>
          </node>
        </node>
        <node concept="3clFbJ" id="4B5aqq5PMEK" role="3cqZAp">
          <node concept="3clFbS" id="4B5aqq5PMEL" role="3clFbx">
            <node concept="3cpWs6" id="4B5aqq5PMEM" role="3cqZAp">
              <node concept="3clFbT" id="4B5aqq5PMEN" role="3cqZAk">
                <property role="3clFbU" value="false" />
              </node>
            </node>
          </node>
          <node concept="22lmx$" id="4B5aqq5PMEO" role="3clFbw">
            <node concept="3clFbC" id="4B5aqq5PMEP" role="3uHU7B">
              <node concept="10Nm6u" id="4B5aqq5PMEQ" role="3uHU7w" />
              <node concept="37vLTw" id="4B5aqq5PMER" role="3uHU7B">
                <ref role="3cqZAo" node="2FjKBCRqCmx" resolve="object" />
              </node>
            </node>
            <node concept="3y3z36" id="4B5aqq5PMES" role="3uHU7w">
              <node concept="2OqwBi" id="4B5aqq5PMET" role="3uHU7B">
                <node concept="Xjq3P" id="4B5aqq5PMEU" role="2Oq$k0" />
                <node concept="liA8E" id="4B5aqq5PMEV" role="2OqNvi">
                  <ref role="37wK5l" to="wyt6:~Object.getClass():java.lang.Class" resolve="getClass" />
                </node>
              </node>
              <node concept="2OqwBi" id="4B5aqq5PMEW" role="3uHU7w">
                <node concept="37vLTw" id="4B5aqq5PMEX" role="2Oq$k0">
                  <ref role="3cqZAo" node="2FjKBCRqCmx" resolve="object" />
                </node>
                <node concept="liA8E" id="4B5aqq5PMEY" role="2OqNvi">
                  <ref role="37wK5l" to="wyt6:~Object.getClass():java.lang.Class" resolve="getClass" />
                </node>
              </node>
            </node>
          </node>
        </node>
        <node concept="3cpWs6" id="4B5aqq5PN83" role="3cqZAp">
          <node concept="3clFbT" id="4B5aqq5PNmv" role="3cqZAk">
            <property role="3clFbU" value="true" />
          </node>
        </node>
      </node>
      <node concept="2AHcQZ" id="2FjKBCRqCm$" role="2AJF6D">
        <ref role="2AI5Lk" to="wyt6:~Override" resolve="Override" />
      </node>
    </node>
    <node concept="3Tm1VV" id="2FjKBCRqCkj" role="1B3o_S" />
  </node>
  <node concept="312cEu" id="2FjKBCRqCld">
    <property role="3GE5qa" value="literals" />
    <property role="TrG5h" value="InsignificantTestResultVariance" />
    <node concept="Wx3nA" id="2FjKBCRqGf_" role="jymVt">
      <property role="2dlcS1" value="false" />
      <property role="2dld4O" value="false" />
      <property role="TrG5h" value="instance" />
      <property role="3TUv4t" value="false" />
      <node concept="3Tm6S6" id="2FjKBCRqGff" role="1B3o_S" />
      <node concept="3uibUv" id="2FjKBCRqGfu" role="1tU5fm">
        <ref role="3uigEE" node="2FjKBCRqCld" resolve="InsignificantTestResultVariance" />
      </node>
    </node>
    <node concept="2tJIrI" id="2FjKBCRqYNf" role="jymVt" />
    <node concept="3clFbW" id="2FjKBCRqYP$" role="jymVt">
      <node concept="3cqZAl" id="2FjKBCRqYPA" role="3clF45" />
      <node concept="3Tm6S6" id="2FjKBCRqYQX" role="1B3o_S" />
      <node concept="3clFbS" id="2FjKBCRqYPC" role="3clF47" />
    </node>
    <node concept="2tJIrI" id="2FjKBCRqGfK" role="jymVt" />
    <node concept="2YIFZL" id="2FjKBCRqGhv" role="jymVt">
      <property role="TrG5h" value="getInstance" />
      <property role="od$2w" value="false" />
      <property role="DiZV1" value="false" />
      <property role="2aFKle" value="false" />
      <node concept="3clFbS" id="2FjKBCRqGhy" role="3clF47">
        <node concept="3clFbJ" id="2FjKBCRqGii" role="3cqZAp">
          <node concept="3clFbC" id="2FjKBCRqGs8" role="3clFbw">
            <node concept="10Nm6u" id="2FjKBCRqGsM" role="3uHU7w" />
            <node concept="37vLTw" id="2FjKBCRqGiK" role="3uHU7B">
              <ref role="3cqZAo" node="2FjKBCRqGf_" resolve="instance" />
            </node>
          </node>
          <node concept="3clFbS" id="2FjKBCRqGik" role="3clFbx">
            <node concept="3clFbF" id="2FjKBCRqGtn" role="3cqZAp">
              <node concept="37vLTI" id="2FjKBCRqGvW" role="3clFbG">
                <node concept="2ShNRf" id="2FjKBCRqGwm" role="37vLTx">
                  <node concept="HV5vD" id="2FjKBCRqGC3" role="2ShVmc">
                    <ref role="HV5vE" node="2FjKBCRqCld" resolve="InsignificantTestResultVariance" />
                  </node>
                </node>
                <node concept="37vLTw" id="2FjKBCRqGtm" role="37vLTJ">
                  <ref role="3cqZAo" node="2FjKBCRqGf_" resolve="instance" />
                </node>
              </node>
            </node>
          </node>
        </node>
        <node concept="3cpWs6" id="2FjKBCRqGD5" role="3cqZAp">
          <node concept="37vLTw" id="2FjKBCRqGDK" role="3cqZAk">
            <ref role="3cqZAo" node="2FjKBCRqGf_" resolve="instance" />
          </node>
        </node>
      </node>
      <node concept="3Tm1VV" id="2FjKBCRqGha" role="1B3o_S" />
      <node concept="3uibUv" id="2FjKBCRqGhT" role="3clF45">
        <ref role="3uigEE" node="2FjKBCRqCld" resolve="InsignificantTestResultVariance" />
      </node>
    </node>
    <node concept="3Tm1VV" id="2FjKBCRqCle" role="1B3o_S" />
    <node concept="3uibUv" id="2FjKBCRqCm7" role="1zkMxy">
      <ref role="3uigEE" node="2FjKBCRqCki" resolve="TestResultVarianceLiteral" />
    </node>
  </node>
  <node concept="312cEu" id="2FjKBCRqGEi">
    <property role="3GE5qa" value="literals" />
    <property role="TrG5h" value="SignificantTestResultVariance" />
    <node concept="Wx3nA" id="2FjKBCRqGEj" role="jymVt">
      <property role="2dlcS1" value="false" />
      <property role="2dld4O" value="false" />
      <property role="TrG5h" value="instance" />
      <property role="3TUv4t" value="false" />
      <node concept="3Tm6S6" id="2FjKBCRqGEk" role="1B3o_S" />
      <node concept="3uibUv" id="2FjKBCRqGEl" role="1tU5fm">
        <ref role="3uigEE" node="2FjKBCRqGEi" resolve="SignificantTestResultVariance" />
      </node>
    </node>
    <node concept="2tJIrI" id="2FjKBCRqWWn" role="jymVt" />
    <node concept="3clFbW" id="2FjKBCRqWUZ" role="jymVt">
      <node concept="3cqZAl" id="2FjKBCRqWV1" role="3clF45" />
      <node concept="3Tm6S6" id="2FjKBCRqWXz" role="1B3o_S" />
      <node concept="3clFbS" id="2FjKBCRqWV3" role="3clF47" />
    </node>
    <node concept="2tJIrI" id="2FjKBCRqWTP" role="jymVt" />
    <node concept="2YIFZL" id="2FjKBCRqGEn" role="jymVt">
      <property role="TrG5h" value="getInstance" />
      <property role="od$2w" value="false" />
      <property role="DiZV1" value="false" />
      <property role="2aFKle" value="false" />
      <node concept="3clFbS" id="2FjKBCRqGEo" role="3clF47">
        <node concept="3clFbJ" id="2FjKBCRqGEp" role="3cqZAp">
          <node concept="3clFbC" id="2FjKBCRqGEq" role="3clFbw">
            <node concept="10Nm6u" id="2FjKBCRqGEr" role="3uHU7w" />
            <node concept="37vLTw" id="2FjKBCRqGEC" role="3uHU7B">
              <ref role="3cqZAo" node="2FjKBCRqGEj" resolve="instance" />
            </node>
          </node>
          <node concept="3clFbS" id="2FjKBCRqGEs" role="3clFbx">
            <node concept="3clFbF" id="2FjKBCRqGEt" role="3cqZAp">
              <node concept="37vLTI" id="2FjKBCRqGEu" role="3clFbG">
                <node concept="2ShNRf" id="2FjKBCRqGEv" role="37vLTx">
                  <node concept="HV5vD" id="2FjKBCRqGEw" role="2ShVmc">
                    <ref role="HV5vE" node="2FjKBCRqGEi" resolve="SignificantTestResultVariance" />
                  </node>
                </node>
                <node concept="37vLTw" id="2FjKBCRqGEG" role="37vLTJ">
                  <ref role="3cqZAo" node="2FjKBCRqGEj" resolve="instance" />
                </node>
              </node>
            </node>
          </node>
        </node>
        <node concept="3cpWs6" id="2FjKBCRqGEx" role="3cqZAp">
          <node concept="37vLTw" id="2FjKBCRqGEK" role="3cqZAk">
            <ref role="3cqZAo" node="2FjKBCRqGEj" resolve="instance" />
          </node>
        </node>
      </node>
      <node concept="3Tm1VV" id="2FjKBCRqGEy" role="1B3o_S" />
      <node concept="3uibUv" id="2FjKBCRqGEz" role="3clF45">
        <ref role="3uigEE" node="2FjKBCRqGEi" resolve="SignificantTestResultVariance" />
      </node>
    </node>
    <node concept="3Tm1VV" id="2FjKBCRqGE$" role="1B3o_S" />
    <node concept="3uibUv" id="2FjKBCRqGE_" role="1zkMxy">
      <ref role="3uigEE" node="2FjKBCRqCki" resolve="TestResultVarianceLiteral" />
    </node>
  </node>
  <node concept="3HP615" id="2FjKBCRqHLk">
    <property role="TrG5h" value="FurstAutocommentationTaskDataValueVisitor" />
    <node concept="3clFb_" id="2FjKBCRqHMq" role="jymVt">
      <property role="1EzhhJ" value="true" />
      <property role="2aFKle" value="false" />
      <property role="TrG5h" value="visit" />
      <node concept="3clFbS" id="2FjKBCRqHMt" role="3clF47" />
      <node concept="3Tm1VV" id="2FjKBCRqHMu" role="1B3o_S" />
      <node concept="3uibUv" id="2FjKBCRqHM2" role="3clF45">
        <ref role="3uigEE" to="8r9s:2XLt5KVsHET" resolve="LisResponse" />
        <node concept="3uibUv" id="2FjKBCRqHMg" role="11_B2D">
          <ref role="3uigEE" node="2FjKBCRqCki" resolve="TestResultVarianceLiteral" />
        </node>
      </node>
      <node concept="37vLTG" id="2FjKBCRqU79" role="3clF46">
        <property role="TrG5h" value="dataValue" />
        <node concept="3uibUv" id="2FjKBCRqU78" role="1tU5fm">
          <ref role="3uigEE" node="2FjKBCRqHMV" resolve="TestResultVariance" />
        </node>
      </node>
    </node>
    <node concept="3Tm1VV" id="2FjKBCRqHLl" role="1B3o_S" />
    <node concept="3uibUv" id="2FjKBCRqHLA" role="3HQHJm">
      <ref role="3uigEE" to="8r9s:5jVYnMGKCt5" resolve="DataValueVisitor" />
    </node>
  </node>
  <node concept="312cEu" id="2FjKBCRqHMV">
    <property role="TrG5h" value="TestResultVariance" />
    <property role="3GE5qa" value="data" />
    <node concept="312cEg" id="2FjKBCRqMXr" role="jymVt">
      <property role="34CwA1" value="false" />
      <property role="eg7rD" value="false" />
      <property role="TrG5h" value="test" />
      <property role="3TUv4t" value="false" />
      <node concept="3Tm6S6" id="2FjKBCRqMnS" role="1B3o_S" />
      <node concept="17QB3L" id="2FjKBCRqMH0" role="1tU5fm" />
    </node>
    <node concept="2tJIrI" id="2FjKBCRqNi_" role="jymVt" />
    <node concept="3clFbW" id="2FjKBCRqNCC" role="jymVt">
      <node concept="3cqZAl" id="2FjKBCRqNCE" role="3clF45" />
      <node concept="3Tm1VV" id="2FjKBCRqNCF" role="1B3o_S" />
      <node concept="3clFbS" id="2FjKBCRqNCG" role="3clF47">
        <node concept="3clFbF" id="2FjKBCRqOfy" role="3cqZAp">
          <node concept="37vLTI" id="2FjKBCRqOSb" role="3clFbG">
            <node concept="37vLTw" id="2FjKBCRqPac" role="37vLTx">
              <ref role="3cqZAo" node="2FjKBCRqNY0" resolve="test" />
            </node>
            <node concept="2OqwBi" id="2FjKBCRqOjY" role="37vLTJ">
              <node concept="Xjq3P" id="2FjKBCRqOfx" role="2Oq$k0" />
              <node concept="2OwXpG" id="2FjKBCRqOpm" role="2OqNvi">
                <ref role="2Oxat5" node="2FjKBCRqMXr" resolve="test" />
              </node>
            </node>
          </node>
        </node>
      </node>
      <node concept="37vLTG" id="2FjKBCRqNY0" role="3clF46">
        <property role="TrG5h" value="test" />
        <node concept="17QB3L" id="2FjKBCRqNXZ" role="1tU5fm" />
      </node>
    </node>
    <node concept="2tJIrI" id="2FjKBCRqM2N" role="jymVt" />
    <node concept="3Tm1VV" id="2FjKBCRqHMW" role="1B3o_S" />
    <node concept="3uibUv" id="2FjKBCRqHNh" role="1zkMxy">
      <ref role="3uigEE" to="8r9s:1mAGFBLk5bI" resolve="NonBooleanDataValue" />
      <node concept="3uibUv" id="2FjKBCRqHNx" role="11_B2D">
        <ref role="3uigEE" node="2FjKBCRqCki" resolve="TestResultVarianceLiteral" />
      </node>
    </node>
    <node concept="3clFb_" id="2FjKBCRqHNS" role="jymVt">
      <property role="1EzhhJ" value="false" />
      <property role="TrG5h" value="accept" />
      <property role="od$2w" value="false" />
      <property role="DiZV1" value="false" />
      <property role="2aFKle" value="false" />
      <node concept="3Tm1VV" id="2FjKBCRqHNU" role="1B3o_S" />
      <node concept="3uibUv" id="2FjKBCRqHNV" role="3clF45">
        <ref role="3uigEE" to="8r9s:2XLt5KVsHET" resolve="LisResponse" />
        <node concept="3uibUv" id="2FjKBCRqHO2" role="11_B2D">
          <ref role="3uigEE" node="2FjKBCRqCki" resolve="TestResultVarianceLiteral" />
        </node>
      </node>
      <node concept="37vLTG" id="2FjKBCRqHNX" role="3clF46">
        <property role="TrG5h" value="visitor" />
        <node concept="3uibUv" id="2FjKBCRqHNY" role="1tU5fm">
          <ref role="3uigEE" to="8r9s:5jVYnMGKCt5" resolve="DataValueVisitor" />
        </node>
      </node>
      <node concept="3clFbS" id="2FjKBCRqHO3" role="3clF47">
        <node concept="3clFbJ" id="2FjKBCRqI9x" role="3cqZAp">
          <node concept="2ZW3vV" id="2FjKBCRqIvi" role="3clFbw">
            <node concept="3uibUv" id="2FjKBCRqIMT" role="2ZW6by">
              <ref role="3uigEE" node="2FjKBCRqHLk" resolve="FurstAutocommentationTaskDataValueVisitor" />
            </node>
            <node concept="37vLTw" id="2FjKBCRqIa5" role="2ZW6bz">
              <ref role="3cqZAo" node="2FjKBCRqHNX" resolve="visitor" />
            </node>
          </node>
          <node concept="3clFbS" id="2FjKBCRqI9z" role="3clFbx">
            <node concept="3clFbF" id="2FjKBCRqINJ" role="3cqZAp">
              <node concept="2OqwBi" id="2FjKBCRqJLQ" role="3clFbG">
                <node concept="1eOMI4" id="2FjKBCRqJbR" role="2Oq$k0">
                  <node concept="10QFUN" id="2FjKBCRqJt6" role="1eOMHV">
                    <node concept="3uibUv" id="2FjKBCRqJJt" role="10QFUM">
                      <ref role="3uigEE" node="2FjKBCRqHLk" resolve="FurstAutocommentationTaskDataValueVisitor" />
                    </node>
                    <node concept="37vLTw" id="2FjKBCRqINI" role="10QFUP">
                      <ref role="3cqZAo" node="2FjKBCRqHNX" resolve="visitor" />
                    </node>
                  </node>
                </node>
                <node concept="liA8E" id="2FjKBCRqK5M" role="2OqNvi">
                  <ref role="37wK5l" node="2FjKBCRqHMq" resolve="visit" />
                  <node concept="Xjq3P" id="2FjKBCRqUsQ" role="37wK5m" />
                </node>
              </node>
            </node>
          </node>
        </node>
        <node concept="3cpWs6" id="2FjKBCRqK7Y" role="3cqZAp">
          <node concept="10Nm6u" id="2FjKBCRqK8x" role="3cqZAk" />
        </node>
      </node>
      <node concept="2AHcQZ" id="2FjKBCRqHO4" role="2AJF6D">
        <ref role="2AI5Lk" to="wyt6:~Override" resolve="Override" />
      </node>
    </node>
    <node concept="2tJIrI" id="2FjKBCRqTGu" role="jymVt" />
    <node concept="3clFb_" id="2FjKBCRqHO7" role="jymVt">
      <property role="1EzhhJ" value="false" />
      <property role="TrG5h" value="hashCode" />
      <property role="DiZV1" value="false" />
      <property role="od$2w" value="false" />
      <node concept="3Tm1VV" id="2FjKBCRqHO8" role="1B3o_S" />
      <node concept="10Oyi0" id="2FjKBCRqHOa" role="3clF45" />
      <node concept="3clFbS" id="2FjKBCRqHOe" role="3clF47">
        <node concept="3clFbF" id="2FjKBCRqKsK" role="3cqZAp">
          <node concept="2YIFZM" id="2FjKBCRqKtu" role="3clFbG">
            <ref role="37wK5l" to="33ny:~Objects.hash(java.lang.Object...):int" resolve="hash" />
            <ref role="1Pybhc" to="33ny:~Objects" resolve="Objects" />
            <node concept="2OqwBi" id="2FjKBCRqKWO" role="37wK5m">
              <node concept="Xjq3P" id="2FjKBCRqKJF" role="2Oq$k0" />
              <node concept="liA8E" id="2FjKBCRqLb0" role="2OqNvi">
                <ref role="37wK5l" to="wyt6:~Object.getClass():java.lang.Class" resolve="getClass" />
              </node>
            </node>
            <node concept="2OqwBi" id="2FjKBCRqLM0" role="37wK5m">
              <node concept="Xjq3P" id="2FjKBCRqLBr" role="2Oq$k0" />
              <node concept="2OwXpG" id="2FjKBCRqPgk" role="2OqNvi">
                <ref role="2Oxat5" node="2FjKBCRqMXr" resolve="test" />
              </node>
            </node>
          </node>
        </node>
      </node>
      <node concept="2AHcQZ" id="2FjKBCRqHOf" role="2AJF6D">
        <ref role="2AI5Lk" to="wyt6:~Override" resolve="Override" />
      </node>
    </node>
    <node concept="2tJIrI" id="2FjKBCRqTiR" role="jymVt" />
    <node concept="3clFb_" id="2FjKBCRqHOi" role="jymVt">
      <property role="1EzhhJ" value="false" />
      <property role="TrG5h" value="equals" />
      <property role="DiZV1" value="false" />
      <property role="od$2w" value="false" />
      <node concept="3Tm1VV" id="2FjKBCRqHOj" role="1B3o_S" />
      <node concept="10P_77" id="2FjKBCRqHOl" role="3clF45" />
      <node concept="37vLTG" id="2FjKBCRqHOm" role="3clF46">
        <property role="TrG5h" value="object" />
        <node concept="3uibUv" id="2FjKBCRqHOn" role="1tU5fm">
          <ref role="3uigEE" to="wyt6:~Object" resolve="Object" />
        </node>
      </node>
      <node concept="3clFbS" id="2FjKBCRqHOr" role="3clF47">
        <node concept="3clFbJ" id="4B5aqq5OO9D" role="3cqZAp">
          <node concept="3clFbS" id="4B5aqq5OO9E" role="3clFbx">
            <node concept="3cpWs6" id="4B5aqq5OO9F" role="3cqZAp">
              <node concept="3clFbT" id="4B5aqq5OO9G" role="3cqZAk">
                <property role="3clFbU" value="true" />
              </node>
            </node>
          </node>
          <node concept="3clFbC" id="4B5aqq5OO9H" role="3clFbw">
            <node concept="Xjq3P" id="4B5aqq5OO9I" role="3uHU7B" />
            <node concept="37vLTw" id="4B5aqq5OO9J" role="3uHU7w">
              <ref role="3cqZAo" node="2FjKBCRqHOm" resolve="object" />
            </node>
          </node>
        </node>
        <node concept="3clFbJ" id="4B5aqq5OO9K" role="3cqZAp">
          <node concept="3clFbS" id="4B5aqq5OO9L" role="3clFbx">
            <node concept="3cpWs6" id="4B5aqq5OO9M" role="3cqZAp">
              <node concept="3clFbT" id="4B5aqq5OO9N" role="3cqZAk">
                <property role="3clFbU" value="false" />
              </node>
            </node>
          </node>
          <node concept="22lmx$" id="4B5aqq5OO9O" role="3clFbw">
            <node concept="3clFbC" id="4B5aqq5OO9P" role="3uHU7B">
              <node concept="10Nm6u" id="4B5aqq5OO9Q" role="3uHU7w" />
              <node concept="37vLTw" id="4B5aqq5OO9R" role="3uHU7B">
                <ref role="3cqZAo" node="2FjKBCRqHOm" resolve="object" />
              </node>
            </node>
            <node concept="3y3z36" id="4B5aqq5OO9S" role="3uHU7w">
              <node concept="2OqwBi" id="4B5aqq5OO9T" role="3uHU7B">
                <node concept="Xjq3P" id="4B5aqq5OO9U" role="2Oq$k0" />
                <node concept="liA8E" id="4B5aqq5OO9V" role="2OqNvi">
                  <ref role="37wK5l" to="wyt6:~Object.getClass():java.lang.Class" resolve="getClass" />
                </node>
              </node>
              <node concept="2OqwBi" id="4B5aqq5OO9W" role="3uHU7w">
                <node concept="37vLTw" id="4B5aqq5OO9X" role="2Oq$k0">
                  <ref role="3cqZAo" node="2FjKBCRqHOm" resolve="object" />
                </node>
                <node concept="liA8E" id="4B5aqq5OO9Y" role="2OqNvi">
                  <ref role="37wK5l" to="wyt6:~Object.getClass():java.lang.Class" resolve="getClass" />
                </node>
              </node>
            </node>
          </node>
        </node>
        <node concept="3cpWs8" id="7lYCqhv4zsy" role="3cqZAp">
          <node concept="3cpWsn" id="7lYCqhv4zsz" role="3cpWs9">
            <property role="TrG5h" value="other" />
            <node concept="3uibUv" id="2FjKBCRqRiR" role="1tU5fm">
              <ref role="3uigEE" node="2FjKBCRqHMV" resolve="TestResultVariance" />
            </node>
            <node concept="10QFUN" id="7lYCqhv4zs$" role="33vP2m">
              <node concept="3uibUv" id="2FjKBCRqQUd" role="10QFUM">
                <ref role="3uigEE" node="2FjKBCRqHMV" resolve="TestResultVariance" />
              </node>
              <node concept="37vLTw" id="7lYCqhv4zs_" role="10QFUP">
                <ref role="3cqZAo" node="2FjKBCRqHOm" resolve="object" />
              </node>
            </node>
          </node>
        </node>
        <node concept="3cpWs6" id="7lYCqhv4zsA" role="3cqZAp">
          <node concept="2YIFZM" id="4B5aqq5CxsZ" role="3cqZAk">
            <ref role="37wK5l" to="33ny:~Objects.equals(java.lang.Object,java.lang.Object):boolean" resolve="equals" />
            <ref role="1Pybhc" to="33ny:~Objects" resolve="Objects" />
            <node concept="2OqwBi" id="4B5aqq5Cxt0" role="37wK5m">
              <node concept="Xjq3P" id="4B5aqq5Cxt1" role="2Oq$k0" />
              <node concept="2OwXpG" id="4B5aqq5Cxt2" role="2OqNvi">
                <ref role="2Oxat5" node="2FjKBCRqMXr" resolve="test" />
              </node>
            </node>
            <node concept="2OqwBi" id="4B5aqq5Cxt3" role="37wK5m">
              <node concept="37vLTw" id="4B5aqq5Cxt4" role="2Oq$k0">
                <ref role="3cqZAo" node="7lYCqhv4zsz" resolve="other" />
              </node>
              <node concept="2OwXpG" id="2FjKBCRqSx2" role="2OqNvi">
                <ref role="2Oxat5" node="2FjKBCRqMXr" resolve="test" />
              </node>
            </node>
          </node>
        </node>
      </node>
      <node concept="2AHcQZ" id="2FjKBCRqHOs" role="2AJF6D">
        <ref role="2AI5Lk" to="wyt6:~Override" resolve="Override" />
      </node>
    </node>
    <node concept="2tJIrI" id="2FjKBCRqSTh" role="jymVt" />
    <node concept="3clFb_" id="2FjKBCRqHOw" role="jymVt">
      <property role="1EzhhJ" value="false" />
      <property role="TrG5h" value="toString" />
      <property role="DiZV1" value="false" />
      <property role="od$2w" value="false" />
      <node concept="3Tm1VV" id="2FjKBCRqHOx" role="1B3o_S" />
      <node concept="3uibUv" id="2FjKBCRqHOz" role="3clF45">
        <ref role="3uigEE" to="wyt6:~String" resolve="String" />
      </node>
      <node concept="3clFbS" id="2FjKBCRqHOB" role="3clF47">
        <node concept="3clFbF" id="2FjKBCRqHOE" role="3cqZAp">
          <node concept="3nyPlj" id="2FjKBCRqHOD" role="3clFbG">
            <ref role="37wK5l" to="wyt6:~Object.toString():java.lang.String" resolve="toString" />
          </node>
        </node>
      </node>
      <node concept="2AHcQZ" id="2FjKBCRqHOC" role="2AJF6D">
        <ref role="2AI5Lk" to="wyt6:~Override" resolve="Override" />
      </node>
    </node>
  </node>
  <node concept="312cEu" id="2FjKBCRr1Pe">
    <property role="3GE5qa" value="constraints" />
    <property role="TrG5h" value="TestResultVarianceEqualTo" />
    <node concept="312cEg" id="2FjKBCRr1Ql" role="jymVt">
      <property role="34CwA1" value="false" />
      <property role="eg7rD" value="false" />
      <property role="TrG5h" value="variance" />
      <property role="3TUv4t" value="false" />
      <node concept="3Tm6S6" id="2FjKBCRr1Q2" role="1B3o_S" />
      <node concept="3uibUv" id="2FjKBCRr1Qd" role="1tU5fm">
        <ref role="3uigEE" node="2FjKBCRqCki" resolve="TestResultVarianceLiteral" />
      </node>
    </node>
    <node concept="2tJIrI" id="2FjKBCRr1Qz" role="jymVt" />
    <node concept="3clFbW" id="2FjKBCRr1QU" role="jymVt">
      <node concept="3cqZAl" id="2FjKBCRr1QW" role="3clF45" />
      <node concept="3Tm1VV" id="2FjKBCRr1QX" role="1B3o_S" />
      <node concept="3clFbS" id="2FjKBCRr1QY" role="3clF47">
        <node concept="3clFbF" id="2FjKBCRr1RY" role="3cqZAp">
          <node concept="37vLTI" id="2FjKBCRr22X" role="3clFbG">
            <node concept="37vLTw" id="2FjKBCRr25P" role="37vLTx">
              <ref role="3cqZAo" node="2FjKBCRr1Rl" resolve="variance" />
            </node>
            <node concept="2OqwBi" id="2FjKBCRr1Ts" role="37vLTJ">
              <node concept="Xjq3P" id="2FjKBCRr1RX" role="2Oq$k0" />
              <node concept="2OwXpG" id="2FjKBCRr1VK" role="2OqNvi">
                <ref role="2Oxat5" node="2FjKBCRr1Ql" resolve="variance" />
              </node>
            </node>
          </node>
        </node>
      </node>
      <node concept="37vLTG" id="2FjKBCRr1Rl" role="3clF46">
        <property role="TrG5h" value="variance" />
        <node concept="3uibUv" id="2FjKBCRr1Rk" role="1tU5fm">
          <ref role="3uigEE" node="2FjKBCRqCki" resolve="TestResultVarianceLiteral" />
        </node>
      </node>
    </node>
    <node concept="2tJIrI" id="2FjKBCRr26X" role="jymVt" />
    <node concept="3clFb_" id="2FjKBCRr2bg" role="jymVt">
      <property role="TrG5h" value="isSatisfiedBy" />
      <property role="DiZV1" value="false" />
      <property role="od$2w" value="false" />
      <property role="1EzhhJ" value="false" />
      <node concept="37vLTG" id="2FjKBCRr2bi" role="3clF46">
        <property role="TrG5h" value="value" />
        <node concept="3uibUv" id="2FjKBCRr2bj" role="1tU5fm">
          <ref role="3uigEE" to="wyt6:~Object" resolve="Object" />
        </node>
      </node>
      <node concept="10P_77" id="2FjKBCRr2bk" role="3clF45" />
      <node concept="3Tm1VV" id="2FjKBCRr2bl" role="1B3o_S" />
      <node concept="3clFbS" id="2FjKBCRr2bm" role="3clF47">
        <node concept="3clFbF" id="2FjKBCRr2x0" role="3cqZAp">
          <node concept="2YIFZM" id="2FjKBCRr2xI" role="3clFbG">
            <ref role="37wK5l" to="33ny:~Objects.equals(java.lang.Object,java.lang.Object):boolean" resolve="equals" />
            <ref role="1Pybhc" to="33ny:~Objects" resolve="Objects" />
            <node concept="2OqwBi" id="2FjKBCRr2A7" role="37wK5m">
              <node concept="Xjq3P" id="2FjKBCRr2yi" role="2Oq$k0" />
              <node concept="2OwXpG" id="2FjKBCRr2Dj" role="2OqNvi">
                <ref role="2Oxat5" node="2FjKBCRr1Ql" resolve="variance" />
              </node>
            </node>
            <node concept="37vLTw" id="2FjKBCRr2JC" role="37wK5m">
              <ref role="3cqZAo" node="2FjKBCRr2bi" resolve="value" />
            </node>
          </node>
        </node>
      </node>
      <node concept="2AHcQZ" id="2FjKBCRr2bn" role="2AJF6D">
        <ref role="2AI5Lk" to="wyt6:~Override" resolve="Override" />
      </node>
    </node>
    <node concept="3Tm1VV" id="2FjKBCRr1Pf" role="1B3o_S" />
    <node concept="3uibUv" id="2FjKBCRr29Z" role="1zkMxy">
      <ref role="3uigEE" to="8r9s:1mAGFBLm1nT" resolve="Constraint" />
    </node>
  </node>
</model>

