<?xml version="1.0" encoding="UTF-8"?>
<model ref="r:d81d3f34-1c07-4f20-9558-2863c13a9099(no.uio.mLab.decisions.data.laboratoryTest.textualResult.intentions)">
  <persistence version="9" />
  <languages>
    <use id="d7a92d38-f7db-40d0-8431-763b0c3c9f20" name="jetbrains.mps.lang.intentions" version="0" />
    <devkit ref="fbc25dd2-5da4-483a-8b19-70928e1b62d7(jetbrains.mps.devkit.general-purpose)" />
  </languages>
  <imports>
    <import index="veyb" ref="r:f97bcc9c-211d-441a-840a-958b18315a7e(no.uio.mLab.decisions.data.laboratoryTest.textualResult.structure)" implicit="true" />
    <import index="q9tj" ref="r:13bcfbcf-6981-4a0f-b575-3d80ade7a177(no.uio.mLab.decisions.data.laboratoryTest.textualResult.behavior)" implicit="true" />
  </imports>
  <registry>
    <language id="f3061a53-9226-4cc5-a443-f952ceaf5816" name="jetbrains.mps.baseLanguage">
      <concept id="1197027756228" name="jetbrains.mps.baseLanguage.structure.DotExpression" flags="nn" index="2OqwBi">
        <child id="1197027771414" name="operand" index="2Oq$k0" />
        <child id="1197027833540" name="operation" index="2OqNvi" />
      </concept>
      <concept id="1137021947720" name="jetbrains.mps.baseLanguage.structure.ConceptFunction" flags="in" index="2VMwT0">
        <child id="1137022507850" name="body" index="2VODD2" />
      </concept>
      <concept id="1068580123155" name="jetbrains.mps.baseLanguage.structure.ExpressionStatement" flags="nn" index="3clFbF">
        <child id="1068580123156" name="expression" index="3clFbG" />
      </concept>
      <concept id="1068580123136" name="jetbrains.mps.baseLanguage.structure.StatementList" flags="sn" stub="5293379017992965193" index="3clFbS">
        <child id="1068581517665" name="statement" index="3cqZAp" />
      </concept>
      <concept id="1204053956946" name="jetbrains.mps.baseLanguage.structure.IMethodCall" flags="ng" index="1ndlxa">
        <reference id="1068499141037" name="baseMethodDeclaration" index="37wK5l" />
      </concept>
    </language>
    <language id="d7a92d38-f7db-40d0-8431-763b0c3c9f20" name="jetbrains.mps.lang.intentions">
      <concept id="1192794744107" name="jetbrains.mps.lang.intentions.structure.IntentionDeclaration" flags="ig" index="2S6QgY" />
      <concept id="1192794782375" name="jetbrains.mps.lang.intentions.structure.DescriptionBlock" flags="in" index="2S6ZIM" />
      <concept id="1192795771125" name="jetbrains.mps.lang.intentions.structure.IsApplicableBlock" flags="in" index="2SaL7w" />
      <concept id="1192795911897" name="jetbrains.mps.lang.intentions.structure.ExecuteBlock" flags="in" index="2Sbjvc" />
      <concept id="1192796902958" name="jetbrains.mps.lang.intentions.structure.ConceptFunctionParameter_node" flags="nn" index="2Sf5sV" />
      <concept id="2522969319638091381" name="jetbrains.mps.lang.intentions.structure.BaseIntentionDeclaration" flags="ig" index="2ZfUlf">
        <property id="2522969319638091386" name="isAvailableInChildNodes" index="2ZfUl0" />
        <reference id="2522969319638198290" name="forConcept" index="2ZfgGC" />
        <child id="2522969319638198291" name="executeFunction" index="2ZfgGD" />
        <child id="2522969319638093995" name="isApplicableFunction" index="2ZfVeh" />
        <child id="2522969319638093993" name="descriptionFunction" index="2ZfVej" />
      </concept>
    </language>
    <language id="7866978e-a0f0-4cc7-81bc-4d213d9375e1" name="jetbrains.mps.lang.smodel">
      <concept id="1179409122411" name="jetbrains.mps.lang.smodel.structure.Node_ConceptMethodCall" flags="nn" index="2qgKlT" />
      <concept id="7453996997717780434" name="jetbrains.mps.lang.smodel.structure.Node_GetSConceptOperation" flags="nn" index="2yIwOk" />
      <concept id="1138757581985" name="jetbrains.mps.lang.smodel.structure.Link_SetNewChildOperation" flags="nn" index="zfrQC" />
      <concept id="1171999116870" name="jetbrains.mps.lang.smodel.structure.Node_IsNullOperation" flags="nn" index="3w_OXm" />
      <concept id="1138056143562" name="jetbrains.mps.lang.smodel.structure.SLinkAccess" flags="nn" index="3TrEf2">
        <reference id="1138056516764" name="link" index="3Tt5mk" />
      </concept>
    </language>
    <language id="ceab5195-25ea-4f22-9b92-103b95ca8c0c" name="jetbrains.mps.lang.core">
      <concept id="1133920641626" name="jetbrains.mps.lang.core.structure.BaseConcept" flags="ng" index="2VYdi">
        <property id="1193676396447" name="virtualPackage" index="3GE5qa" />
      </concept>
      <concept id="1169194658468" name="jetbrains.mps.lang.core.structure.INamedConcept" flags="ng" index="TrEIO">
        <property id="1169194664001" name="name" index="TrG5h" />
      </concept>
    </language>
  </registry>
  <node concept="2S6QgY" id="6LTgXmNfqip">
    <property role="3GE5qa" value="base.data" />
    <property role="TrG5h" value="IncludeSpecimenType" />
    <property role="2ZfUl0" value="true" />
    <ref role="2ZfgGC" to="veyb:4B5aqq3QF78" resolve="ILaboratoryTestWithTextResultDataValue" />
    <node concept="2S6ZIM" id="6LTgXmNfqiq" role="2ZfVej">
      <node concept="3clFbS" id="6LTgXmNfqir" role="2VODD2">
        <node concept="3clFbF" id="6LTgXmNfqrB" role="3cqZAp">
          <node concept="2OqwBi" id="6LTgXmNft2S" role="3clFbG">
            <node concept="2OqwBi" id="6LTgXmNfskl" role="2Oq$k0">
              <node concept="2Sf5sV" id="6LTgXmNfs4Z" role="2Oq$k0" />
              <node concept="2yIwOk" id="6LTgXmNfsC1" role="2OqNvi" />
            </node>
            <node concept="2qgKlT" id="6LTgXmNftnW" role="2OqNvi">
              <ref role="37wK5l" to="q9tj:6LTgXmMiWh2" resolve="getIncludeSpecimenTypeIntentionDescription" />
            </node>
          </node>
        </node>
      </node>
    </node>
    <node concept="2Sbjvc" id="6LTgXmNfqis" role="2ZfgGD">
      <node concept="3clFbS" id="6LTgXmNfqit" role="2VODD2">
        <node concept="3clFbF" id="6LTgXmNfvxC" role="3cqZAp">
          <node concept="2OqwBi" id="6LTgXmNfwca" role="3clFbG">
            <node concept="2OqwBi" id="6LTgXmNfvEE" role="2Oq$k0">
              <node concept="2Sf5sV" id="6LTgXmNfvxB" role="2Oq$k0" />
              <node concept="3TrEf2" id="6LTgXmNfvQc" role="2OqNvi">
                <ref role="3Tt5mk" to="veyb:4B5aqq3QF7a" resolve="specimenTypeReference" />
              </node>
            </node>
            <node concept="zfrQC" id="6LTgXmNfww_" role="2OqNvi" />
          </node>
        </node>
      </node>
    </node>
    <node concept="2SaL7w" id="6LTgXmNftzH" role="2ZfVeh">
      <node concept="3clFbS" id="6LTgXmNftzI" role="2VODD2">
        <node concept="3clFbF" id="6LTgXmNftQN" role="3cqZAp">
          <node concept="2OqwBi" id="6LTgXmNfuTP" role="3clFbG">
            <node concept="2OqwBi" id="6LTgXmNfu5y" role="2Oq$k0">
              <node concept="2Sf5sV" id="6LTgXmNftQM" role="2Oq$k0" />
              <node concept="3TrEf2" id="6LTgXmNfunZ" role="2OqNvi">
                <ref role="3Tt5mk" to="veyb:4B5aqq3QF7a" resolve="specimenTypeReference" />
              </node>
            </node>
            <node concept="3w_OXm" id="6LTgXmNfvlg" role="2OqNvi" />
          </node>
        </node>
      </node>
    </node>
  </node>
</model>

