<?xml version="1.0" encoding="UTF-8"?>
<model ref="00000000-0000-4000-5f02-5beb5f025beb/i:f399786(checkpoints/no.uio.mLab.decisions.tasks.autocommentation.typesystem@descriptorclasses)">
  <persistence version="9" />
  <attribute name="checkpoint" value="DescriptorClasses" />
  <attribute name="generation-plan" value="AspectCPS" />
  <languages />
  <imports>
    <import index="3xg1" ref="r:31cdb065-98c9-4ea1-a600-4ca41da57471(no.uio.mLab.decisions.tasks.autocommentation.typesystem)" />
    <import index="c17a" ref="8865b7a8-5271-43d3-884c-6fd1d9cfdd34/java:org.jetbrains.mps.openapi.language(MPS.OpenAPI/)" />
    <import index="jn6m" ref="r:8d706f6f-a342-4d4f-96d8-7be452515eda(no.uio.mLab.decisions.tasks.autocommentation.structure)" />
    <import index="2gg1" ref="6ed54515-acc8-4d1e-a16c-9fd6cfe951ea/java:jetbrains.mps.errors(MPS.Core/)" />
    <import index="qurh" ref="6ed54515-acc8-4d1e-a16c-9fd6cfe951ea/java:jetbrains.mps.lang.typesystem.runtime(MPS.Core/)" />
    <import index="33ny" ref="6354ebe7-c22a-4a0f-ac54-50b52ab9b065/java:java.util(JDK/)" />
    <import index="u78q" ref="6ed54515-acc8-4d1e-a16c-9fd6cfe951ea/java:jetbrains.mps.typesystem.inference(MPS.Core/)" />
    <import index="qs4s" ref="r:21f6a30a-8f3c-4251-80f3-8c6b604f12dc(no.uio.mLab.decisions.tasks.autocommentation.behavior)" />
    <import index="zavc" ref="6ed54515-acc8-4d1e-a16c-9fd6cfe951ea/java:jetbrains.mps.errors.messageTargets(MPS.Core/)" />
    <import index="mhbf" ref="8865b7a8-5271-43d3-884c-6fd1d9cfdd34/java:org.jetbrains.mps.openapi.model(MPS.OpenAPI/)" />
  </imports>
  <registry>
    <language id="f3061a53-9226-4cc5-a443-f952ceaf5816" name="jetbrains.mps.baseLanguage">
      <concept id="1082485599095" name="jetbrains.mps.baseLanguage.structure.BlockStatement" flags="nn" index="9aQIb">
        <child id="1082485599096" name="statements" index="9aQI4" />
      </concept>
      <concept id="1202948039474" name="jetbrains.mps.baseLanguage.structure.InstanceMethodCallOperation" flags="nn" index="liA8E" />
      <concept id="1197027756228" name="jetbrains.mps.baseLanguage.structure.DotExpression" flags="nn" index="2OqwBi">
        <child id="1197027771414" name="operand" index="2Oq$k0" />
        <child id="1197027833540" name="operation" index="2OqNvi" />
      </concept>
      <concept id="1197029447546" name="jetbrains.mps.baseLanguage.structure.FieldReferenceOperation" flags="nn" index="2OwXpG">
        <reference id="1197029500499" name="fieldDeclaration" index="2Oxat5" />
      </concept>
      <concept id="1145552977093" name="jetbrains.mps.baseLanguage.structure.GenericNewExpression" flags="nn" index="2ShNRf">
        <child id="1145553007750" name="creator" index="2ShVmc" />
      </concept>
      <concept id="1070475354124" name="jetbrains.mps.baseLanguage.structure.ThisExpression" flags="nn" index="Xjq3P" />
      <concept id="1070475926800" name="jetbrains.mps.baseLanguage.structure.StringLiteral" flags="nn" index="Xl_RD">
        <property id="1070475926801" name="value" index="Xl_RC" />
      </concept>
      <concept id="1070534058343" name="jetbrains.mps.baseLanguage.structure.NullLiteral" flags="nn" index="10Nm6u" />
      <concept id="1070534644030" name="jetbrains.mps.baseLanguage.structure.BooleanType" flags="in" index="10P_77" />
      <concept id="1068390468198" name="jetbrains.mps.baseLanguage.structure.ClassConcept" flags="ig" index="312cEu">
        <child id="1095933932569" name="implementedInterface" index="EKbjA" />
        <child id="1165602531693" name="superclass" index="1zkMxy" />
      </concept>
      <concept id="1068431474542" name="jetbrains.mps.baseLanguage.structure.VariableDeclaration" flags="ng" index="33uBYm">
        <property id="1176718929932" name="isFinal" index="3TUv4t" />
        <child id="1068431790190" name="initializer" index="33vP2m" />
      </concept>
      <concept id="1068498886296" name="jetbrains.mps.baseLanguage.structure.VariableReference" flags="nn" index="37vLTw">
        <reference id="1068581517664" name="variableDeclaration" index="3cqZAo" />
      </concept>
      <concept id="1068498886292" name="jetbrains.mps.baseLanguage.structure.ParameterDeclaration" flags="ir" index="37vLTG" />
      <concept id="4972933694980447171" name="jetbrains.mps.baseLanguage.structure.BaseVariableDeclaration" flags="ng" index="19Szcq">
        <child id="5680397130376446158" name="type" index="1tU5fm" />
      </concept>
      <concept id="1068580123132" name="jetbrains.mps.baseLanguage.structure.BaseMethodDeclaration" flags="ng" index="3clF44">
        <child id="1068580123133" name="returnType" index="3clF45" />
        <child id="1068580123134" name="parameter" index="3clF46" />
        <child id="1068580123135" name="body" index="3clF47" />
      </concept>
      <concept id="1068580123165" name="jetbrains.mps.baseLanguage.structure.InstanceMethodDeclaration" flags="ig" index="3clFb_" />
      <concept id="1068580123155" name="jetbrains.mps.baseLanguage.structure.ExpressionStatement" flags="nn" index="3clFbF">
        <child id="1068580123156" name="expression" index="3clFbG" />
      </concept>
      <concept id="1068580123159" name="jetbrains.mps.baseLanguage.structure.IfStatement" flags="nn" index="3clFbJ">
        <child id="1068580123160" name="condition" index="3clFbw" />
        <child id="1068580123161" name="ifTrue" index="3clFbx" />
      </concept>
      <concept id="1068580123136" name="jetbrains.mps.baseLanguage.structure.StatementList" flags="sn" stub="5293379017992965193" index="3clFbS">
        <child id="1068581517665" name="statement" index="3cqZAp" />
      </concept>
      <concept id="1068580123137" name="jetbrains.mps.baseLanguage.structure.BooleanConstant" flags="nn" index="3clFbT">
        <property id="1068580123138" name="value" index="3clFbU" />
      </concept>
      <concept id="1068580123140" name="jetbrains.mps.baseLanguage.structure.ConstructorDeclaration" flags="ig" index="3clFbW" />
      <concept id="1068581242878" name="jetbrains.mps.baseLanguage.structure.ReturnStatement" flags="nn" index="3cpWs6">
        <child id="1068581517676" name="expression" index="3cqZAk" />
      </concept>
      <concept id="1068581242864" name="jetbrains.mps.baseLanguage.structure.LocalVariableDeclarationStatement" flags="nn" index="3cpWs8">
        <child id="1068581242865" name="localVariableDeclaration" index="3cpWs9" />
      </concept>
      <concept id="1068581242863" name="jetbrains.mps.baseLanguage.structure.LocalVariableDeclaration" flags="nr" index="3cpWsn" />
      <concept id="1068581517677" name="jetbrains.mps.baseLanguage.structure.VoidType" flags="in" index="3cqZAl" />
      <concept id="1204053956946" name="jetbrains.mps.baseLanguage.structure.IMethodCall" flags="ng" index="1ndlxa">
        <reference id="1068499141037" name="baseMethodDeclaration" index="37wK5l" />
        <child id="1068499141038" name="actualArgument" index="37wK5m" />
      </concept>
      <concept id="1212685548494" name="jetbrains.mps.baseLanguage.structure.ClassCreator" flags="nn" index="1pGfFk" />
      <concept id="1107461130800" name="jetbrains.mps.baseLanguage.structure.Classifier" flags="ng" index="3pOWGL">
        <child id="5375687026011219971" name="member" index="jymVt" unordered="true" />
      </concept>
      <concept id="7812454656619025412" name="jetbrains.mps.baseLanguage.structure.LocalMethodCall" flags="nn" index="1rXfSq" />
      <concept id="1107535904670" name="jetbrains.mps.baseLanguage.structure.ClassifierType" flags="in" index="3uibUv">
        <reference id="1107535924139" name="classifier" index="3uigEE" />
      </concept>
      <concept id="1178549954367" name="jetbrains.mps.baseLanguage.structure.IVisible" flags="ng" index="1B3ioH">
        <child id="1178549979242" name="visibility" index="1B3o_S" />
      </concept>
      <concept id="1146644602865" name="jetbrains.mps.baseLanguage.structure.PublicVisibility" flags="nn" index="3Tm1VV" />
    </language>
    <language id="b401a680-8325-4110-8fd3-84331ff25bef" name="jetbrains.mps.lang.generator">
      <concept id="7980339663309897032" name="jetbrains.mps.lang.generator.structure.OriginTrace" flags="ng" index="cd27G">
        <child id="7980339663309897037" name="origin" index="cd27D" />
      </concept>
      <concept id="9032177546941580387" name="jetbrains.mps.lang.generator.structure.TrivialNodeId" flags="nn" index="2$VJBW">
        <property id="9032177546941580392" name="nodeId" index="2$VJBR" />
        <child id="8557539026538618631" name="cncpt" index="3iCydw" />
      </concept>
      <concept id="5808518347809715508" name="jetbrains.mps.lang.generator.structure.GeneratorDebug_InputNode" flags="nn" index="385nmt">
        <property id="5808518347809748738" name="presentation" index="385vuF" />
        <child id="5808518347809747118" name="node" index="385v07" />
      </concept>
      <concept id="3864140621129707969" name="jetbrains.mps.lang.generator.structure.GeneratorDebug_Mappings" flags="nn" index="39dXUE">
        <child id="3864140621129713349" name="labels" index="39e2AI" />
      </concept>
      <concept id="3864140621129713351" name="jetbrains.mps.lang.generator.structure.GeneratorDebug_NodeMapEntry" flags="nn" index="39e2AG">
        <property id="5843998055530255671" name="isNewRoot" index="2mV_xN" />
        <reference id="3864140621129713371" name="inputOrigin" index="39e2AK" />
        <child id="5808518347809748862" name="inputNode" index="385vvn" />
        <child id="3864140621129713365" name="outputNode" index="39e2AY" />
      </concept>
      <concept id="3864140621129713348" name="jetbrains.mps.lang.generator.structure.GeneratorDebug_LabelEntry" flags="nn" index="39e2AJ">
        <property id="3864140621129715945" name="label" index="39e3Y2" />
        <child id="3864140621129715947" name="entries" index="39e3Y0" />
      </concept>
      <concept id="3864140621129713362" name="jetbrains.mps.lang.generator.structure.GeneratorDebug_NodeRef" flags="nn" index="39e2AT">
        <reference id="3864140621129713363" name="node" index="39e2AS" />
      </concept>
      <concept id="3637169702552512264" name="jetbrains.mps.lang.generator.structure.ElementaryNodeId" flags="ng" index="3u3nmq">
        <property id="3637169702552512269" name="nodeId" index="3u3nmv" />
      </concept>
    </language>
    <language id="7a5dda62-9140-4668-ab76-d5ed1746f2b2" name="jetbrains.mps.lang.typesystem">
      <concept id="2990591960991114251" name="jetbrains.mps.lang.typesystem.structure.OriginalNodeId" flags="ng" index="6wLe0">
        <property id="2990591960991114264" name="nodeId" index="6wLej" />
        <property id="2990591960991114295" name="modelId" index="6wLeW" />
      </concept>
    </language>
    <language id="df345b11-b8c7-4213-ac66-48d2a9b75d88" name="jetbrains.mps.baseLanguageInternal">
      <concept id="1176743162354" name="jetbrains.mps.baseLanguageInternal.structure.InternalVariableReference" flags="nn" index="3VmV3z">
        <property id="1176743296073" name="name" index="3VnrPo" />
        <child id="1176743202636" name="type" index="3Vn4Tt" />
      </concept>
    </language>
    <language id="7866978e-a0f0-4cc7-81bc-4d213d9375e1" name="jetbrains.mps.lang.smodel">
      <concept id="1179409122411" name="jetbrains.mps.lang.smodel.structure.Node_ConceptMethodCall" flags="nn" index="2qgKlT" />
      <concept id="6911370362349121511" name="jetbrains.mps.lang.smodel.structure.ConceptId" flags="nn" index="2x4n5u">
        <property id="6911370362349122519" name="conceptName" index="2x4mPI" />
        <property id="6911370362349121516" name="conceptId" index="2x4n5l" />
        <property id="6911370362349133804" name="isInterface" index="2x4o5l" />
        <child id="6911370362349121514" name="languageIdentity" index="2x4n5j" />
      </concept>
      <concept id="7453996997717780434" name="jetbrains.mps.lang.smodel.structure.Node_GetSConceptOperation" flags="nn" index="2yIwOk" />
      <concept id="1145404486709" name="jetbrains.mps.lang.smodel.structure.SemanticDowncastExpression" flags="nn" index="2JrnkZ">
        <child id="1145404616321" name="leftExpression" index="2JrQYb" />
      </concept>
      <concept id="3542851458883438784" name="jetbrains.mps.lang.smodel.structure.LanguageId" flags="nn" index="2V$Bhx">
        <property id="3542851458883439831" name="namespace" index="2V$B1Q" />
        <property id="3542851458883439832" name="languageId" index="2V$B1T" />
      </concept>
      <concept id="2644386474300074836" name="jetbrains.mps.lang.smodel.structure.ConceptIdRefExpression" flags="nn" index="35c_gC">
        <reference id="2644386474300074837" name="conceptDeclaration" index="35c_gD" />
      </concept>
      <concept id="6677504323281689838" name="jetbrains.mps.lang.smodel.structure.SConceptType" flags="in" index="3bZ5Sz" />
      <concept id="1171999116870" name="jetbrains.mps.lang.smodel.structure.Node_IsNullOperation" flags="nn" index="3w_OXm" />
      <concept id="1138055754698" name="jetbrains.mps.lang.smodel.structure.SNodeType" flags="in" index="3Tqbb2" />
      <concept id="1138056143562" name="jetbrains.mps.lang.smodel.structure.SLinkAccess" flags="nn" index="3TrEf2">
        <reference id="1138056516764" name="link" index="3Tt5mk" />
      </concept>
    </language>
    <language id="ceab5195-25ea-4f22-9b92-103b95ca8c0c" name="jetbrains.mps.lang.core">
      <concept id="1133920641626" name="jetbrains.mps.lang.core.structure.BaseConcept" flags="ng" index="2VYdi">
        <property id="1193676396447" name="virtualPackage" index="3GE5qa" />
        <child id="5169995583184591170" name="smodelAttribute" index="lGtFl" />
      </concept>
      <concept id="1169194658468" name="jetbrains.mps.lang.core.structure.INamedConcept" flags="ng" index="TrEIO">
        <property id="1169194664001" name="name" index="TrG5h" />
      </concept>
    </language>
  </registry>
  <node concept="39dXUE" id="0">
    <node concept="39e2AJ" id="1" role="39e2AI">
      <property role="39e3Y2" value="classForRule" />
      <node concept="39e2AG" id="5" role="39e3Y0">
        <ref role="39e2AK" to="3xg1:1mAGFBLeprJ" resolve="check_AddComment" />
        <node concept="385nmt" id="6" role="385vvn">
          <property role="385vuF" value="check_AddComment" />
          <node concept="2$VJBW" id="8" role="385v07">
            <property role="2$VJBR" value="1560130832616232687" />
            <node concept="2x4n5u" id="9" role="3iCydw">
              <property role="2x4mPI" value="NonTypesystemRule" />
              <property role="2x4o5l" value="false" />
              <property role="2x4n5l" value="f92nru9m" />
              <node concept="2V$Bhx" id="a" role="2x4n5j">
                <property role="2V$B1T" value="7a5dda62-9140-4668-ab76-d5ed1746f2b2" />
                <property role="2V$B1Q" value="jetbrains.mps.lang.typesystem" />
              </node>
            </node>
          </node>
        </node>
        <node concept="39e2AT" id="7" role="39e2AY">
          <ref role="39e2AS" node="I" resolve="check_AddComment_NonTypesystemRule" />
        </node>
      </node>
    </node>
    <node concept="39e2AJ" id="2" role="39e2AI">
      <property role="39e3Y2" value="isApplicableMethod" />
      <node concept="39e2AG" id="b" role="39e3Y0">
        <ref role="39e2AK" to="3xg1:1mAGFBLeprJ" resolve="check_AddComment" />
        <node concept="385nmt" id="c" role="385vvn">
          <property role="385vuF" value="check_AddComment" />
          <node concept="2$VJBW" id="e" role="385v07">
            <property role="2$VJBR" value="1560130832616232687" />
            <node concept="2x4n5u" id="f" role="3iCydw">
              <property role="2x4mPI" value="NonTypesystemRule" />
              <property role="2x4o5l" value="false" />
              <property role="2x4n5l" value="f92nru9m" />
              <node concept="2V$Bhx" id="g" role="2x4n5j">
                <property role="2V$B1T" value="7a5dda62-9140-4668-ab76-d5ed1746f2b2" />
                <property role="2V$B1Q" value="jetbrains.mps.lang.typesystem" />
              </node>
            </node>
          </node>
        </node>
        <node concept="39e2AT" id="d" role="39e2AY">
          <ref role="39e2AS" node="M" resolve="isApplicableAndPattern" />
        </node>
      </node>
    </node>
    <node concept="39e2AJ" id="3" role="39e2AI">
      <property role="39e3Y2" value="mainMethodForRule" />
      <node concept="39e2AG" id="h" role="39e3Y0">
        <ref role="39e2AK" to="3xg1:1mAGFBLeprJ" resolve="check_AddComment" />
        <node concept="385nmt" id="i" role="385vvn">
          <property role="385vuF" value="check_AddComment" />
          <node concept="2$VJBW" id="k" role="385v07">
            <property role="2$VJBR" value="1560130832616232687" />
            <node concept="2x4n5u" id="l" role="3iCydw">
              <property role="2x4mPI" value="NonTypesystemRule" />
              <property role="2x4o5l" value="false" />
              <property role="2x4n5l" value="f92nru9m" />
              <node concept="2V$Bhx" id="m" role="2x4n5j">
                <property role="2V$B1T" value="7a5dda62-9140-4668-ab76-d5ed1746f2b2" />
                <property role="2V$B1Q" value="jetbrains.mps.lang.typesystem" />
              </node>
            </node>
          </node>
        </node>
        <node concept="39e2AT" id="j" role="39e2AY">
          <ref role="39e2AS" node="K" resolve="applyRule" />
        </node>
      </node>
    </node>
    <node concept="39e2AJ" id="4" role="39e2AI">
      <property role="39e3Y2" value="descriptorClass" />
      <node concept="39e2AG" id="n" role="39e3Y0">
        <property role="2mV_xN" value="true" />
        <node concept="39e2AT" id="o" role="39e2AY">
          <ref role="39e2AS" node="p" resolve="TypesystemDescriptor" />
        </node>
      </node>
    </node>
  </node>
  <node concept="312cEu" id="p">
    <property role="TrG5h" value="TypesystemDescriptor" />
    <node concept="3clFbW" id="q" role="jymVt">
      <node concept="3clFbS" id="t" role="3clF47">
        <node concept="9aQIb" id="w" role="3cqZAp">
          <node concept="3clFbS" id="x" role="9aQI4">
            <node concept="3cpWs8" id="y" role="3cqZAp">
              <node concept="3cpWsn" id="$" role="3cpWs9">
                <property role="TrG5h" value="nonTypesystemRule" />
                <node concept="3uibUv" id="_" role="1tU5fm">
                  <ref role="3uigEE" to="qurh:~NonTypesystemRule_Runtime" resolve="NonTypesystemRule_Runtime" />
                </node>
                <node concept="2ShNRf" id="A" role="33vP2m">
                  <node concept="1pGfFk" id="B" role="2ShVmc">
                    <ref role="37wK5l" node="J" resolve="check_AddComment_NonTypesystemRule" />
                  </node>
                </node>
              </node>
            </node>
            <node concept="3clFbF" id="z" role="3cqZAp">
              <node concept="2OqwBi" id="C" role="3clFbG">
                <node concept="2OqwBi" id="D" role="2Oq$k0">
                  <node concept="Xjq3P" id="F" role="2Oq$k0" />
                  <node concept="2OwXpG" id="G" role="2OqNvi">
                    <ref role="2Oxat5" to="qurh:~BaseHelginsDescriptor.myNonTypesystemRules" resolve="myNonTypesystemRules" />
                  </node>
                </node>
                <node concept="liA8E" id="E" role="2OqNvi">
                  <ref role="37wK5l" to="33ny:~Set.add(java.lang.Object):boolean" resolve="add" />
                  <node concept="37vLTw" id="H" role="37wK5m">
                    <ref role="3cqZAo" node="$" resolve="nonTypesystemRule" />
                  </node>
                </node>
              </node>
            </node>
          </node>
        </node>
      </node>
      <node concept="3Tm1VV" id="u" role="1B3o_S" />
      <node concept="3cqZAl" id="v" role="3clF45" />
    </node>
    <node concept="3Tm1VV" id="r" role="1B3o_S" />
    <node concept="3uibUv" id="s" role="1zkMxy">
      <ref role="3uigEE" to="qurh:~BaseHelginsDescriptor" resolve="BaseHelginsDescriptor" />
    </node>
  </node>
  <node concept="312cEu" id="I">
    <property role="3GE5qa" value="base.actions.addComment" />
    <property role="TrG5h" value="check_AddComment_NonTypesystemRule" />
    <node concept="3clFbW" id="J" role="jymVt">
      <node concept="3clFbS" id="S" role="3clF47">
        <node concept="cd27G" id="W" role="lGtFl">
          <node concept="3u3nmq" id="X" role="cd27D">
            <property role="3u3nmv" value="1560130832616232687" />
          </node>
        </node>
      </node>
      <node concept="3Tm1VV" id="T" role="1B3o_S">
        <node concept="cd27G" id="Y" role="lGtFl">
          <node concept="3u3nmq" id="Z" role="cd27D">
            <property role="3u3nmv" value="1560130832616232687" />
          </node>
        </node>
      </node>
      <node concept="3cqZAl" id="U" role="3clF45">
        <node concept="cd27G" id="10" role="lGtFl">
          <node concept="3u3nmq" id="11" role="cd27D">
            <property role="3u3nmv" value="1560130832616232687" />
          </node>
        </node>
      </node>
      <node concept="cd27G" id="V" role="lGtFl">
        <node concept="3u3nmq" id="12" role="cd27D">
          <property role="3u3nmv" value="1560130832616232687" />
        </node>
      </node>
    </node>
    <node concept="3clFb_" id="K" role="jymVt">
      <property role="TrG5h" value="applyRule" />
      <node concept="3cqZAl" id="13" role="3clF45">
        <node concept="cd27G" id="1a" role="lGtFl">
          <node concept="3u3nmq" id="1b" role="cd27D">
            <property role="3u3nmv" value="1560130832616232687" />
          </node>
        </node>
      </node>
      <node concept="37vLTG" id="14" role="3clF46">
        <property role="3TUv4t" value="true" />
        <property role="TrG5h" value="addCommentForRequestor" />
        <node concept="3Tqbb2" id="1c" role="1tU5fm">
          <node concept="cd27G" id="1e" role="lGtFl">
            <node concept="3u3nmq" id="1f" role="cd27D">
              <property role="3u3nmv" value="1560130832616232687" />
            </node>
          </node>
        </node>
        <node concept="cd27G" id="1d" role="lGtFl">
          <node concept="3u3nmq" id="1g" role="cd27D">
            <property role="3u3nmv" value="1560130832616232687" />
          </node>
        </node>
      </node>
      <node concept="37vLTG" id="15" role="3clF46">
        <property role="TrG5h" value="typeCheckingContext" />
        <property role="3TUv4t" value="true" />
        <node concept="3uibUv" id="1h" role="1tU5fm">
          <ref role="3uigEE" to="u78q:~TypeCheckingContext" resolve="TypeCheckingContext" />
          <node concept="cd27G" id="1j" role="lGtFl">
            <node concept="3u3nmq" id="1k" role="cd27D">
              <property role="3u3nmv" value="1560130832616232687" />
            </node>
          </node>
        </node>
        <node concept="cd27G" id="1i" role="lGtFl">
          <node concept="3u3nmq" id="1l" role="cd27D">
            <property role="3u3nmv" value="1560130832616232687" />
          </node>
        </node>
      </node>
      <node concept="37vLTG" id="16" role="3clF46">
        <property role="TrG5h" value="status" />
        <node concept="3uibUv" id="1m" role="1tU5fm">
          <ref role="3uigEE" to="qurh:~IsApplicableStatus" resolve="IsApplicableStatus" />
          <node concept="cd27G" id="1o" role="lGtFl">
            <node concept="3u3nmq" id="1p" role="cd27D">
              <property role="3u3nmv" value="1560130832616232687" />
            </node>
          </node>
        </node>
        <node concept="cd27G" id="1n" role="lGtFl">
          <node concept="3u3nmq" id="1q" role="cd27D">
            <property role="3u3nmv" value="1560130832616232687" />
          </node>
        </node>
      </node>
      <node concept="3clFbS" id="17" role="3clF47">
        <node concept="3clFbJ" id="1r" role="3cqZAp">
          <node concept="2OqwBi" id="1t" role="3clFbw">
            <node concept="2OqwBi" id="1w" role="2Oq$k0">
              <node concept="37vLTw" id="1z" role="2Oq$k0">
                <ref role="3cqZAo" node="14" resolve="addCommentForRequestor" />
                <node concept="cd27G" id="1A" role="lGtFl">
                  <node concept="3u3nmq" id="1B" role="cd27D">
                    <property role="3u3nmv" value="1560130832616232706" />
                  </node>
                </node>
              </node>
              <node concept="3TrEf2" id="1$" role="2OqNvi">
                <ref role="3Tt5mk" to="jn6m:1mAGFBLen0G" resolve="comment" />
                <node concept="cd27G" id="1C" role="lGtFl">
                  <node concept="3u3nmq" id="1D" role="cd27D">
                    <property role="3u3nmv" value="1560130832623967293" />
                  </node>
                </node>
              </node>
              <node concept="cd27G" id="1_" role="lGtFl">
                <node concept="3u3nmq" id="1E" role="cd27D">
                  <property role="3u3nmv" value="1560130832616233365" />
                </node>
              </node>
            </node>
            <node concept="3w_OXm" id="1x" role="2OqNvi">
              <node concept="cd27G" id="1F" role="lGtFl">
                <node concept="3u3nmq" id="1G" role="cd27D">
                  <property role="3u3nmv" value="1560130832616235862" />
                </node>
              </node>
            </node>
            <node concept="cd27G" id="1y" role="lGtFl">
              <node concept="3u3nmq" id="1H" role="cd27D">
                <property role="3u3nmv" value="1560130832616235178" />
              </node>
            </node>
          </node>
          <node concept="3clFbS" id="1u" role="3clFbx">
            <node concept="9aQIb" id="1I" role="3cqZAp">
              <node concept="3clFbS" id="1K" role="9aQI4">
                <node concept="3cpWs8" id="1N" role="3cqZAp">
                  <node concept="3cpWsn" id="1P" role="3cpWs9">
                    <property role="TrG5h" value="errorTarget" />
                    <node concept="3uibUv" id="1Q" role="1tU5fm">
                      <ref role="3uigEE" to="zavc:~MessageTarget" resolve="MessageTarget" />
                    </node>
                    <node concept="2ShNRf" id="1R" role="33vP2m">
                      <node concept="1pGfFk" id="1S" role="2ShVmc">
                        <ref role="37wK5l" to="zavc:~NodeMessageTarget.&lt;init&gt;()" resolve="NodeMessageTarget" />
                      </node>
                    </node>
                  </node>
                </node>
                <node concept="3cpWs8" id="1O" role="3cqZAp">
                  <node concept="3cpWsn" id="1T" role="3cpWs9">
                    <property role="TrG5h" value="_reporter_2309309498" />
                    <node concept="3uibUv" id="1U" role="1tU5fm">
                      <ref role="3uigEE" to="2gg1:~IErrorReporter" resolve="IErrorReporter" />
                    </node>
                    <node concept="2OqwBi" id="1V" role="33vP2m">
                      <node concept="3VmV3z" id="1W" role="2Oq$k0">
                        <property role="3VnrPo" value="typeCheckingContext" />
                        <node concept="3uibUv" id="1Y" role="3Vn4Tt">
                          <ref role="3uigEE" to="u78q:~TypeCheckingContext" resolve="TypeCheckingContext" />
                        </node>
                      </node>
                      <node concept="liA8E" id="1X" role="2OqNvi">
                        <ref role="37wK5l" to="u78q:~TypeCheckingContext.reportTypeError(org.jetbrains.mps.openapi.model.SNode,java.lang.String,java.lang.String,java.lang.String,jetbrains.mps.errors.QuickFixProvider,jetbrains.mps.errors.messageTargets.MessageTarget):jetbrains.mps.errors.IErrorReporter" resolve="reportTypeError" />
                        <node concept="37vLTw" id="1Z" role="37wK5m">
                          <ref role="3cqZAo" node="14" resolve="addCommentForRequestor" />
                          <node concept="cd27G" id="25" role="lGtFl">
                            <node concept="3u3nmq" id="26" role="cd27D">
                              <property role="3u3nmv" value="1560130832616241215" />
                            </node>
                          </node>
                        </node>
                        <node concept="2OqwBi" id="20" role="37wK5m">
                          <node concept="2OqwBi" id="27" role="2Oq$k0">
                            <node concept="37vLTw" id="2a" role="2Oq$k0">
                              <ref role="3cqZAo" node="14" resolve="addCommentForRequestor" />
                              <node concept="cd27G" id="2d" role="lGtFl">
                                <node concept="3u3nmq" id="2e" role="cd27D">
                                  <property role="3u3nmv" value="1560130832616236000" />
                                </node>
                              </node>
                            </node>
                            <node concept="2yIwOk" id="2b" role="2OqNvi">
                              <node concept="cd27G" id="2f" role="lGtFl">
                                <node concept="3u3nmq" id="2g" role="cd27D">
                                  <property role="3u3nmv" value="1560130832616237557" />
                                </node>
                              </node>
                            </node>
                            <node concept="cd27G" id="2c" role="lGtFl">
                              <node concept="3u3nmq" id="2h" role="cd27D">
                                <property role="3u3nmv" value="1560130832616236662" />
                              </node>
                            </node>
                          </node>
                          <node concept="2qgKlT" id="28" role="2OqNvi">
                            <ref role="37wK5l" to="qs4s:1mAGFBLen1J" resolve="getMissingComment" />
                            <node concept="cd27G" id="2i" role="lGtFl">
                              <node concept="3u3nmq" id="2j" role="cd27D">
                                <property role="3u3nmv" value="1560130832623968461" />
                              </node>
                            </node>
                          </node>
                          <node concept="cd27G" id="29" role="lGtFl">
                            <node concept="3u3nmq" id="2k" role="cd27D">
                              <property role="3u3nmv" value="1560130832616239753" />
                            </node>
                          </node>
                        </node>
                        <node concept="Xl_RD" id="21" role="37wK5m">
                          <property role="Xl_RC" value="r:31cdb065-98c9-4ea1-a600-4ca41da57471(no.uio.mLab.decisions.tasks.autocommentation.typesystem)" />
                        </node>
                        <node concept="Xl_RD" id="22" role="37wK5m">
                          <property role="Xl_RC" value="1560130832616235988" />
                        </node>
                        <node concept="10Nm6u" id="23" role="37wK5m" />
                        <node concept="37vLTw" id="24" role="37wK5m">
                          <ref role="3cqZAo" node="1P" resolve="errorTarget" />
                        </node>
                      </node>
                    </node>
                  </node>
                </node>
              </node>
              <node concept="6wLe0" id="1L" role="lGtFl">
                <property role="6wLej" value="1560130832616235988" />
                <property role="6wLeW" value="r:31cdb065-98c9-4ea1-a600-4ca41da57471(no.uio.mLab.decisions.tasks.autocommentation.typesystem)" />
              </node>
              <node concept="cd27G" id="1M" role="lGtFl">
                <node concept="3u3nmq" id="2l" role="cd27D">
                  <property role="3u3nmv" value="1560130832616235988" />
                </node>
              </node>
            </node>
            <node concept="cd27G" id="1J" role="lGtFl">
              <node concept="3u3nmq" id="2m" role="cd27D">
                <property role="3u3nmv" value="1560130832616232696" />
              </node>
            </node>
          </node>
          <node concept="cd27G" id="1v" role="lGtFl">
            <node concept="3u3nmq" id="2n" role="cd27D">
              <property role="3u3nmv" value="1560130832616232694" />
            </node>
          </node>
        </node>
        <node concept="cd27G" id="1s" role="lGtFl">
          <node concept="3u3nmq" id="2o" role="cd27D">
            <property role="3u3nmv" value="1560130832616232688" />
          </node>
        </node>
      </node>
      <node concept="3Tm1VV" id="18" role="1B3o_S">
        <node concept="cd27G" id="2p" role="lGtFl">
          <node concept="3u3nmq" id="2q" role="cd27D">
            <property role="3u3nmv" value="1560130832616232687" />
          </node>
        </node>
      </node>
      <node concept="cd27G" id="19" role="lGtFl">
        <node concept="3u3nmq" id="2r" role="cd27D">
          <property role="3u3nmv" value="1560130832616232687" />
        </node>
      </node>
    </node>
    <node concept="3clFb_" id="L" role="jymVt">
      <property role="TrG5h" value="getApplicableConcept" />
      <node concept="3bZ5Sz" id="2s" role="3clF45">
        <node concept="cd27G" id="2w" role="lGtFl">
          <node concept="3u3nmq" id="2x" role="cd27D">
            <property role="3u3nmv" value="1560130832616232687" />
          </node>
        </node>
      </node>
      <node concept="3clFbS" id="2t" role="3clF47">
        <node concept="3cpWs6" id="2y" role="3cqZAp">
          <node concept="35c_gC" id="2$" role="3cqZAk">
            <ref role="35c_gD" to="jn6m:1mAGFBLedHi" resolve="AddCommentForRequestor" />
            <node concept="cd27G" id="2A" role="lGtFl">
              <node concept="3u3nmq" id="2B" role="cd27D">
                <property role="3u3nmv" value="1560130832616232687" />
              </node>
            </node>
          </node>
          <node concept="cd27G" id="2_" role="lGtFl">
            <node concept="3u3nmq" id="2C" role="cd27D">
              <property role="3u3nmv" value="1560130832616232687" />
            </node>
          </node>
        </node>
        <node concept="cd27G" id="2z" role="lGtFl">
          <node concept="3u3nmq" id="2D" role="cd27D">
            <property role="3u3nmv" value="1560130832616232687" />
          </node>
        </node>
      </node>
      <node concept="3Tm1VV" id="2u" role="1B3o_S">
        <node concept="cd27G" id="2E" role="lGtFl">
          <node concept="3u3nmq" id="2F" role="cd27D">
            <property role="3u3nmv" value="1560130832616232687" />
          </node>
        </node>
      </node>
      <node concept="cd27G" id="2v" role="lGtFl">
        <node concept="3u3nmq" id="2G" role="cd27D">
          <property role="3u3nmv" value="1560130832616232687" />
        </node>
      </node>
    </node>
    <node concept="3clFb_" id="M" role="jymVt">
      <property role="TrG5h" value="isApplicableAndPattern" />
      <node concept="37vLTG" id="2H" role="3clF46">
        <property role="TrG5h" value="argument" />
        <node concept="3Tqbb2" id="2M" role="1tU5fm">
          <node concept="cd27G" id="2O" role="lGtFl">
            <node concept="3u3nmq" id="2P" role="cd27D">
              <property role="3u3nmv" value="1560130832616232687" />
            </node>
          </node>
        </node>
        <node concept="cd27G" id="2N" role="lGtFl">
          <node concept="3u3nmq" id="2Q" role="cd27D">
            <property role="3u3nmv" value="1560130832616232687" />
          </node>
        </node>
      </node>
      <node concept="3clFbS" id="2I" role="3clF47">
        <node concept="9aQIb" id="2R" role="3cqZAp">
          <node concept="3clFbS" id="2T" role="9aQI4">
            <node concept="3cpWs6" id="2V" role="3cqZAp">
              <node concept="2ShNRf" id="2X" role="3cqZAk">
                <node concept="1pGfFk" id="2Z" role="2ShVmc">
                  <ref role="37wK5l" to="qurh:~IsApplicableStatus.&lt;init&gt;(boolean,jetbrains.mps.lang.pattern.GeneratedMatchingPattern)" resolve="IsApplicableStatus" />
                  <node concept="2OqwBi" id="31" role="37wK5m">
                    <node concept="2OqwBi" id="34" role="2Oq$k0">
                      <node concept="liA8E" id="37" role="2OqNvi">
                        <ref role="37wK5l" to="mhbf:~SNode.getConcept():org.jetbrains.mps.openapi.language.SConcept" resolve="getConcept" />
                        <node concept="cd27G" id="3a" role="lGtFl">
                          <node concept="3u3nmq" id="3b" role="cd27D">
                            <property role="3u3nmv" value="1560130832616232687" />
                          </node>
                        </node>
                      </node>
                      <node concept="2JrnkZ" id="38" role="2Oq$k0">
                        <node concept="37vLTw" id="3c" role="2JrQYb">
                          <ref role="3cqZAo" node="2H" resolve="argument" />
                          <node concept="cd27G" id="3e" role="lGtFl">
                            <node concept="3u3nmq" id="3f" role="cd27D">
                              <property role="3u3nmv" value="1560130832616232687" />
                            </node>
                          </node>
                        </node>
                        <node concept="cd27G" id="3d" role="lGtFl">
                          <node concept="3u3nmq" id="3g" role="cd27D">
                            <property role="3u3nmv" value="1560130832616232687" />
                          </node>
                        </node>
                      </node>
                      <node concept="cd27G" id="39" role="lGtFl">
                        <node concept="3u3nmq" id="3h" role="cd27D">
                          <property role="3u3nmv" value="1560130832616232687" />
                        </node>
                      </node>
                    </node>
                    <node concept="liA8E" id="35" role="2OqNvi">
                      <ref role="37wK5l" to="c17a:~SAbstractConcept.isSubConceptOf(org.jetbrains.mps.openapi.language.SAbstractConcept):boolean" resolve="isSubConceptOf" />
                      <node concept="1rXfSq" id="3i" role="37wK5m">
                        <ref role="37wK5l" node="L" resolve="getApplicableConcept" />
                        <node concept="cd27G" id="3k" role="lGtFl">
                          <node concept="3u3nmq" id="3l" role="cd27D">
                            <property role="3u3nmv" value="1560130832616232687" />
                          </node>
                        </node>
                      </node>
                      <node concept="cd27G" id="3j" role="lGtFl">
                        <node concept="3u3nmq" id="3m" role="cd27D">
                          <property role="3u3nmv" value="1560130832616232687" />
                        </node>
                      </node>
                    </node>
                    <node concept="cd27G" id="36" role="lGtFl">
                      <node concept="3u3nmq" id="3n" role="cd27D">
                        <property role="3u3nmv" value="1560130832616232687" />
                      </node>
                    </node>
                  </node>
                  <node concept="10Nm6u" id="32" role="37wK5m">
                    <node concept="cd27G" id="3o" role="lGtFl">
                      <node concept="3u3nmq" id="3p" role="cd27D">
                        <property role="3u3nmv" value="1560130832616232687" />
                      </node>
                    </node>
                  </node>
                  <node concept="cd27G" id="33" role="lGtFl">
                    <node concept="3u3nmq" id="3q" role="cd27D">
                      <property role="3u3nmv" value="1560130832616232687" />
                    </node>
                  </node>
                </node>
                <node concept="cd27G" id="30" role="lGtFl">
                  <node concept="3u3nmq" id="3r" role="cd27D">
                    <property role="3u3nmv" value="1560130832616232687" />
                  </node>
                </node>
              </node>
              <node concept="cd27G" id="2Y" role="lGtFl">
                <node concept="3u3nmq" id="3s" role="cd27D">
                  <property role="3u3nmv" value="1560130832616232687" />
                </node>
              </node>
            </node>
            <node concept="cd27G" id="2W" role="lGtFl">
              <node concept="3u3nmq" id="3t" role="cd27D">
                <property role="3u3nmv" value="1560130832616232687" />
              </node>
            </node>
          </node>
          <node concept="cd27G" id="2U" role="lGtFl">
            <node concept="3u3nmq" id="3u" role="cd27D">
              <property role="3u3nmv" value="1560130832616232687" />
            </node>
          </node>
        </node>
        <node concept="cd27G" id="2S" role="lGtFl">
          <node concept="3u3nmq" id="3v" role="cd27D">
            <property role="3u3nmv" value="1560130832616232687" />
          </node>
        </node>
      </node>
      <node concept="3uibUv" id="2J" role="3clF45">
        <ref role="3uigEE" to="qurh:~IsApplicableStatus" resolve="IsApplicableStatus" />
        <node concept="cd27G" id="3w" role="lGtFl">
          <node concept="3u3nmq" id="3x" role="cd27D">
            <property role="3u3nmv" value="1560130832616232687" />
          </node>
        </node>
      </node>
      <node concept="3Tm1VV" id="2K" role="1B3o_S">
        <node concept="cd27G" id="3y" role="lGtFl">
          <node concept="3u3nmq" id="3z" role="cd27D">
            <property role="3u3nmv" value="1560130832616232687" />
          </node>
        </node>
      </node>
      <node concept="cd27G" id="2L" role="lGtFl">
        <node concept="3u3nmq" id="3$" role="cd27D">
          <property role="3u3nmv" value="1560130832616232687" />
        </node>
      </node>
    </node>
    <node concept="3clFb_" id="N" role="jymVt">
      <property role="TrG5h" value="overrides" />
      <node concept="3clFbS" id="3_" role="3clF47">
        <node concept="3cpWs6" id="3D" role="3cqZAp">
          <node concept="3clFbT" id="3F" role="3cqZAk">
            <property role="3clFbU" value="false" />
            <node concept="cd27G" id="3H" role="lGtFl">
              <node concept="3u3nmq" id="3I" role="cd27D">
                <property role="3u3nmv" value="1560130832616232687" />
              </node>
            </node>
          </node>
          <node concept="cd27G" id="3G" role="lGtFl">
            <node concept="3u3nmq" id="3J" role="cd27D">
              <property role="3u3nmv" value="1560130832616232687" />
            </node>
          </node>
        </node>
        <node concept="cd27G" id="3E" role="lGtFl">
          <node concept="3u3nmq" id="3K" role="cd27D">
            <property role="3u3nmv" value="1560130832616232687" />
          </node>
        </node>
      </node>
      <node concept="10P_77" id="3A" role="3clF45">
        <node concept="cd27G" id="3L" role="lGtFl">
          <node concept="3u3nmq" id="3M" role="cd27D">
            <property role="3u3nmv" value="1560130832616232687" />
          </node>
        </node>
      </node>
      <node concept="3Tm1VV" id="3B" role="1B3o_S">
        <node concept="cd27G" id="3N" role="lGtFl">
          <node concept="3u3nmq" id="3O" role="cd27D">
            <property role="3u3nmv" value="1560130832616232687" />
          </node>
        </node>
      </node>
      <node concept="cd27G" id="3C" role="lGtFl">
        <node concept="3u3nmq" id="3P" role="cd27D">
          <property role="3u3nmv" value="1560130832616232687" />
        </node>
      </node>
    </node>
    <node concept="3uibUv" id="O" role="EKbjA">
      <ref role="3uigEE" to="qurh:~NonTypesystemRule_Runtime" resolve="NonTypesystemRule_Runtime" />
      <node concept="cd27G" id="3Q" role="lGtFl">
        <node concept="3u3nmq" id="3R" role="cd27D">
          <property role="3u3nmv" value="1560130832616232687" />
        </node>
      </node>
    </node>
    <node concept="3uibUv" id="P" role="1zkMxy">
      <ref role="3uigEE" to="qurh:~AbstractNonTypesystemRule_Runtime" resolve="AbstractNonTypesystemRule_Runtime" />
      <node concept="cd27G" id="3S" role="lGtFl">
        <node concept="3u3nmq" id="3T" role="cd27D">
          <property role="3u3nmv" value="1560130832616232687" />
        </node>
      </node>
    </node>
    <node concept="3Tm1VV" id="Q" role="1B3o_S">
      <node concept="cd27G" id="3U" role="lGtFl">
        <node concept="3u3nmq" id="3V" role="cd27D">
          <property role="3u3nmv" value="1560130832616232687" />
        </node>
      </node>
    </node>
    <node concept="cd27G" id="R" role="lGtFl">
      <node concept="3u3nmq" id="3W" role="cd27D">
        <property role="3u3nmv" value="1560130832616232687" />
      </node>
    </node>
  </node>
</model>

