<?xml version="1.0" encoding="UTF-8"?>
<model ref="r:a74eba38-fe91-42c4-a628-f544e041a03d(no.furst.mLab.decisions.tasks.autocommentation.behavior)">
  <persistence version="9" />
  <languages>
    <use id="af65afd8-f0dd-4942-87d9-63a55f2a9db1" name="jetbrains.mps.lang.behavior" version="1" />
    <devkit ref="fbc25dd2-5da4-483a-8b19-70928e1b62d7(jetbrains.mps.devkit.general-purpose)" />
  </languages>
  <imports>
    <import index="r4pb" ref="r:004ad04f-2a63-408c-946c-fb0cd63b2840(no.furst.mLab.decisions.tasks.autocommentation.translations)" />
    <import index="1yj" ref="r:0c887d67-81ab-420f-9a35-a9f6bf96c975(no.uio.mLab.shared.behavior)" />
    <import index="vbok" ref="r:6cc208d3-a370-49ca-a6ac-ded97805a924(no.uio.mLab.shared.structure)" />
    <import index="wb6c" ref="r:19d15037-83c1-4ae2-b66a-763828cb8279(no.uio.mLab.decisions.core.behavior)" />
    <import index="iyzu" ref="r:4775ac76-6570-4dc9-a115-fe361cc83f23(no.furst.mLab.decisions.tasks.autocommentation.structure)" />
    <import index="7f9y" ref="r:790ac37e-42d3-4dd3-977c-e8fe9cc56a45(no.uio.mLab.decisions.core.structure)" />
    <import index="nlc7" ref="r:9d3523f4-3478-4519-bfbb-caf8e981a9d2(no.furst.mLab.decisions.references.structure)" />
    <import index="hyw5" ref="r:b77da972-4430-4cfb-8552-374583961329(no.uio.mLab.decisions.core.utils)" />
    <import index="wyt6" ref="6354ebe7-c22a-4a0f-ac54-50b52ab9b065/java:java.lang(JDK/)" />
  </imports>
  <registry>
    <language id="af65afd8-f0dd-4942-87d9-63a55f2a9db1" name="jetbrains.mps.lang.behavior">
      <concept id="6496299201655527393" name="jetbrains.mps.lang.behavior.structure.LocalBehaviorMethodCall" flags="nn" index="BsUDl" />
      <concept id="1225194240794" name="jetbrains.mps.lang.behavior.structure.ConceptBehavior" flags="ng" index="13h7C7">
        <reference id="1225194240799" name="concept" index="13h7C2" />
        <child id="1225194240805" name="method" index="13h7CS" />
        <child id="1225194240801" name="constructor" index="13h7CW" />
      </concept>
      <concept id="1225194413805" name="jetbrains.mps.lang.behavior.structure.ConceptConstructorDeclaration" flags="in" index="13hLZK" />
      <concept id="1225194472830" name="jetbrains.mps.lang.behavior.structure.ConceptMethodDeclaration" flags="ng" index="13i0hz">
        <property id="5864038008284099149" name="isStatic" index="2Ki8OM" />
        <property id="1225194472832" name="isVirtual" index="13i0it" />
        <property id="1225194472834" name="isAbstract" index="13i0iv" />
        <reference id="1225194472831" name="overriddenMethod" index="13i0hy" />
      </concept>
      <concept id="1225194691553" name="jetbrains.mps.lang.behavior.structure.ThisNodeExpression" flags="nn" index="13iPFW" />
    </language>
    <language id="f3061a53-9226-4cc5-a443-f952ceaf5816" name="jetbrains.mps.baseLanguage">
      <concept id="4836112446988635817" name="jetbrains.mps.baseLanguage.structure.UndefinedType" flags="in" index="2jxLKc" />
      <concept id="1202948039474" name="jetbrains.mps.baseLanguage.structure.InstanceMethodCallOperation" flags="nn" index="liA8E" />
      <concept id="1197027756228" name="jetbrains.mps.baseLanguage.structure.DotExpression" flags="nn" index="2OqwBi">
        <child id="1197027771414" name="operand" index="2Oq$k0" />
        <child id="1197027833540" name="operation" index="2OqNvi" />
      </concept>
      <concept id="1137021947720" name="jetbrains.mps.baseLanguage.structure.ConceptFunction" flags="in" index="2VMwT0">
        <child id="1137022507850" name="body" index="2VODD2" />
      </concept>
      <concept id="1070475926800" name="jetbrains.mps.baseLanguage.structure.StringLiteral" flags="nn" index="Xl_RD">
        <property id="1070475926801" name="value" index="Xl_RC" />
      </concept>
      <concept id="1081236700937" name="jetbrains.mps.baseLanguage.structure.StaticMethodCall" flags="nn" index="2YIFZM">
        <reference id="1144433194310" name="classConcept" index="1Pybhc" />
      </concept>
      <concept id="1070533707846" name="jetbrains.mps.baseLanguage.structure.StaticFieldReference" flags="nn" index="10M0yZ">
        <reference id="1144433057691" name="classifier" index="1PxDUh" />
      </concept>
      <concept id="1070534644030" name="jetbrains.mps.baseLanguage.structure.BooleanType" flags="in" index="10P_77" />
      <concept id="1068498886296" name="jetbrains.mps.baseLanguage.structure.VariableReference" flags="nn" index="37vLTw">
        <reference id="1068581517664" name="variableDeclaration" index="3cqZAo" />
      </concept>
      <concept id="1068498886292" name="jetbrains.mps.baseLanguage.structure.ParameterDeclaration" flags="ir" index="37vLTG" />
      <concept id="1225271177708" name="jetbrains.mps.baseLanguage.structure.StringType" flags="in" index="17QB3L" />
      <concept id="4972933694980447171" name="jetbrains.mps.baseLanguage.structure.BaseVariableDeclaration" flags="ng" index="19Szcq">
        <child id="5680397130376446158" name="type" index="1tU5fm" />
      </concept>
      <concept id="1068580123132" name="jetbrains.mps.baseLanguage.structure.BaseMethodDeclaration" flags="ng" index="3clF44">
        <child id="1068580123133" name="returnType" index="3clF45" />
        <child id="1068580123134" name="parameter" index="3clF46" />
        <child id="1068580123135" name="body" index="3clF47" />
      </concept>
      <concept id="1068580123152" name="jetbrains.mps.baseLanguage.structure.EqualsExpression" flags="nn" index="3clFbC" />
      <concept id="1068580123155" name="jetbrains.mps.baseLanguage.structure.ExpressionStatement" flags="nn" index="3clFbF">
        <child id="1068580123156" name="expression" index="3clFbG" />
      </concept>
      <concept id="1068580123159" name="jetbrains.mps.baseLanguage.structure.IfStatement" flags="nn" index="3clFbJ">
        <child id="1068580123160" name="condition" index="3clFbw" />
        <child id="1068580123161" name="ifTrue" index="3clFbx" />
      </concept>
      <concept id="1068580123136" name="jetbrains.mps.baseLanguage.structure.StatementList" flags="sn" stub="5293379017992965193" index="3clFbS">
        <child id="1068581517665" name="statement" index="3cqZAp" />
      </concept>
      <concept id="1068581242878" name="jetbrains.mps.baseLanguage.structure.ReturnStatement" flags="nn" index="3cpWs6">
        <child id="1068581517676" name="expression" index="3cqZAk" />
      </concept>
      <concept id="1204053956946" name="jetbrains.mps.baseLanguage.structure.IMethodCall" flags="ng" index="1ndlxa">
        <reference id="1068499141037" name="baseMethodDeclaration" index="37wK5l" />
        <child id="1068499141038" name="actualArgument" index="37wK5m" />
      </concept>
      <concept id="1107535904670" name="jetbrains.mps.baseLanguage.structure.ClassifierType" flags="in" index="3uibUv">
        <reference id="1107535924139" name="classifier" index="3uigEE" />
      </concept>
      <concept id="1081773326031" name="jetbrains.mps.baseLanguage.structure.BinaryOperation" flags="nn" index="3uHJSO">
        <child id="1081773367579" name="rightExpression" index="3uHU7w" />
        <child id="1081773367580" name="leftExpression" index="3uHU7B" />
      </concept>
      <concept id="1178549954367" name="jetbrains.mps.baseLanguage.structure.IVisible" flags="ng" index="1B3ioH">
        <child id="1178549979242" name="visibility" index="1B3o_S" />
      </concept>
      <concept id="5497648299878491908" name="jetbrains.mps.baseLanguage.structure.BaseVariableReference" flags="nn" index="1M0zk4">
        <reference id="5497648299878491909" name="baseVariableDeclaration" index="1M0zk5" />
      </concept>
      <concept id="1146644602865" name="jetbrains.mps.baseLanguage.structure.PublicVisibility" flags="nn" index="3Tm1VV" />
    </language>
    <language id="7866978e-a0f0-4cc7-81bc-4d213d9375e1" name="jetbrains.mps.lang.smodel">
      <concept id="1177026924588" name="jetbrains.mps.lang.smodel.structure.RefConcept_Reference" flags="nn" index="chp4Y">
        <reference id="1177026940964" name="conceptDeclaration" index="cht4Q" />
      </concept>
      <concept id="1179409122411" name="jetbrains.mps.lang.smodel.structure.Node_ConceptMethodCall" flags="nn" index="2qgKlT" />
      <concept id="1883223317721008708" name="jetbrains.mps.lang.smodel.structure.IfInstanceOfStatement" flags="nn" index="Jncv_">
        <reference id="1883223317721008712" name="nodeConcept" index="JncvD" />
        <child id="1883223317721008709" name="body" index="Jncv$" />
        <child id="1883223317721008711" name="variable" index="JncvA" />
        <child id="1883223317721008710" name="nodeExpression" index="JncvB" />
      </concept>
      <concept id="1883223317721008713" name="jetbrains.mps.lang.smodel.structure.IfInstanceOfVariable" flags="ng" index="JncvC" />
      <concept id="1883223317721107059" name="jetbrains.mps.lang.smodel.structure.IfInstanceOfVarReference" flags="nn" index="Jnkvi" />
      <concept id="1180031783296" name="jetbrains.mps.lang.smodel.structure.Concept_IsSubConceptOfOperation" flags="nn" index="2Zo12i">
        <child id="1180031783297" name="conceptArgument" index="2Zo12j" />
      </concept>
      <concept id="6677504323281689838" name="jetbrains.mps.lang.smodel.structure.SConceptType" flags="in" index="3bZ5Sz">
        <reference id="6677504323281689839" name="conceptDeclaraton" index="3bZ5Sy" />
      </concept>
      <concept id="1138055754698" name="jetbrains.mps.lang.smodel.structure.SNodeType" flags="in" index="3Tqbb2" />
      <concept id="1138056022639" name="jetbrains.mps.lang.smodel.structure.SPropertyAccess" flags="nn" index="3TrcHB">
        <reference id="1138056395725" name="property" index="3TsBF5" />
      </concept>
      <concept id="1138056143562" name="jetbrains.mps.lang.smodel.structure.SLinkAccess" flags="nn" index="3TrEf2">
        <reference id="1138056516764" name="link" index="3Tt5mk" />
      </concept>
    </language>
    <language id="ceab5195-25ea-4f22-9b92-103b95ca8c0c" name="jetbrains.mps.lang.core">
      <concept id="1133920641626" name="jetbrains.mps.lang.core.structure.BaseConcept" flags="ng" index="2VYdi">
        <property id="1193676396447" name="virtualPackage" index="3GE5qa" />
      </concept>
      <concept id="1169194658468" name="jetbrains.mps.lang.core.structure.INamedConcept" flags="ng" index="TrEIO">
        <property id="1169194664001" name="name" index="TrG5h" />
      </concept>
    </language>
  </registry>
  <node concept="13h7C7" id="499Gn2DGIBf">
    <property role="3GE5qa" value="base.parameters.interpretativeComment" />
    <ref role="13h7C2" to="iyzu:1Hxyv4DRzM5" resolve="CodedInterpretativeCommentForRequestor" />
    <node concept="13i0hz" id="499Gn2DGIC5" role="13h7CS">
      <property role="13i0it" value="false" />
      <property role="TrG5h" value="toDisplayString" />
      <property role="13i0iv" value="false" />
      <property role="2Ki8OM" value="false" />
      <ref role="13i0hy" to="1yj:499Gn2DGTs1" resolve="toDisplayString" />
      <node concept="3clFbS" id="499Gn2DGICh" role="3clF47">
        <node concept="3clFbF" id="2TpFF5_3cWR" role="3cqZAp">
          <node concept="2OqwBi" id="2TpFF5_3dOG" role="3clFbG">
            <node concept="2OqwBi" id="2TpFF5_3d9D" role="2Oq$k0">
              <node concept="13iPFW" id="2TpFF5_3cWQ" role="2Oq$k0" />
              <node concept="3TrEf2" id="2TpFF5_3do9" role="2OqNvi">
                <ref role="3Tt5mk" to="iyzu:2TpFF5_2NuO" resolve="commentReference" />
              </node>
            </node>
            <node concept="2qgKlT" id="2TpFF5_3e5Z" role="2OqNvi">
              <ref role="37wK5l" to="1yj:499Gn2DGTs1" resolve="toDisplayString" />
            </node>
          </node>
        </node>
      </node>
      <node concept="17QB3L" id="4QUW3ee10N$" role="3clF45" />
      <node concept="3Tm1VV" id="4QUW3ee10N_" role="1B3o_S" />
    </node>
    <node concept="13i0hz" id="499Gn2DGICn" role="13h7CS">
      <property role="13i0it" value="false" />
      <property role="TrG5h" value="toGenerationString" />
      <property role="13i0iv" value="false" />
      <property role="2Ki8OM" value="false" />
      <ref role="13i0hy" to="1yj:499Gn2DGU_t" resolve="toGenerationString" />
      <node concept="3clFbS" id="499Gn2DGICz" role="3clF47">
        <node concept="3clFbF" id="2TpFF5_3edr" role="3cqZAp">
          <node concept="2OqwBi" id="2TpFF5_3f2E" role="3clFbG">
            <node concept="2OqwBi" id="2TpFF5_3eqd" role="2Oq$k0">
              <node concept="13iPFW" id="2TpFF5_3edq" role="2Oq$k0" />
              <node concept="3TrEf2" id="2TpFF5_3eCF" role="2OqNvi">
                <ref role="3Tt5mk" to="iyzu:2TpFF5_2NuO" resolve="commentReference" />
              </node>
            </node>
            <node concept="2qgKlT" id="2TpFF5_3fjX" role="2OqNvi">
              <ref role="37wK5l" to="1yj:499Gn2DGU_t" resolve="toGenerationString" />
            </node>
          </node>
        </node>
      </node>
      <node concept="17QB3L" id="4QUW3ee10SC" role="3clF45" />
      <node concept="3Tm1VV" id="4QUW3ee10SD" role="1B3o_S" />
    </node>
    <node concept="13i0hz" id="1I84Bf7_11o" role="13h7CS">
      <property role="TrG5h" value="matches" />
      <property role="13i0it" value="false" />
      <property role="13i0iv" value="false" />
      <ref role="13i0hy" to="wb6c:6LTgXmMs$_D" resolve="matches" />
      <node concept="3Tm1VV" id="1I84Bf7_11p" role="1B3o_S" />
      <node concept="3clFbS" id="1I84Bf7_11B" role="3clF47">
        <node concept="Jncv_" id="1I84Bf7_1is" role="3cqZAp">
          <ref role="JncvD" to="iyzu:1Hxyv4DRzM5" resolve="CodedInterpretativeCommentForRequestor" />
          <node concept="37vLTw" id="1I84Bf7_1jd" role="JncvB">
            <ref role="3cqZAo" node="1I84Bf7_11C" resolve="node" />
          </node>
          <node concept="3clFbS" id="1I84Bf7_1iC" role="Jncv$">
            <node concept="3cpWs6" id="1I84Bf7_1k6" role="3cqZAp">
              <node concept="2OqwBi" id="1I84Bf7_2eX" role="3cqZAk">
                <node concept="2OqwBi" id="1I84Bf7_1xH" role="2Oq$k0">
                  <node concept="13iPFW" id="1I84Bf7_1kc" role="2Oq$k0" />
                  <node concept="3TrEf2" id="1I84Bf7_1LJ" role="2OqNvi">
                    <ref role="3Tt5mk" to="iyzu:2TpFF5_2NuO" resolve="commentReference" />
                  </node>
                </node>
                <node concept="2qgKlT" id="1I84Bf7_2zM" role="2OqNvi">
                  <ref role="37wK5l" to="wb6c:6LTgXmMs$_D" resolve="matches" />
                  <node concept="2OqwBi" id="1I84Bf7_2Tr" role="37wK5m">
                    <node concept="Jnkvi" id="1I84Bf7_2HP" role="2Oq$k0">
                      <ref role="1M0zk5" node="1I84Bf7_1iI" resolve="other" />
                    </node>
                    <node concept="3TrEf2" id="1I84Bf7_3jy" role="2OqNvi">
                      <ref role="3Tt5mk" to="iyzu:2TpFF5_2NuO" resolve="commentReference" />
                    </node>
                  </node>
                </node>
              </node>
            </node>
          </node>
          <node concept="JncvC" id="1I84Bf7_1iI" role="JncvA">
            <property role="TrG5h" value="other" />
            <node concept="2jxLKc" id="1I84Bf7_1iJ" role="1tU5fm" />
          </node>
        </node>
        <node concept="3clFbF" id="1I84Bf80oPE" role="3cqZAp">
          <node concept="2YIFZM" id="1I84Bf80oYG" role="3clFbG">
            <ref role="37wK5l" to="hyw5:1I84Bf7XEgz" resolve="createMismatch" />
            <ref role="1Pybhc" to="hyw5:6LTgXmO6cZw" resolve="JoinPointMatch" />
          </node>
        </node>
      </node>
      <node concept="37vLTG" id="1I84Bf7_11C" role="3clF46">
        <property role="TrG5h" value="node" />
        <node concept="3Tqbb2" id="1I84Bf7_11D" role="1tU5fm" />
      </node>
      <node concept="3uibUv" id="1I84Bf7_11E" role="3clF45">
        <ref role="3uigEE" to="hyw5:6LTgXmO6cZw" resolve="JoinPointMatch" />
      </node>
    </node>
    <node concept="13hLZK" id="499Gn2DGIBg" role="13h7CW">
      <node concept="3clFbS" id="499Gn2DGIBh" role="2VODD2" />
    </node>
  </node>
  <node concept="13h7C7" id="1Hxyv4EVACN">
    <property role="3GE5qa" value="shared" />
    <ref role="13h7C2" to="iyzu:1Hxyv4EVACd" resolve="ITranslatableFurstConcept" />
    <node concept="13i0hz" id="1Hxyv4EVAH4" role="13h7CS">
      <property role="13i0iv" value="false" />
      <property role="13i0it" value="false" />
      <property role="2Ki8OM" value="true" />
      <property role="TrG5h" value="getDisplayTranslations" />
      <node concept="3Tm1VV" id="1Hxyv4EVAH5" role="1B3o_S" />
      <node concept="3uibUv" id="ofcHXfNvNn" role="3clF45">
        <ref role="3uigEE" to="r4pb:5ZQBr_XMo3W" resolve="IFurstAutocommentationTaskTranslations" />
      </node>
      <node concept="3clFbS" id="1Hxyv4EVAH7" role="3clF47">
        <node concept="3clFbF" id="1Hxyv4EVAH8" role="3cqZAp">
          <node concept="10M0yZ" id="ofcHXfNvO_" role="3clFbG">
            <ref role="3cqZAo" to="r4pb:5ZQBr_XMprO" resolve="displayTranslations" />
            <ref role="1PxDUh" to="r4pb:5ZQBr_XMo3g" resolve="FurstAutocommentationTaskTranslationProvider" />
          </node>
        </node>
      </node>
    </node>
    <node concept="13i0hz" id="1Hxyv4EVAD8" role="13h7CS">
      <property role="13i0iv" value="false" />
      <property role="13i0it" value="false" />
      <property role="2Ki8OM" value="true" />
      <property role="TrG5h" value="getGenerationTranslations" />
      <node concept="3Tm1VV" id="1Hxyv4EVAD9" role="1B3o_S" />
      <node concept="3uibUv" id="ofcHXfNvPa" role="3clF45">
        <ref role="3uigEE" to="r4pb:5ZQBr_XMo3W" resolve="IFurstAutocommentationTaskTranslations" />
      </node>
      <node concept="3clFbS" id="1Hxyv4EVADb" role="3clF47">
        <node concept="3clFbF" id="1Hxyv4EVAFU" role="3cqZAp">
          <node concept="10M0yZ" id="ofcHXfNvPJ" role="3clFbG">
            <ref role="3cqZAo" to="r4pb:1Hxyv4DUGoA" resolve="generationTranslations" />
            <ref role="1PxDUh" to="r4pb:5ZQBr_XMo3g" resolve="FurstAutocommentationTaskTranslationProvider" />
          </node>
        </node>
      </node>
    </node>
    <node concept="13hLZK" id="1Hxyv4EVACO" role="13h7CW">
      <node concept="3clFbS" id="1Hxyv4EVACP" role="2VODD2" />
    </node>
  </node>
  <node concept="13h7C7" id="7lYCqhv5aVU">
    <property role="3GE5qa" value="base.actions" />
    <ref role="13h7C2" to="iyzu:7lYCqhv527q" resolve="AddStatisticalLabel" />
    <node concept="13hLZK" id="7lYCqhv5aVV" role="13h7CW">
      <node concept="3clFbS" id="7lYCqhv5aVW" role="2VODD2" />
    </node>
    <node concept="13i0hz" id="7lYCqhv5aW5" role="13h7CS">
      <property role="13i0iv" value="false" />
      <property role="13i0it" value="false" />
      <property role="TrG5h" value="getDisplayAlias" />
      <property role="2Ki8OM" value="true" />
      <ref role="13i0hy" to="1yj:5Wfdz$0vc2$" resolve="getDisplayAlias" />
      <node concept="3Tm1VV" id="7lYCqhv5aW6" role="1B3o_S" />
      <node concept="3clFbS" id="7lYCqhv5aWb" role="3clF47">
        <node concept="3clFbF" id="7lYCqhv5cul" role="3cqZAp">
          <node concept="2OqwBi" id="7lYCqhv5c_h" role="3clFbG">
            <node concept="BsUDl" id="7lYCqhv5cuk" role="2Oq$k0">
              <ref role="37wK5l" node="1Hxyv4EVAH4" resolve="getDisplayTranslations" />
            </node>
            <node concept="liA8E" id="7lYCqhv5cF6" role="2OqNvi">
              <ref role="37wK5l" to="r4pb:7lYCqhv5bry" resolve="getAddStatisticalLabelAlias" />
            </node>
          </node>
        </node>
      </node>
      <node concept="17QB3L" id="7lYCqhv5aWc" role="3clF45" />
    </node>
    <node concept="13i0hz" id="7lYCqhv5aWh" role="13h7CS">
      <property role="13i0iv" value="false" />
      <property role="13i0it" value="false" />
      <property role="TrG5h" value="getDisplayDescription" />
      <property role="2Ki8OM" value="true" />
      <ref role="13i0hy" to="1yj:5Wfdz$0vc3v" resolve="getDisplayDescription" />
      <node concept="3Tm1VV" id="7lYCqhv5aWi" role="1B3o_S" />
      <node concept="3clFbS" id="7lYCqhv5aWn" role="3clF47">
        <node concept="3clFbF" id="7lYCqhv5cG3" role="3cqZAp">
          <node concept="2OqwBi" id="7lYCqhv5cN7" role="3clFbG">
            <node concept="BsUDl" id="7lYCqhv5cG2" role="2Oq$k0">
              <ref role="37wK5l" node="1Hxyv4EVAH4" resolve="getDisplayTranslations" />
            </node>
            <node concept="liA8E" id="7lYCqhv5cT4" role="2OqNvi">
              <ref role="37wK5l" to="r4pb:7lYCqhv5btz" resolve="getAddStatisticalLabelDescription" />
            </node>
          </node>
        </node>
      </node>
      <node concept="17QB3L" id="7lYCqhv5aWo" role="3clF45" />
    </node>
    <node concept="13i0hz" id="7lYCqhv5aWt" role="13h7CS">
      <property role="13i0iv" value="false" />
      <property role="13i0it" value="false" />
      <property role="TrG5h" value="getGenerationAlias" />
      <property role="2Ki8OM" value="true" />
      <ref role="13i0hy" to="1yj:4QUW3efxqUv" resolve="getGenerationAlias" />
      <node concept="3Tm1VV" id="7lYCqhv5aWu" role="1B3o_S" />
      <node concept="3clFbS" id="7lYCqhv5aWz" role="3clF47">
        <node concept="3clFbF" id="7lYCqhv5cU1" role="3cqZAp">
          <node concept="2OqwBi" id="7lYCqhv5d0X" role="3clFbG">
            <node concept="BsUDl" id="7lYCqhv5cU0" role="2Oq$k0">
              <ref role="37wK5l" node="1Hxyv4EVAD8" resolve="getGenerationTranslations" />
            </node>
            <node concept="liA8E" id="7lYCqhv5d6K" role="2OqNvi">
              <ref role="37wK5l" to="r4pb:7lYCqhv5bry" resolve="getAddStatisticalLabelAlias" />
            </node>
          </node>
        </node>
      </node>
      <node concept="17QB3L" id="7lYCqhv5aW$" role="3clF45" />
    </node>
    <node concept="13i0hz" id="7lYCqhv5aWD" role="13h7CS">
      <property role="13i0iv" value="false" />
      <property role="13i0it" value="false" />
      <property role="TrG5h" value="toDisplayString" />
      <ref role="13i0hy" to="1yj:499Gn2DGTs1" resolve="toDisplayString" />
      <node concept="3Tm1VV" id="7lYCqhv5aWE" role="1B3o_S" />
      <node concept="3clFbS" id="7lYCqhv5aWP" role="3clF47">
        <node concept="3clFbF" id="7lYCqhv5dbX" role="3cqZAp">
          <node concept="2YIFZM" id="7lYCqhv5dch" role="3clFbG">
            <ref role="1Pybhc" to="wyt6:~String" resolve="String" />
            <ref role="37wK5l" to="wyt6:~String.format(java.lang.String,java.lang.Object...):java.lang.String" resolve="format" />
            <node concept="Xl_RD" id="7lYCqhv5ddm" role="37wK5m">
              <property role="Xl_RC" value="%s %s" />
            </node>
            <node concept="BsUDl" id="7lYCqhv5drS" role="37wK5m">
              <ref role="37wK5l" to="1yj:5Wfdz$0vc2$" resolve="getDisplayAlias" />
            </node>
            <node concept="2OqwBi" id="7lYCqhv5dPq" role="37wK5m">
              <node concept="13iPFW" id="7lYCqhv5dDg" role="2Oq$k0" />
              <node concept="3TrcHB" id="7lYCqhv5e3g" role="2OqNvi">
                <ref role="3TsBF5" to="iyzu:7lYCqhv59wj" resolve="label" />
              </node>
            </node>
          </node>
        </node>
      </node>
      <node concept="17QB3L" id="7lYCqhv5aWQ" role="3clF45" />
    </node>
    <node concept="13i0hz" id="7lYCqhv5aWV" role="13h7CS">
      <property role="13i0iv" value="false" />
      <property role="13i0it" value="false" />
      <property role="TrG5h" value="toGenerationString" />
      <ref role="13i0hy" to="1yj:499Gn2DGU_t" resolve="toGenerationString" />
      <node concept="3Tm1VV" id="7lYCqhv5aWW" role="1B3o_S" />
      <node concept="3clFbS" id="7lYCqhv5aX7" role="3clF47">
        <node concept="3clFbF" id="7lYCqhv5ebP" role="3cqZAp">
          <node concept="2YIFZM" id="7lYCqhv5ebQ" role="3clFbG">
            <ref role="37wK5l" to="wyt6:~String.format(java.lang.String,java.lang.Object...):java.lang.String" resolve="format" />
            <ref role="1Pybhc" to="wyt6:~String" resolve="String" />
            <node concept="Xl_RD" id="7lYCqhv5ebR" role="37wK5m">
              <property role="Xl_RC" value="%s %s" />
            </node>
            <node concept="BsUDl" id="7lYCqhv5egV" role="37wK5m">
              <ref role="37wK5l" to="1yj:4QUW3efxqUv" resolve="getGenerationAlias" />
            </node>
            <node concept="2OqwBi" id="7lYCqhv5ebT" role="37wK5m">
              <node concept="13iPFW" id="7lYCqhv5ebU" role="2Oq$k0" />
              <node concept="3TrcHB" id="7lYCqhv5ebV" role="2OqNvi">
                <ref role="3TsBF5" to="iyzu:7lYCqhv59wj" resolve="label" />
              </node>
            </node>
          </node>
        </node>
      </node>
      <node concept="17QB3L" id="7lYCqhv5aX8" role="3clF45" />
    </node>
    <node concept="13i0hz" id="65epL7MepBh" role="13h7CS">
      <property role="TrG5h" value="matches" />
      <property role="13i0it" value="false" />
      <property role="13i0iv" value="false" />
      <ref role="13i0hy" to="wb6c:6LTgXmMs$_D" resolve="matches" />
      <node concept="3Tm1VV" id="65epL7MepBi" role="1B3o_S" />
      <node concept="3clFbS" id="65epL7MepBv" role="3clF47">
        <node concept="Jncv_" id="65epL7MepRp" role="3cqZAp">
          <ref role="JncvD" to="iyzu:7lYCqhv527q" resolve="AddStatisticalLabel" />
          <node concept="37vLTw" id="65epL7MepRQ" role="JncvB">
            <ref role="3cqZAo" node="65epL7MepBw" resolve="node" />
          </node>
          <node concept="3clFbS" id="65epL7MepRr" role="Jncv$">
            <node concept="3clFbJ" id="65epL7MepVg" role="3cqZAp">
              <node concept="3clFbC" id="65epL7MerH4" role="3clFbw">
                <node concept="2OqwBi" id="65epL7Mesln" role="3uHU7w">
                  <node concept="Jnkvi" id="65epL7MerSy" role="2Oq$k0">
                    <ref role="1M0zk5" node="65epL7MepRs" resolve="action" />
                  </node>
                  <node concept="3TrcHB" id="65epL7MesKY" role="2OqNvi">
                    <ref role="3TsBF5" to="iyzu:7lYCqhv59wj" resolve="label" />
                  </node>
                </node>
                <node concept="2OqwBi" id="65epL7Meq97" role="3uHU7B">
                  <node concept="13iPFW" id="65epL7MepV$" role="2Oq$k0" />
                  <node concept="3TrcHB" id="65epL7Meqpr" role="2OqNvi">
                    <ref role="3TsBF5" to="iyzu:7lYCqhv59wj" resolve="label" />
                  </node>
                </node>
              </node>
              <node concept="3clFbS" id="65epL7MepVi" role="3clFbx">
                <node concept="3cpWs6" id="65epL7MesW$" role="3cqZAp">
                  <node concept="2YIFZM" id="65epL7Metkr" role="3cqZAk">
                    <ref role="37wK5l" to="hyw5:5uQLXCsZ3I7" resolve="createMatch" />
                    <ref role="1Pybhc" to="hyw5:6LTgXmO6cZw" resolve="JoinPointMatch" />
                  </node>
                </node>
              </node>
            </node>
          </node>
          <node concept="JncvC" id="65epL7MepRs" role="JncvA">
            <property role="TrG5h" value="action" />
            <node concept="2jxLKc" id="65epL7MepRt" role="1tU5fm" />
          </node>
        </node>
        <node concept="3clFbF" id="65epL7MetGe" role="3cqZAp">
          <node concept="2YIFZM" id="65epL7Mev7i" role="3clFbG">
            <ref role="37wK5l" to="hyw5:1I84Bf7XEgz" resolve="createMismatch" />
            <ref role="1Pybhc" to="hyw5:6LTgXmO6cZw" resolve="JoinPointMatch" />
          </node>
        </node>
      </node>
      <node concept="37vLTG" id="65epL7MepBw" role="3clF46">
        <property role="TrG5h" value="node" />
        <node concept="3Tqbb2" id="65epL7MepBx" role="1tU5fm" />
      </node>
      <node concept="3uibUv" id="65epL7MepBy" role="3clF45">
        <ref role="3uigEE" to="hyw5:6LTgXmO6cZw" resolve="JoinPointMatch" />
      </node>
    </node>
  </node>
  <node concept="13h7C7" id="2FjKBCR5Ipw">
    <property role="3GE5qa" value="base.actions" />
    <ref role="13h7C2" to="iyzu:2FjKBCR5FI6" resolve="SuggestAdditionalTestToRequestor" />
    <node concept="13hLZK" id="2FjKBCR5Ipx" role="13h7CW">
      <node concept="3clFbS" id="2FjKBCR5Ipy" role="2VODD2" />
    </node>
    <node concept="13i0hz" id="2FjKBCR5IpN" role="13h7CS">
      <property role="13i0iv" value="false" />
      <property role="13i0it" value="false" />
      <property role="TrG5h" value="getDisplayAlias" />
      <property role="2Ki8OM" value="true" />
      <ref role="13i0hy" to="1yj:5Wfdz$0vc2$" resolve="getDisplayAlias" />
      <node concept="3Tm1VV" id="2FjKBCR5IpO" role="1B3o_S" />
      <node concept="3clFbS" id="2FjKBCR5IpT" role="3clF47">
        <node concept="3clFbF" id="2FjKBCR5IRO" role="3cqZAp">
          <node concept="2OqwBi" id="2FjKBCR5J4C" role="3clFbG">
            <node concept="BsUDl" id="2FjKBCR5IRN" role="2Oq$k0">
              <ref role="37wK5l" node="1Hxyv4EVAH4" resolve="getDisplayTranslations" />
            </node>
            <node concept="liA8E" id="2FjKBCR5Jap" role="2OqNvi">
              <ref role="37wK5l" to="r4pb:2FjKBCR5H_N" resolve="getSuggestAdditionalLaboratoryTestAlias" />
            </node>
          </node>
        </node>
      </node>
      <node concept="17QB3L" id="2FjKBCR5IpU" role="3clF45" />
    </node>
    <node concept="13i0hz" id="2FjKBCR5IpZ" role="13h7CS">
      <property role="13i0iv" value="false" />
      <property role="13i0it" value="false" />
      <property role="TrG5h" value="getDisplayDescription" />
      <property role="2Ki8OM" value="true" />
      <ref role="13i0hy" to="1yj:5Wfdz$0vc3v" resolve="getDisplayDescription" />
      <node concept="3Tm1VV" id="2FjKBCR5Iq0" role="1B3o_S" />
      <node concept="3clFbS" id="2FjKBCR5Iq5" role="3clF47">
        <node concept="3clFbF" id="2FjKBCR5Jbk" role="3cqZAp">
          <node concept="2OqwBi" id="2FjKBCR5Jld" role="3clFbG">
            <node concept="BsUDl" id="2FjKBCR5Jbj" role="2Oq$k0">
              <ref role="37wK5l" node="1Hxyv4EVAH4" resolve="getDisplayTranslations" />
            </node>
            <node concept="liA8E" id="2FjKBCR5Jr6" role="2OqNvi">
              <ref role="37wK5l" to="r4pb:2FjKBCR5HBI" resolve="getSuggestAdditionalLaboratoryTestDescription" />
            </node>
          </node>
        </node>
      </node>
      <node concept="17QB3L" id="2FjKBCR5Iq6" role="3clF45" />
    </node>
    <node concept="13i0hz" id="2FjKBCR5Iqb" role="13h7CS">
      <property role="13i0iv" value="false" />
      <property role="13i0it" value="false" />
      <property role="TrG5h" value="getGenerationAlias" />
      <property role="2Ki8OM" value="true" />
      <ref role="13i0hy" to="1yj:4QUW3efxqUv" resolve="getGenerationAlias" />
      <node concept="3Tm1VV" id="2FjKBCR5Iqc" role="1B3o_S" />
      <node concept="3clFbS" id="2FjKBCR5Iqh" role="3clF47">
        <node concept="3clFbF" id="2FjKBCR5Js1" role="3cqZAp">
          <node concept="2OqwBi" id="2FjKBCR5JyX" role="3clFbG">
            <node concept="BsUDl" id="2FjKBCR5Js0" role="2Oq$k0">
              <ref role="37wK5l" node="1Hxyv4EVAD8" resolve="getGenerationTranslations" />
            </node>
            <node concept="liA8E" id="2FjKBCR5JCI" role="2OqNvi">
              <ref role="37wK5l" to="r4pb:2FjKBCR5H_N" resolve="getSuggestAdditionalLaboratoryTestAlias" />
            </node>
          </node>
        </node>
      </node>
      <node concept="17QB3L" id="2FjKBCR5Iqi" role="3clF45" />
    </node>
    <node concept="13i0hz" id="2FjKBCR5Iqn" role="13h7CS">
      <property role="13i0iv" value="false" />
      <property role="13i0it" value="false" />
      <property role="TrG5h" value="toDisplayString" />
      <ref role="13i0hy" to="1yj:499Gn2DGTs1" resolve="toDisplayString" />
      <node concept="3Tm1VV" id="2FjKBCR5Iqo" role="1B3o_S" />
      <node concept="3clFbS" id="2FjKBCR5Iqz" role="3clF47">
        <node concept="3clFbF" id="2FjKBCR5JDL" role="3cqZAp">
          <node concept="2YIFZM" id="2FjKBCR5JE5" role="3clFbG">
            <ref role="37wK5l" to="wyt6:~String.format(java.lang.String,java.lang.Object...):java.lang.String" resolve="format" />
            <ref role="1Pybhc" to="wyt6:~String" resolve="String" />
            <node concept="Xl_RD" id="2FjKBCR5JF9" role="37wK5m">
              <property role="Xl_RC" value="%s %s" />
            </node>
            <node concept="BsUDl" id="2FjKBCR5Kbj" role="37wK5m">
              <ref role="37wK5l" to="1yj:5Wfdz$0vc2$" resolve="getDisplayAlias" />
            </node>
            <node concept="2OqwBi" id="2FjKBCR5Lqr" role="37wK5m">
              <node concept="2OqwBi" id="2FjKBCR5KBi" role="2Oq$k0">
                <node concept="13iPFW" id="2FjKBCR5Koz" role="2Oq$k0" />
                <node concept="3TrEf2" id="2FjKBCR5KUh" role="2OqNvi">
                  <ref role="3Tt5mk" to="iyzu:2FjKBCR5FI7" resolve="testReference" />
                </node>
              </node>
              <node concept="2qgKlT" id="2FjKBCR5LTm" role="2OqNvi">
                <ref role="37wK5l" to="1yj:499Gn2DGTs1" resolve="toDisplayString" />
              </node>
            </node>
          </node>
        </node>
      </node>
      <node concept="17QB3L" id="2FjKBCR5Iq$" role="3clF45" />
    </node>
    <node concept="13i0hz" id="2FjKBCR5IqD" role="13h7CS">
      <property role="13i0iv" value="false" />
      <property role="13i0it" value="false" />
      <property role="TrG5h" value="toGenerationString" />
      <ref role="13i0hy" to="1yj:499Gn2DGU_t" resolve="toGenerationString" />
      <node concept="3Tm1VV" id="2FjKBCR5IqE" role="1B3o_S" />
      <node concept="3clFbS" id="2FjKBCR5IqP" role="3clF47">
        <node concept="3clFbF" id="2FjKBCR5M6B" role="3cqZAp">
          <node concept="2YIFZM" id="2FjKBCR5M6C" role="3clFbG">
            <ref role="1Pybhc" to="wyt6:~String" resolve="String" />
            <ref role="37wK5l" to="wyt6:~String.format(java.lang.String,java.lang.Object...):java.lang.String" resolve="format" />
            <node concept="Xl_RD" id="2FjKBCR5M6D" role="37wK5m">
              <property role="Xl_RC" value="%s %s" />
            </node>
            <node concept="BsUDl" id="2FjKBCR5MoC" role="37wK5m">
              <ref role="37wK5l" to="1yj:4QUW3efxqUv" resolve="getGenerationAlias" />
            </node>
            <node concept="2OqwBi" id="2FjKBCR5M6F" role="37wK5m">
              <node concept="2OqwBi" id="2FjKBCR5M6G" role="2Oq$k0">
                <node concept="13iPFW" id="2FjKBCR5M6H" role="2Oq$k0" />
                <node concept="3TrEf2" id="2FjKBCR5M6I" role="2OqNvi">
                  <ref role="3Tt5mk" to="iyzu:2FjKBCR5FI7" resolve="testReference" />
                </node>
              </node>
              <node concept="2qgKlT" id="2FjKBCR5MVK" role="2OqNvi">
                <ref role="37wK5l" to="1yj:499Gn2DGU_t" resolve="toGenerationString" />
              </node>
            </node>
          </node>
        </node>
      </node>
      <node concept="17QB3L" id="2FjKBCR5IqQ" role="3clF45" />
    </node>
    <node concept="13i0hz" id="2FjKBCR5IqV" role="13h7CS">
      <property role="TrG5h" value="matches" />
      <property role="13i0it" value="false" />
      <property role="13i0iv" value="false" />
      <ref role="13i0hy" to="wb6c:6LTgXmMs$_D" resolve="matches" />
      <node concept="3Tm1VV" id="2FjKBCR5IqW" role="1B3o_S" />
      <node concept="3clFbS" id="2FjKBCR5Ir9" role="3clF47">
        <node concept="Jncv_" id="2FjKBCR5NzQ" role="3cqZAp">
          <ref role="JncvD" to="iyzu:2FjKBCR5FI6" resolve="SuggestAdditionalTestToRequestor" />
          <node concept="37vLTw" id="2FjKBCR5N$j" role="JncvB">
            <ref role="3cqZAo" node="2FjKBCR5Ira" resolve="node" />
          </node>
          <node concept="3clFbS" id="2FjKBCR5NzS" role="Jncv$">
            <node concept="3cpWs6" id="2FjKBCR5N_c" role="3cqZAp">
              <node concept="2OqwBi" id="2FjKBCR5O_z" role="3cqZAk">
                <node concept="2OqwBi" id="2FjKBCR5NN8" role="2Oq$k0">
                  <node concept="13iPFW" id="2FjKBCR5N_w" role="2Oq$k0" />
                  <node concept="3TrEf2" id="2FjKBCR5O3s" role="2OqNvi">
                    <ref role="3Tt5mk" to="iyzu:2FjKBCR5FI7" resolve="testReference" />
                  </node>
                </node>
                <node concept="2qgKlT" id="2FjKBCR5OYb" role="2OqNvi">
                  <ref role="37wK5l" to="wb6c:6LTgXmMs$_D" resolve="matches" />
                  <node concept="2OqwBi" id="2FjKBCR5Pz4" role="37wK5m">
                    <node concept="Jnkvi" id="2FjKBCR5Pc9" role="2Oq$k0">
                      <ref role="1M0zk5" node="2FjKBCR5NzT" resolve="action" />
                    </node>
                    <node concept="3TrEf2" id="2FjKBCR5PYN" role="2OqNvi">
                      <ref role="3Tt5mk" to="iyzu:2FjKBCR5FI7" resolve="testReference" />
                    </node>
                  </node>
                </node>
              </node>
            </node>
          </node>
          <node concept="JncvC" id="2FjKBCR5NzT" role="JncvA">
            <property role="TrG5h" value="action" />
            <node concept="2jxLKc" id="2FjKBCR5NzU" role="1tU5fm" />
          </node>
        </node>
        <node concept="3clFbF" id="2FjKBCR5QkE" role="3cqZAp">
          <node concept="2YIFZM" id="2FjKBCR5QuO" role="3clFbG">
            <ref role="37wK5l" to="hyw5:1I84Bf7XEgz" resolve="createMismatch" />
            <ref role="1Pybhc" to="hyw5:6LTgXmO6cZw" resolve="JoinPointMatch" />
          </node>
        </node>
      </node>
      <node concept="37vLTG" id="2FjKBCR5Ira" role="3clF46">
        <property role="TrG5h" value="node" />
        <node concept="3Tqbb2" id="2FjKBCR5Irb" role="1tU5fm" />
      </node>
      <node concept="3uibUv" id="2FjKBCR5Irc" role="3clF45">
        <ref role="3uigEE" to="hyw5:6LTgXmO6cZw" resolve="JoinPointMatch" />
      </node>
    </node>
  </node>
  <node concept="13h7C7" id="2FjKBCRpzP8">
    <property role="3GE5qa" value="base.constraints.variance" />
    <ref role="13h7C2" to="iyzu:2FjKBCRpzOH" resolve="TestResultVarianceConstraint" />
    <node concept="13hLZK" id="2FjKBCRpzP9" role="13h7CW">
      <node concept="3clFbS" id="2FjKBCRpzPa" role="2VODD2" />
    </node>
    <node concept="13i0hz" id="2FjKBCRpzPj" role="13h7CS">
      <property role="TrG5h" value="isAllowedToConstrain" />
      <property role="13i0it" value="false" />
      <property role="2Ki8OM" value="true" />
      <property role="13i0iv" value="false" />
      <ref role="13i0hy" to="wb6c:1mAGFBKNuSW" resolve="isAllowedToConstrain" />
      <node concept="3Tm1VV" id="2FjKBCRpzPk" role="1B3o_S" />
      <node concept="3clFbS" id="2FjKBCRpzPu" role="3clF47">
        <node concept="3clFbF" id="2FjKBCRpzX8" role="3cqZAp">
          <node concept="2OqwBi" id="2FjKBCRp$cK" role="3clFbG">
            <node concept="37vLTw" id="2FjKBCRpzX7" role="2Oq$k0">
              <ref role="3cqZAo" node="2FjKBCRpzPv" resolve="concept" />
            </node>
            <node concept="2Zo12i" id="2FjKBCRp$sV" role="2OqNvi">
              <node concept="chp4Y" id="2FjKBCRp$$$" role="2Zo12j">
                <ref role="cht4Q" to="iyzu:2FjKBCRoN3t" resolve="LaboratoryTestResultVariance" />
              </node>
            </node>
          </node>
        </node>
      </node>
      <node concept="37vLTG" id="2FjKBCRpzPv" role="3clF46">
        <property role="TrG5h" value="concept" />
        <node concept="3bZ5Sz" id="2FjKBCRpzPw" role="1tU5fm">
          <ref role="3bZ5Sy" to="7f9y:1mAGFBKqQrZ" resolve="DataValue" />
        </node>
      </node>
      <node concept="10P_77" id="2FjKBCRpzPx" role="3clF45" />
    </node>
  </node>
  <node concept="13h7C7" id="2FjKBCRpFzH">
    <property role="3GE5qa" value="base.constraints.variance" />
    <ref role="13h7C2" to="iyzu:2FjKBCRpzOI" resolve="TestResultVarianceEqualTo" />
    <node concept="13hLZK" id="2FjKBCRpFzI" role="13h7CW">
      <node concept="3clFbS" id="2FjKBCRpFzJ" role="2VODD2" />
    </node>
    <node concept="13i0hz" id="2FjKBCRpF$j" role="13h7CS">
      <property role="13i0iv" value="false" />
      <property role="13i0it" value="false" />
      <property role="TrG5h" value="getDisplayAlias" />
      <property role="2Ki8OM" value="true" />
      <ref role="13i0hy" to="1yj:5Wfdz$0vc2$" resolve="getDisplayAlias" />
      <node concept="3Tm1VV" id="2FjKBCRpF$k" role="1B3o_S" />
      <node concept="3clFbS" id="2FjKBCRpF$p" role="3clF47">
        <node concept="3clFbF" id="2FjKBCRpFUL" role="3cqZAp">
          <node concept="2OqwBi" id="2FjKBCRpG1H" role="3clFbG">
            <node concept="BsUDl" id="2FjKBCRpFUK" role="2Oq$k0">
              <ref role="37wK5l" node="1Hxyv4EVAH4" resolve="getDisplayTranslations" />
            </node>
            <node concept="liA8E" id="2FjKBCRpG7u" role="2OqNvi">
              <ref role="37wK5l" to="r4pb:2FjKBCRpBgw" resolve="getTestResultVarianceEqualToAlias" />
            </node>
          </node>
        </node>
      </node>
      <node concept="17QB3L" id="2FjKBCRpF$q" role="3clF45" />
    </node>
    <node concept="13i0hz" id="2FjKBCRpF$v" role="13h7CS">
      <property role="13i0iv" value="false" />
      <property role="13i0it" value="false" />
      <property role="TrG5h" value="getDisplayDescription" />
      <property role="2Ki8OM" value="true" />
      <ref role="13i0hy" to="1yj:5Wfdz$0vc3v" resolve="getDisplayDescription" />
      <node concept="3Tm1VV" id="2FjKBCRpF$w" role="1B3o_S" />
      <node concept="3clFbS" id="2FjKBCRpF$_" role="3clF47">
        <node concept="3clFbF" id="2FjKBCRpG8p" role="3cqZAp">
          <node concept="2OqwBi" id="2FjKBCRpGft" role="3clFbG">
            <node concept="BsUDl" id="2FjKBCRpG8o" role="2Oq$k0">
              <ref role="37wK5l" node="1Hxyv4EVAH4" resolve="getDisplayTranslations" />
            </node>
            <node concept="liA8E" id="2FjKBCRpGlm" role="2OqNvi">
              <ref role="37wK5l" to="r4pb:2FjKBCRpBuV" resolve="getTestResultVarianceEqualToDescription" />
            </node>
          </node>
        </node>
      </node>
      <node concept="17QB3L" id="2FjKBCRpF$A" role="3clF45" />
    </node>
    <node concept="13i0hz" id="2FjKBCRpF$F" role="13h7CS">
      <property role="13i0iv" value="false" />
      <property role="13i0it" value="false" />
      <property role="TrG5h" value="getGenerationAlias" />
      <property role="2Ki8OM" value="true" />
      <ref role="13i0hy" to="1yj:4QUW3efxqUv" resolve="getGenerationAlias" />
      <node concept="3Tm1VV" id="2FjKBCRpF$G" role="1B3o_S" />
      <node concept="3clFbS" id="2FjKBCRpF$L" role="3clF47">
        <node concept="3clFbF" id="2FjKBCRpGmh" role="3cqZAp">
          <node concept="2OqwBi" id="2FjKBCRpGtd" role="3clFbG">
            <node concept="BsUDl" id="2FjKBCRpGmg" role="2Oq$k0">
              <ref role="37wK5l" node="1Hxyv4EVAD8" resolve="getGenerationTranslations" />
            </node>
            <node concept="liA8E" id="2FjKBCRpGyY" role="2OqNvi">
              <ref role="37wK5l" to="r4pb:2FjKBCRpBgw" resolve="getTestResultVarianceEqualToAlias" />
            </node>
          </node>
        </node>
      </node>
      <node concept="17QB3L" id="2FjKBCRpF$M" role="3clF45" />
    </node>
    <node concept="13i0hz" id="2FjKBCRpF$R" role="13h7CS">
      <property role="13i0iv" value="false" />
      <property role="13i0it" value="false" />
      <property role="TrG5h" value="toDisplayString" />
      <ref role="13i0hy" to="1yj:499Gn2DGTs1" resolve="toDisplayString" />
      <node concept="3Tm1VV" id="2FjKBCRpF$S" role="1B3o_S" />
      <node concept="3clFbS" id="2FjKBCRpF_3" role="3clF47">
        <node concept="3clFbF" id="2FjKBCRpG$1" role="3cqZAp">
          <node concept="2YIFZM" id="2FjKBCRpG$B" role="3clFbG">
            <ref role="37wK5l" to="wyt6:~String.format(java.lang.String,java.lang.Object...):java.lang.String" resolve="format" />
            <ref role="1Pybhc" to="wyt6:~String" resolve="String" />
            <node concept="Xl_RD" id="2FjKBCRpG_G" role="37wK5m">
              <property role="Xl_RC" value="%s %s" />
            </node>
            <node concept="BsUDl" id="2FjKBCRpGPL" role="37wK5m">
              <ref role="37wK5l" to="1yj:5Wfdz$0vc2$" resolve="getDisplayAlias" />
            </node>
            <node concept="2OqwBi" id="2FjKBCRpIo6" role="37wK5m">
              <node concept="2OqwBi" id="2FjKBCRpHiq" role="2Oq$k0">
                <node concept="13iPFW" id="2FjKBCRpH3o" role="2Oq$k0" />
                <node concept="3TrEf2" id="2FjKBCRpHOm" role="2OqNvi">
                  <ref role="3Tt5mk" to="iyzu:2FjKBCRpHpc" resolve="variance" />
                </node>
              </node>
              <node concept="2qgKlT" id="2FjKBCRpIJX" role="2OqNvi">
                <ref role="37wK5l" to="1yj:499Gn2DGTs1" resolve="toDisplayString" />
              </node>
            </node>
          </node>
        </node>
      </node>
      <node concept="17QB3L" id="2FjKBCRpF_4" role="3clF45" />
    </node>
    <node concept="13i0hz" id="2FjKBCRpF_9" role="13h7CS">
      <property role="13i0iv" value="false" />
      <property role="13i0it" value="false" />
      <property role="TrG5h" value="toGenerationString" />
      <ref role="13i0hy" to="1yj:499Gn2DGU_t" resolve="toGenerationString" />
      <node concept="3Tm1VV" id="2FjKBCRpF_a" role="1B3o_S" />
      <node concept="3clFbS" id="2FjKBCRpF_l" role="3clF47">
        <node concept="3clFbF" id="2FjKBCRpIZ3" role="3cqZAp">
          <node concept="2YIFZM" id="2FjKBCRpIZ4" role="3clFbG">
            <ref role="37wK5l" to="wyt6:~String.format(java.lang.String,java.lang.Object...):java.lang.String" resolve="format" />
            <ref role="1Pybhc" to="wyt6:~String" resolve="String" />
            <node concept="Xl_RD" id="2FjKBCRpIZ5" role="37wK5m">
              <property role="Xl_RC" value="%s %s" />
            </node>
            <node concept="BsUDl" id="2FjKBCRpJ_N" role="37wK5m">
              <ref role="37wK5l" to="1yj:4QUW3efxqUv" resolve="getGenerationAlias" />
            </node>
            <node concept="2OqwBi" id="2FjKBCRpIZ7" role="37wK5m">
              <node concept="2OqwBi" id="2FjKBCRpIZ8" role="2Oq$k0">
                <node concept="13iPFW" id="2FjKBCRpIZ9" role="2Oq$k0" />
                <node concept="3TrEf2" id="2FjKBCRpIZa" role="2OqNvi">
                  <ref role="3Tt5mk" to="iyzu:2FjKBCRpHpc" resolve="variance" />
                </node>
              </node>
              <node concept="2qgKlT" id="2FjKBCRpJqF" role="2OqNvi">
                <ref role="37wK5l" to="1yj:499Gn2DGU_t" resolve="toGenerationString" />
              </node>
            </node>
          </node>
        </node>
      </node>
      <node concept="17QB3L" id="2FjKBCRpF_m" role="3clF45" />
    </node>
  </node>
  <node concept="13h7C7" id="2FjKBCRpUVZ">
    <property role="3GE5qa" value="base.data" />
    <ref role="13h7C2" to="iyzu:2FjKBCRoN3t" resolve="LaboratoryTestResultVariance" />
    <node concept="13hLZK" id="2FjKBCRpUW0" role="13h7CW">
      <node concept="3clFbS" id="2FjKBCRpUW1" role="2VODD2" />
    </node>
    <node concept="13i0hz" id="2FjKBCRpUWa" role="13h7CS">
      <property role="13i0iv" value="false" />
      <property role="13i0it" value="false" />
      <property role="TrG5h" value="getDisplayAlias" />
      <property role="2Ki8OM" value="true" />
      <ref role="13i0hy" to="1yj:5Wfdz$0vc2$" resolve="getDisplayAlias" />
      <node concept="3Tm1VV" id="2FjKBCRpUWb" role="1B3o_S" />
      <node concept="3clFbS" id="2FjKBCRpUWg" role="3clF47">
        <node concept="3clFbF" id="2FjKBCRpUWl" role="3cqZAp">
          <node concept="2OqwBi" id="2FjKBCRpVxo" role="3clFbG">
            <node concept="BsUDl" id="2FjKBCRpVqt" role="2Oq$k0">
              <ref role="37wK5l" node="1Hxyv4EVAH4" resolve="getDisplayTranslations" />
            </node>
            <node concept="liA8E" id="2FjKBCRpVB9" role="2OqNvi">
              <ref role="37wK5l" to="r4pb:2FjKBCRpANp" resolve="getTestResultVarianceAlias" />
            </node>
          </node>
        </node>
      </node>
      <node concept="17QB3L" id="2FjKBCRpUWh" role="3clF45" />
    </node>
    <node concept="13i0hz" id="2FjKBCRpUWm" role="13h7CS">
      <property role="13i0iv" value="false" />
      <property role="13i0it" value="false" />
      <property role="TrG5h" value="getDisplayDescription" />
      <property role="2Ki8OM" value="true" />
      <ref role="13i0hy" to="1yj:5Wfdz$0vc3v" resolve="getDisplayDescription" />
      <node concept="3Tm1VV" id="2FjKBCRpUWn" role="1B3o_S" />
      <node concept="3clFbS" id="2FjKBCRpUWs" role="3clF47">
        <node concept="3clFbF" id="2FjKBCRpVBN" role="3cqZAp">
          <node concept="2OqwBi" id="2FjKBCRpVBO" role="3clFbG">
            <node concept="BsUDl" id="2FjKBCRpVBP" role="2Oq$k0">
              <ref role="37wK5l" node="1Hxyv4EVAH4" resolve="getDisplayTranslations" />
            </node>
            <node concept="liA8E" id="2FjKBCRpVBQ" role="2OqNvi">
              <ref role="37wK5l" to="r4pb:2FjKBCRpAPZ" resolve="getTestResultVarianceDescription" />
            </node>
          </node>
        </node>
      </node>
      <node concept="17QB3L" id="2FjKBCRpUWt" role="3clF45" />
    </node>
    <node concept="13i0hz" id="2FjKBCRpUWy" role="13h7CS">
      <property role="13i0iv" value="false" />
      <property role="13i0it" value="false" />
      <property role="TrG5h" value="getGenerationAlias" />
      <property role="2Ki8OM" value="true" />
      <ref role="13i0hy" to="1yj:4QUW3efxqUv" resolve="getGenerationAlias" />
      <node concept="3Tm1VV" id="2FjKBCRpUWz" role="1B3o_S" />
      <node concept="3clFbS" id="2FjKBCRpUWC" role="3clF47">
        <node concept="3clFbF" id="2FjKBCRpVD_" role="3cqZAp">
          <node concept="2OqwBi" id="2FjKBCRpVDA" role="3clFbG">
            <node concept="BsUDl" id="2FjKBCRpVEB" role="2Oq$k0">
              <ref role="37wK5l" node="1Hxyv4EVAD8" resolve="getGenerationTranslations" />
            </node>
            <node concept="liA8E" id="2FjKBCRpVDC" role="2OqNvi">
              <ref role="37wK5l" to="r4pb:2FjKBCRpANp" resolve="getTestResultVarianceAlias" />
            </node>
          </node>
        </node>
      </node>
      <node concept="17QB3L" id="2FjKBCRpUWD" role="3clF45" />
    </node>
    <node concept="13i0hz" id="2FjKBCRpUWI" role="13h7CS">
      <property role="13i0iv" value="false" />
      <property role="13i0it" value="false" />
      <property role="TrG5h" value="toDisplayString" />
      <ref role="13i0hy" to="1yj:499Gn2DGTs1" resolve="toDisplayString" />
      <node concept="3Tm1VV" id="2FjKBCRpUWJ" role="1B3o_S" />
      <node concept="3clFbS" id="2FjKBCRpUWU" role="3clF47">
        <node concept="3clFbF" id="2FjKBCRpXca" role="3cqZAp">
          <node concept="2YIFZM" id="2FjKBCRpXcu" role="3clFbG">
            <ref role="37wK5l" to="wyt6:~String.format(java.lang.String,java.lang.Object...):java.lang.String" resolve="format" />
            <ref role="1Pybhc" to="wyt6:~String" resolve="String" />
            <node concept="Xl_RD" id="2FjKBCRpXdx" role="37wK5m">
              <property role="Xl_RC" value="%s %s" />
            </node>
            <node concept="BsUDl" id="2FjKBCRpXnU" role="37wK5m">
              <ref role="37wK5l" to="1yj:5Wfdz$0vc2$" resolve="getDisplayAlias" />
            </node>
            <node concept="2OqwBi" id="2FjKBCRpYEy" role="37wK5m">
              <node concept="2OqwBi" id="2FjKBCRpXOq" role="2Oq$k0">
                <node concept="13iPFW" id="2FjKBCRpX_8" role="2Oq$k0" />
                <node concept="3TrEf2" id="2FjKBCRpY8S" role="2OqNvi">
                  <ref role="3Tt5mk" to="iyzu:2FjKBCRpX2Y" resolve="testReference" />
                </node>
              </node>
              <node concept="2qgKlT" id="2FjKBCRpZ5q" role="2OqNvi">
                <ref role="37wK5l" to="1yj:499Gn2DGTs1" resolve="toDisplayString" />
              </node>
            </node>
          </node>
        </node>
      </node>
      <node concept="17QB3L" id="2FjKBCRpUWV" role="3clF45" />
    </node>
    <node concept="13i0hz" id="2FjKBCRpUX0" role="13h7CS">
      <property role="13i0iv" value="false" />
      <property role="13i0it" value="false" />
      <property role="TrG5h" value="toGenerationString" />
      <ref role="13i0hy" to="1yj:499Gn2DGU_t" resolve="toGenerationString" />
      <node concept="3Tm1VV" id="2FjKBCRpUX1" role="1B3o_S" />
      <node concept="3clFbS" id="2FjKBCRpUXc" role="3clF47">
        <node concept="3clFbF" id="2FjKBCRpZlm" role="3cqZAp">
          <node concept="2YIFZM" id="2FjKBCRpZlo" role="3clFbG">
            <ref role="1Pybhc" to="wyt6:~String" resolve="String" />
            <ref role="37wK5l" to="wyt6:~String.format(java.lang.String,java.lang.Object...):java.lang.String" resolve="format" />
            <node concept="Xl_RD" id="2FjKBCRpZlp" role="37wK5m">
              <property role="Xl_RC" value="%s %s" />
            </node>
            <node concept="BsUDl" id="2FjKBCRpZx8" role="37wK5m">
              <ref role="37wK5l" to="1yj:4QUW3efxqUv" resolve="getGenerationAlias" />
            </node>
            <node concept="2OqwBi" id="2FjKBCRpZlr" role="37wK5m">
              <node concept="2OqwBi" id="2FjKBCRpZls" role="2Oq$k0">
                <node concept="13iPFW" id="2FjKBCRpZlt" role="2Oq$k0" />
                <node concept="3TrEf2" id="2FjKBCRpZlu" role="2OqNvi">
                  <ref role="3Tt5mk" to="iyzu:2FjKBCRpX2Y" resolve="testReference" />
                </node>
              </node>
              <node concept="2qgKlT" id="2FjKBCRq04$" role="2OqNvi">
                <ref role="37wK5l" to="1yj:499Gn2DGU_t" resolve="toGenerationString" />
              </node>
            </node>
          </node>
        </node>
      </node>
      <node concept="17QB3L" id="2FjKBCRpUXd" role="3clF45" />
    </node>
    <node concept="13i0hz" id="2FjKBCRpUXi" role="13h7CS">
      <property role="TrG5h" value="matches" />
      <property role="13i0it" value="false" />
      <property role="13i0iv" value="false" />
      <ref role="13i0hy" to="wb6c:6LTgXmMs$_D" resolve="matches" />
      <node concept="3Tm1VV" id="2FjKBCRpUXj" role="1B3o_S" />
      <node concept="3clFbS" id="2FjKBCRpUXw" role="3clF47">
        <node concept="Jncv_" id="2FjKBCRq0gT" role="3cqZAp">
          <ref role="JncvD" to="iyzu:2FjKBCRoN3t" resolve="LaboratoryTestResultVariance" />
          <node concept="37vLTw" id="2FjKBCRq0hm" role="JncvB">
            <ref role="3cqZAo" node="2FjKBCRpUXx" resolve="node" />
          </node>
          <node concept="3clFbS" id="2FjKBCRq0gV" role="Jncv$">
            <node concept="3cpWs6" id="2FjKBCRq0ix" role="3cqZAp">
              <node concept="2OqwBi" id="2FjKBCRq1jZ" role="3cqZAk">
                <node concept="2OqwBi" id="2FjKBCRq0xp" role="2Oq$k0">
                  <node concept="13iPFW" id="2FjKBCRq0iZ" role="2Oq$k0" />
                  <node concept="3TrEf2" id="2FjKBCRq0Nd" role="2OqNvi">
                    <ref role="3Tt5mk" to="iyzu:2FjKBCRpX2Y" resolve="testReference" />
                  </node>
                </node>
                <node concept="2qgKlT" id="2FjKBCRq1GH" role="2OqNvi">
                  <ref role="37wK5l" to="wb6c:6LTgXmMs$_D" resolve="matches" />
                  <node concept="2OqwBi" id="2FjKBCRq24F" role="37wK5m">
                    <node concept="Jnkvi" id="2FjKBCRq1Sc" role="2Oq$k0">
                      <ref role="1M0zk5" node="2FjKBCRq0gW" resolve="dataValue" />
                    </node>
                    <node concept="3TrEf2" id="2FjKBCRq2vr" role="2OqNvi">
                      <ref role="3Tt5mk" to="iyzu:2FjKBCRpX2Y" resolve="testReference" />
                    </node>
                  </node>
                </node>
              </node>
            </node>
          </node>
          <node concept="JncvC" id="2FjKBCRq0gW" role="JncvA">
            <property role="TrG5h" value="dataValue" />
            <node concept="2jxLKc" id="2FjKBCRq0gX" role="1tU5fm" />
          </node>
        </node>
        <node concept="3clFbF" id="2FjKBCRq2MT" role="3cqZAp">
          <node concept="2YIFZM" id="2FjKBCRq2Yg" role="3clFbG">
            <ref role="37wK5l" to="hyw5:1I84Bf7XEgz" resolve="createMismatch" />
            <ref role="1Pybhc" to="hyw5:6LTgXmO6cZw" resolve="JoinPointMatch" />
          </node>
        </node>
      </node>
      <node concept="37vLTG" id="2FjKBCRpUXx" role="3clF46">
        <property role="TrG5h" value="node" />
        <node concept="3Tqbb2" id="2FjKBCRpUXy" role="1tU5fm" />
      </node>
      <node concept="3uibUv" id="2FjKBCRpUXz" role="3clF45">
        <ref role="3uigEE" to="hyw5:6LTgXmO6cZw" resolve="JoinPointMatch" />
      </node>
    </node>
  </node>
  <node concept="13h7C7" id="2FjKBCRqfB_">
    <property role="3GE5qa" value="base.literals.variance" />
    <ref role="13h7C2" to="iyzu:2FjKBCRoN3v" resolve="SignificantTestResultVariance" />
    <node concept="13hLZK" id="2FjKBCRqfBA" role="13h7CW">
      <node concept="3clFbS" id="2FjKBCRqfBB" role="2VODD2" />
    </node>
    <node concept="13i0hz" id="2FjKBCRqfBK" role="13h7CS">
      <property role="13i0iv" value="false" />
      <property role="13i0it" value="false" />
      <property role="TrG5h" value="getDisplayAlias" />
      <property role="2Ki8OM" value="true" />
      <ref role="13i0hy" to="1yj:5Wfdz$0vc2$" resolve="getDisplayAlias" />
      <node concept="3Tm1VV" id="2FjKBCRqfBL" role="1B3o_S" />
      <node concept="3clFbS" id="2FjKBCRqfBQ" role="3clF47">
        <node concept="3clFbF" id="2FjKBCRqfXT" role="3cqZAp">
          <node concept="2OqwBi" id="2FjKBCRqg4P" role="3clFbG">
            <node concept="BsUDl" id="2FjKBCRqfXS" role="2Oq$k0">
              <ref role="37wK5l" node="1Hxyv4EVAH4" resolve="getDisplayTranslations" />
            </node>
            <node concept="liA8E" id="2FjKBCRqgaA" role="2OqNvi">
              <ref role="37wK5l" to="r4pb:2FjKBCRpAW_" resolve="getSignificantTestResultVarianceAlias" />
            </node>
          </node>
        </node>
      </node>
      <node concept="17QB3L" id="2FjKBCRqfBR" role="3clF45" />
    </node>
    <node concept="13i0hz" id="2FjKBCRqfBW" role="13h7CS">
      <property role="13i0iv" value="false" />
      <property role="13i0it" value="false" />
      <property role="TrG5h" value="getDisplayDescription" />
      <property role="2Ki8OM" value="true" />
      <ref role="13i0hy" to="1yj:5Wfdz$0vc3v" resolve="getDisplayDescription" />
      <node concept="3Tm1VV" id="2FjKBCRqfBX" role="1B3o_S" />
      <node concept="3clFbS" id="2FjKBCRqfC2" role="3clF47">
        <node concept="3clFbF" id="2FjKBCRqgbg" role="3cqZAp">
          <node concept="2OqwBi" id="2FjKBCRqgbi" role="3clFbG">
            <node concept="BsUDl" id="2FjKBCRqgbj" role="2Oq$k0">
              <ref role="37wK5l" node="1Hxyv4EVAH4" resolve="getDisplayTranslations" />
            </node>
            <node concept="liA8E" id="2FjKBCRqgbk" role="2OqNvi">
              <ref role="37wK5l" to="r4pb:2FjKBCRpB24" resolve="getSignificantTestResultVarianceDescription" />
            </node>
          </node>
        </node>
      </node>
      <node concept="17QB3L" id="2FjKBCRqfC3" role="3clF45" />
    </node>
    <node concept="13i0hz" id="2FjKBCRqfCG" role="13h7CS">
      <property role="13i0iv" value="false" />
      <property role="13i0it" value="false" />
      <property role="TrG5h" value="getGenerationAlias" />
      <property role="2Ki8OM" value="true" />
      <ref role="13i0hy" to="1yj:4QUW3efxqUv" resolve="getGenerationAlias" />
      <node concept="3Tm1VV" id="2FjKBCRqfCH" role="1B3o_S" />
      <node concept="3clFbS" id="2FjKBCRqfCM" role="3clF47">
        <node concept="3clFbF" id="2FjKBCRqgd3" role="3cqZAp">
          <node concept="2OqwBi" id="2FjKBCRqgd5" role="3clFbG">
            <node concept="BsUDl" id="2FjKBCRqge6" role="2Oq$k0">
              <ref role="37wK5l" node="1Hxyv4EVAD8" resolve="getGenerationTranslations" />
            </node>
            <node concept="liA8E" id="2FjKBCRqgd7" role="2OqNvi">
              <ref role="37wK5l" to="r4pb:2FjKBCRpAW_" resolve="getSignificantTestResultVarianceAlias" />
            </node>
          </node>
        </node>
      </node>
      <node concept="17QB3L" id="2FjKBCRqfCN" role="3clF45" />
    </node>
  </node>
  <node concept="13h7C7" id="2FjKBCRqman">
    <property role="3GE5qa" value="base.literals.variance" />
    <ref role="13h7C2" to="iyzu:2FjKBCRoN3u" resolve="TestResultVarianceLiteral" />
    <node concept="13i0hz" id="2FjKBCRqfC8" role="13h7CS">
      <property role="13i0iv" value="false" />
      <property role="13i0it" value="false" />
      <property role="TrG5h" value="toDisplayString" />
      <ref role="13i0hy" to="1yj:499Gn2DGTs1" resolve="toDisplayString" />
      <node concept="3Tm1VV" id="2FjKBCRqfC9" role="1B3o_S" />
      <node concept="3clFbS" id="2FjKBCRqfCk" role="3clF47">
        <node concept="3clFbF" id="2FjKBCRqgk5" role="3cqZAp">
          <node concept="BsUDl" id="2FjKBCRqgk4" role="3clFbG">
            <ref role="37wK5l" to="1yj:5Wfdz$0vc2$" resolve="getDisplayAlias" />
          </node>
        </node>
      </node>
      <node concept="17QB3L" id="2FjKBCRqfCl" role="3clF45" />
    </node>
    <node concept="13i0hz" id="2FjKBCRqfCq" role="13h7CS">
      <property role="13i0iv" value="false" />
      <property role="13i0it" value="false" />
      <property role="TrG5h" value="toGenerationString" />
      <ref role="13i0hy" to="1yj:499Gn2DGU_t" resolve="toGenerationString" />
      <node concept="3Tm1VV" id="2FjKBCRqfCr" role="1B3o_S" />
      <node concept="3clFbS" id="2FjKBCRqfCA" role="3clF47">
        <node concept="3clFbF" id="2FjKBCRqgoD" role="3cqZAp">
          <node concept="BsUDl" id="2FjKBCRqgp4" role="3clFbG">
            <ref role="37wK5l" to="1yj:4QUW3efxqUv" resolve="getGenerationAlias" />
          </node>
        </node>
      </node>
      <node concept="17QB3L" id="2FjKBCRqfCB" role="3clF45" />
    </node>
    <node concept="13hLZK" id="2FjKBCRqmao" role="13h7CW">
      <node concept="3clFbS" id="2FjKBCRqmap" role="2VODD2" />
    </node>
  </node>
  <node concept="13h7C7" id="2FjKBCRqmaV">
    <property role="3GE5qa" value="base.literals.variance" />
    <ref role="13h7C2" to="iyzu:2FjKBCRoN3w" resolve="InsignificantTestResultVariance" />
    <node concept="13hLZK" id="2FjKBCRqmaW" role="13h7CW">
      <node concept="3clFbS" id="2FjKBCRqmaX" role="2VODD2" />
    </node>
    <node concept="13i0hz" id="2FjKBCRqmbS" role="13h7CS">
      <property role="13i0iv" value="false" />
      <property role="13i0it" value="false" />
      <property role="TrG5h" value="getDisplayAlias" />
      <property role="2Ki8OM" value="true" />
      <ref role="13i0hy" to="1yj:5Wfdz$0vc2$" resolve="getDisplayAlias" />
      <node concept="3Tm1VV" id="2FjKBCRqmbT" role="1B3o_S" />
      <node concept="3clFbS" id="2FjKBCRqmbY" role="3clF47">
        <node concept="3clFbF" id="2FjKBCRqmkL" role="3cqZAp">
          <node concept="2OqwBi" id="2FjKBCRqmr_" role="3clFbG">
            <node concept="BsUDl" id="2FjKBCRqmkK" role="2Oq$k0">
              <ref role="37wK5l" node="1Hxyv4EVAH4" resolve="getDisplayTranslations" />
            </node>
            <node concept="liA8E" id="2FjKBCRqmxm" role="2OqNvi">
              <ref role="37wK5l" to="r4pb:2FjKBCRpB7D" resolve="getInsignificantTestResultVarianceAlias" />
            </node>
          </node>
        </node>
      </node>
      <node concept="17QB3L" id="2FjKBCRqmbZ" role="3clF45" />
    </node>
    <node concept="13i0hz" id="2FjKBCRqmc4" role="13h7CS">
      <property role="13i0iv" value="false" />
      <property role="13i0it" value="false" />
      <property role="TrG5h" value="getDisplayDescription" />
      <property role="2Ki8OM" value="true" />
      <ref role="13i0hy" to="1yj:5Wfdz$0vc3v" resolve="getDisplayDescription" />
      <node concept="3Tm1VV" id="2FjKBCRqmc5" role="1B3o_S" />
      <node concept="3clFbS" id="2FjKBCRqmca" role="3clF47">
        <node concept="3clFbF" id="2FjKBCRqmyh" role="3cqZAp">
          <node concept="2OqwBi" id="2FjKBCRqmD5" role="3clFbG">
            <node concept="BsUDl" id="2FjKBCRqmyg" role="2Oq$k0">
              <ref role="37wK5l" node="1Hxyv4EVAH4" resolve="getDisplayTranslations" />
            </node>
            <node concept="liA8E" id="2FjKBCRqmIY" role="2OqNvi">
              <ref role="37wK5l" to="r4pb:2FjKBCRpB5H" resolve="getInsignificantTestResultVarianceDescription" />
            </node>
          </node>
        </node>
      </node>
      <node concept="17QB3L" id="2FjKBCRqmcb" role="3clF45" />
    </node>
    <node concept="13i0hz" id="2FjKBCRqmcg" role="13h7CS">
      <property role="13i0iv" value="false" />
      <property role="13i0it" value="false" />
      <property role="TrG5h" value="getGenerationAlias" />
      <property role="2Ki8OM" value="true" />
      <ref role="13i0hy" to="1yj:4QUW3efxqUv" resolve="getGenerationAlias" />
      <node concept="3Tm1VV" id="2FjKBCRqmch" role="1B3o_S" />
      <node concept="3clFbS" id="2FjKBCRqmcm" role="3clF47">
        <node concept="3clFbF" id="2FjKBCRqmJT" role="3cqZAp">
          <node concept="2OqwBi" id="2FjKBCRqmQH" role="3clFbG">
            <node concept="BsUDl" id="2FjKBCRqmJS" role="2Oq$k0">
              <ref role="37wK5l" node="1Hxyv4EVAD8" resolve="getGenerationTranslations" />
            </node>
            <node concept="liA8E" id="2FjKBCRqmWu" role="2OqNvi">
              <ref role="37wK5l" to="r4pb:2FjKBCRpB7D" resolve="getInsignificantTestResultVarianceAlias" />
            </node>
          </node>
        </node>
      </node>
      <node concept="17QB3L" id="2FjKBCRqmcn" role="3clF45" />
    </node>
  </node>
</model>

