<?xml version="1.0" encoding="UTF-8"?>
<model ref="r:00b3882a-0686-44c4-8326-072ec3e39309(no.uio.mLab.entities.biochemistry.actions)">
  <persistence version="9" />
  <languages>
    <use id="aee9cad2-acd4-4608-aef2-0004f6a1cdbd" name="jetbrains.mps.lang.actions" version="4" />
    <devkit ref="fbc25dd2-5da4-483a-8b19-70928e1b62d7(jetbrains.mps.devkit.general-purpose)" />
  </languages>
  <imports />
  <registry />
</model>

