<?xml version="1.0" encoding="UTF-8"?>
<model ref="r:536d3a75-7205-4a72-b50c-ae629672a21a(no.furst.mLab.decisions.references.translations)">
  <persistence version="9" />
  <languages />
  <imports />
  <registry />
</model>

