<?xml version="1.0" encoding="UTF-8"?>
<model ref="r:27dd824f-5e8d-4449-aea8-31fd70f25694(no.uio.mLab.decisions.references.microbiology.translations)">
  <persistence version="9" />
  <languages />
  <imports />
  <registry />
</model>

