<?xml version="1.0" encoding="UTF-8"?>
<model ref="r:7ab499cf-c53a-4c60-962c-78a6bfba3771(no.uio.mLab.decisions.references.biochemistry.typesystem)">
  <persistence version="9" />
  <languages>
    <use id="7a5dda62-9140-4668-ab76-d5ed1746f2b2" name="jetbrains.mps.lang.typesystem" version="1" />
    <devkit ref="00000000-0000-4000-0000-1de82b3a4936(jetbrains.mps.devkit.aspect.typesystem)" />
  </languages>
  <imports />
  <registry />
</model>

