<?xml version="1.0" encoding="UTF-8"?>
<model ref="r:fd025136-d566-464a-a848-df766902a253(main@generator)">
  <persistence version="9" />
  <languages>
    <devkit ref="a2eb3a43-fcc2-4200-80dc-c60110c4862d(jetbrains.mps.devkit.templates)" />
  </languages>
  <imports>
    <import index="ok0m" ref="r:4db7f216-3df2-435e-8be1-a0ab7e4a26b5(no.uio.mLab.decisions.references.microbiology.structure)" />
  </imports>
  <registry>
    <language id="b401a680-8325-4110-8fd3-84331ff25bef" name="jetbrains.mps.lang.generator">
      <concept id="1095416546421" name="jetbrains.mps.lang.generator.structure.MappingConfiguration" flags="ig" index="bUwia" />
    </language>
    <language id="ceab5195-25ea-4f22-9b92-103b95ca8c0c" name="jetbrains.mps.lang.core">
      <concept id="1169194658468" name="jetbrains.mps.lang.core.structure.INamedConcept" flags="ng" index="TrEIO">
        <property id="1169194664001" name="name" index="TrG5h" />
      </concept>
    </language>
  </registry>
  <node concept="bUwia" id="5_LESNW0KZ3">
    <property role="TrG5h" value="main" />
  </node>
</model>

