<?xml version="1.0" encoding="UTF-8"?>
<model ref="r:67f1488c-5eeb-48fa-9a59-cf36059848a5(no.uio.mLab.decisions.tasks.susceptibilityDetermination.translations)">
  <persistence version="9" />
  <languages />
  <imports />
  <registry />
</model>

