<?xml version="1.0" encoding="UTF-8"?>
<model ref="r:1116e7cd-9db1-4239-a00d-799be09b88d3(no.furst.mLab.decisions.references.runtime)">
  <persistence version="9" />
  <languages />
  <imports />
  <registry />
</model>

