<?xml version="1.0" encoding="UTF-8"?>
<model ref="r:b2f0faea-0c63-4be9-9ff3-96af4440a64e(no.uio.mLab.decisions.references.specialistType.runtime)">
  <persistence version="9" />
  <languages />
  <imports />
  <registry />
</model>

