<?xml version="1.0" encoding="UTF-8"?>
<model ref="r:1968e592-2405-44a7-a576-adc7c652a05a(no.uio.mLab.decisions.tasks.susceptibilityDetermination.runtime)">
  <persistence version="9" />
  <languages />
  <imports />
  <registry />
</model>

