<?xml version="1.0" encoding="UTF-8"?>
<model ref="r:a2ba2339-df77-47a9-8f3f-595ca99e7341(no.uio.mLab.decisions.references.microbiology.runtime)">
  <persistence version="9" />
  <languages />
  <imports />
  <registry />
</model>

