<?xml version="1.0" encoding="UTF-8"?>
<model ref="r:37db26fe-ecdb-4b6a-803f-aa5e4d7249ed(no.furst.mLab.entities.runtime)">
  <persistence version="9" />
  <languages>
    <use id="f3061a53-9226-4cc5-a443-f952ceaf5816" name="jetbrains.mps.baseLanguage" version="6" />
  </languages>
  <imports />
  <registry />
</model>

