<?xml version="1.0" encoding="UTF-8"?>
<model ref="r:eca370d3-5972-4117-91cc-2003e00ec812(main@generator)">
  <persistence version="9" />
  <languages>
    <devkit ref="a2eb3a43-fcc2-4200-80dc-c60110c4862d(jetbrains.mps.devkit.templates)" />
  </languages>
  <imports>
    <import index="j0tk" ref="r:2895f9f0-ca08-4015-b25a-0b35f51e5738(no.uio.mLab.decisions.data.microbiology.structure)" />
    <import index="hfwg" ref="r:a4b5c53b-dd12-412b-9fcf-e367afbc8cb7(no.uio.mLab.decisions.data.microbiology.runtime)" />
    <import index="33ny" ref="6354ebe7-c22a-4a0f-ac54-50b52ab9b065/java:java.util(JDK/)" />
  </imports>
  <registry>
    <language id="f3061a53-9226-4cc5-a443-f952ceaf5816" name="jetbrains.mps.baseLanguage">
      <concept id="2820489544401957797" name="jetbrains.mps.baseLanguage.structure.DefaultClassCreator" flags="nn" index="HV5vD">
        <reference id="2820489544401957798" name="classifier" index="HV5vE" />
      </concept>
      <concept id="1197027756228" name="jetbrains.mps.baseLanguage.structure.DotExpression" flags="nn" index="2OqwBi">
        <child id="1197027771414" name="operand" index="2Oq$k0" />
        <child id="1197027833540" name="operation" index="2OqNvi" />
      </concept>
      <concept id="1145552977093" name="jetbrains.mps.baseLanguage.structure.GenericNewExpression" flags="nn" index="2ShNRf">
        <child id="1145553007750" name="creator" index="2ShVmc" />
      </concept>
      <concept id="1137021947720" name="jetbrains.mps.baseLanguage.structure.ConceptFunction" flags="in" index="2VMwT0">
        <child id="1137022507850" name="body" index="2VODD2" />
      </concept>
      <concept id="1070475926800" name="jetbrains.mps.baseLanguage.structure.StringLiteral" flags="nn" index="Xl_RD">
        <property id="1070475926801" name="value" index="Xl_RC" />
      </concept>
      <concept id="1081236700937" name="jetbrains.mps.baseLanguage.structure.StaticMethodCall" flags="nn" index="2YIFZM">
        <reference id="1144433194310" name="classConcept" index="1Pybhc" />
      </concept>
      <concept id="1070533707846" name="jetbrains.mps.baseLanguage.structure.StaticFieldReference" flags="nn" index="10M0yZ">
        <reference id="1144433057691" name="classifier" index="1PxDUh" />
      </concept>
      <concept id="1068498886296" name="jetbrains.mps.baseLanguage.structure.VariableReference" flags="nn" index="37vLTw">
        <reference id="1068581517664" name="variableDeclaration" index="3cqZAo" />
      </concept>
      <concept id="1068580123155" name="jetbrains.mps.baseLanguage.structure.ExpressionStatement" flags="nn" index="3clFbF">
        <child id="1068580123156" name="expression" index="3clFbG" />
      </concept>
      <concept id="1068580123136" name="jetbrains.mps.baseLanguage.structure.StatementList" flags="sn" stub="5293379017992965193" index="3clFbS">
        <child id="1068581517665" name="statement" index="3cqZAp" />
      </concept>
      <concept id="1204053956946" name="jetbrains.mps.baseLanguage.structure.IMethodCall" flags="ng" index="1ndlxa">
        <reference id="1068499141037" name="baseMethodDeclaration" index="37wK5l" />
        <child id="1068499141038" name="actualArgument" index="37wK5m" />
      </concept>
      <concept id="1212685548494" name="jetbrains.mps.baseLanguage.structure.ClassCreator" flags="nn" index="1pGfFk" />
    </language>
    <language id="b401a680-8325-4110-8fd3-84331ff25bef" name="jetbrains.mps.lang.generator">
      <concept id="1114706874351" name="jetbrains.mps.lang.generator.structure.CopySrcNodeMacro" flags="ln" index="29HgVG">
        <child id="1168024447342" name="sourceNodeQuery" index="3NFExx" />
      </concept>
      <concept id="1114729360583" name="jetbrains.mps.lang.generator.structure.CopySrcListMacro" flags="ln" index="2b32R4">
        <child id="1168278589236" name="sourceNodesQuery" index="2P8S$" />
      </concept>
      <concept id="1095416546421" name="jetbrains.mps.lang.generator.structure.MappingConfiguration" flags="ig" index="bUwia">
        <child id="1167328349397" name="reductionMappingRule" index="3acgRq" />
        <child id="1195502100749" name="preMappingScript" index="1puA0r" />
      </concept>
      <concept id="1177093525992" name="jetbrains.mps.lang.generator.structure.InlineTemplate_RuleConsequence" flags="lg" index="gft3U">
        <child id="1177093586806" name="templateNode" index="gfFT$" />
      </concept>
      <concept id="1167169188348" name="jetbrains.mps.lang.generator.structure.TemplateFunctionParameter_sourceNode" flags="nn" index="30H73N" />
      <concept id="1167169308231" name="jetbrains.mps.lang.generator.structure.BaseMappingRule" flags="ng" index="30H$t8">
        <reference id="1167169349424" name="applicableConcept" index="30HIoZ" />
      </concept>
      <concept id="1167327847730" name="jetbrains.mps.lang.generator.structure.Reduction_MappingRule" flags="lg" index="3aamgX">
        <child id="1169672767469" name="ruleConsequence" index="1lVwrX" />
      </concept>
      <concept id="1195499912406" name="jetbrains.mps.lang.generator.structure.MappingScript" flags="lg" index="1pmfR0">
        <property id="1195595592106" name="scriptKind" index="1v3f2W" />
        <child id="1195501105008" name="codeBlock" index="1pqMTA" />
      </concept>
      <concept id="1195500722856" name="jetbrains.mps.lang.generator.structure.MappingScript_CodeBlock" flags="in" index="1pplIY" />
      <concept id="1195502151594" name="jetbrains.mps.lang.generator.structure.MappingScriptReference" flags="lg" index="1puMqW">
        <reference id="1195502167610" name="mappingScript" index="1puQsG" />
      </concept>
      <concept id="1167951910403" name="jetbrains.mps.lang.generator.structure.SourceSubstituteMacro_SourceNodesQuery" flags="in" index="3JmXsc" />
      <concept id="1168024337012" name="jetbrains.mps.lang.generator.structure.SourceSubstituteMacro_SourceNodeQuery" flags="in" index="3NFfHV" />
    </language>
    <language id="760a0a8c-eabb-4521-8bfd-65db761a9ba3" name="jetbrains.mps.baseLanguage.logging">
      <concept id="6332851714983831325" name="jetbrains.mps.baseLanguage.logging.structure.MsgStatement" flags="ng" index="2xdQw9">
        <property id="6332851714983843871" name="severity" index="2xdLsb" />
        <child id="5721587534047265374" name="message" index="9lYJi" />
      </concept>
    </language>
    <language id="7866978e-a0f0-4cc7-81bc-4d213d9375e1" name="jetbrains.mps.lang.smodel">
      <concept id="1138056143562" name="jetbrains.mps.lang.smodel.structure.SLinkAccess" flags="nn" index="3TrEf2">
        <reference id="1138056516764" name="link" index="3Tt5mk" />
      </concept>
      <concept id="1138056282393" name="jetbrains.mps.lang.smodel.structure.SLinkListAccess" flags="nn" index="3Tsc0h">
        <reference id="1138056546658" name="link" index="3TtcxE" />
      </concept>
    </language>
    <language id="ceab5195-25ea-4f22-9b92-103b95ca8c0c" name="jetbrains.mps.lang.core">
      <concept id="1133920641626" name="jetbrains.mps.lang.core.structure.BaseConcept" flags="ng" index="2VYdi">
        <child id="5169995583184591170" name="smodelAttribute" index="lGtFl" />
      </concept>
      <concept id="1169194658468" name="jetbrains.mps.lang.core.structure.INamedConcept" flags="ng" index="TrEIO">
        <property id="1169194664001" name="name" index="TrG5h" />
      </concept>
    </language>
  </registry>
  <node concept="bUwia" id="5Wfdz$0q4fu">
    <property role="TrG5h" value="dataMicrobiologyMain" />
    <node concept="1puMqW" id="1mAGFBLxaGI" role="1puA0r">
      <ref role="1puQsG" node="1mAGFBLxaGR" resolve="dataMicrobiologyScript" />
    </node>
    <node concept="3aamgX" id="6khVixydqTe" role="3acgRq">
      <ref role="30HIoZ" to="j0tk:6khVixyaF5m" resolve="FindingsFromAnyCultureTest" />
      <node concept="gft3U" id="6khVixydqTi" role="1lVwrX">
        <node concept="2ShNRf" id="6khVixydqTo" role="gfFT$">
          <node concept="1pGfFk" id="6khVixydqWr" role="2ShVmc">
            <ref role="37wK5l" to="hfwg:6khVixydiC4" resolve="FindingsFromAnyCultureTest" />
            <node concept="Xl_RD" id="6khVixydqXG" role="37wK5m">
              <property role="Xl_RC" value="specimenType" />
              <node concept="29HgVG" id="6khVixydr89" role="lGtFl">
                <node concept="3NFfHV" id="6khVixydr8a" role="3NFExx">
                  <node concept="3clFbS" id="6khVixydr8b" role="2VODD2">
                    <node concept="3clFbF" id="6khVixydr8h" role="3cqZAp">
                      <node concept="2OqwBi" id="6khVixydr8c" role="3clFbG">
                        <node concept="3TrEf2" id="6khVixydr8f" role="2OqNvi">
                          <ref role="3Tt5mk" to="j0tk:6khVixybjNf" resolve="specimenTypeReference" />
                        </node>
                        <node concept="30H73N" id="6khVixydr8g" role="2Oq$k0" />
                      </node>
                    </node>
                  </node>
                </node>
              </node>
            </node>
          </node>
        </node>
      </node>
    </node>
    <node concept="3aamgX" id="6khVixyeLY9" role="3acgRq">
      <ref role="30HIoZ" to="j0tk:6khVixycq0_" resolve="CultureFindingsIncludeAllOf" />
      <node concept="gft3U" id="6khVixyeLYz" role="1lVwrX">
        <node concept="2ShNRf" id="6khVixyeLYD" role="gfFT$">
          <node concept="1pGfFk" id="6khVixyeM1J" role="2ShVmc">
            <ref role="37wK5l" to="hfwg:6khVixydsmo" resolve="CultureFindingsIncludeAllOf" />
            <node concept="2YIFZM" id="6khVixyeM9a" role="37wK5m">
              <ref role="37wK5l" to="33ny:~Arrays.asList(java.lang.Object...):java.util.List" resolve="asList" />
              <ref role="1Pybhc" to="33ny:~Arrays" resolve="Arrays" />
              <node concept="Xl_RD" id="6khVixyeMiM" role="37wK5m">
                <property role="Xl_RC" value="pathogens" />
                <node concept="2b32R4" id="6khVixyeMkK" role="lGtFl">
                  <node concept="3JmXsc" id="6khVixyeMkN" role="2P8S$">
                    <node concept="3clFbS" id="6khVixyeMkO" role="2VODD2">
                      <node concept="3clFbF" id="6khVixyeMkU" role="3cqZAp">
                        <node concept="2OqwBi" id="6khVixyeMkP" role="3clFbG">
                          <node concept="3Tsc0h" id="6khVixyeMkS" role="2OqNvi">
                            <ref role="3TtcxE" to="j0tk:6khVixycqjF" resolve="pathogensReferences" />
                          </node>
                          <node concept="30H73N" id="6khVixyeMkT" role="2Oq$k0" />
                        </node>
                      </node>
                    </node>
                  </node>
                </node>
              </node>
            </node>
          </node>
        </node>
      </node>
    </node>
    <node concept="3aamgX" id="6khVixyeMvd" role="3acgRq">
      <ref role="30HIoZ" to="j0tk:6khVixyb4G4" resolve="CultureFindingsIncludeAnyOf" />
      <node concept="gft3U" id="6khVixyeMMU" role="1lVwrX">
        <node concept="2ShNRf" id="6khVixyeMN0" role="gfFT$">
          <node concept="1pGfFk" id="6khVixyeMSc" role="2ShVmc">
            <ref role="37wK5l" to="hfwg:6khVixye1l9" resolve="CultureFindingsIncludeAnyOf" />
            <node concept="2YIFZM" id="6khVixyeMVD" role="37wK5m">
              <ref role="37wK5l" to="33ny:~Arrays.asList(java.lang.Object...):java.util.List" resolve="asList" />
              <ref role="1Pybhc" to="33ny:~Arrays" resolve="Arrays" />
              <node concept="Xl_RD" id="6khVixyeMX6" role="37wK5m">
                <property role="Xl_RC" value="pathogens" />
                <node concept="2b32R4" id="6khVixyeMZ4" role="lGtFl">
                  <node concept="3JmXsc" id="6khVixyeMZ7" role="2P8S$">
                    <node concept="3clFbS" id="6khVixyeMZ8" role="2VODD2">
                      <node concept="3clFbF" id="6khVixyeMZe" role="3cqZAp">
                        <node concept="2OqwBi" id="6khVixyeMZ9" role="3clFbG">
                          <node concept="3Tsc0h" id="6khVixyeMZc" role="2OqNvi">
                            <ref role="3TtcxE" to="j0tk:6khVixycqjF" resolve="pathogensReferences" />
                          </node>
                          <node concept="30H73N" id="6khVixyeMZd" role="2Oq$k0" />
                        </node>
                      </node>
                    </node>
                  </node>
                </node>
              </node>
            </node>
          </node>
        </node>
      </node>
    </node>
    <node concept="3aamgX" id="6khVixyeN9x" role="3acgRq">
      <ref role="30HIoZ" to="j0tk:6khVixycP8V" resolve="CultureFindingsIncludePathogen" />
      <node concept="gft3U" id="6khVixyeNB_" role="1lVwrX">
        <node concept="2ShNRf" id="6khVixyeNBF" role="gfFT$">
          <node concept="1pGfFk" id="6khVixyeNGR" role="2ShVmc">
            <ref role="37wK5l" to="hfwg:6khVixye$El" resolve="CultureFindingsIncludePathogen" />
            <node concept="Xl_RD" id="6khVixyeNH0" role="37wK5m">
              <property role="Xl_RC" value="pathogen" />
              <node concept="29HgVG" id="6khVixyeNHf" role="lGtFl">
                <node concept="3NFfHV" id="6khVixyeNHg" role="3NFExx">
                  <node concept="3clFbS" id="6khVixyeNHh" role="2VODD2">
                    <node concept="3clFbF" id="6khVixyeNHn" role="3cqZAp">
                      <node concept="2OqwBi" id="6khVixyeNHi" role="3clFbG">
                        <node concept="3TrEf2" id="6khVixyeNHl" role="2OqNvi">
                          <ref role="3Tt5mk" to="j0tk:6khVixycReJ" resolve="pathogenReference" />
                        </node>
                        <node concept="30H73N" id="6khVixyeNHm" role="2Oq$k0" />
                      </node>
                    </node>
                  </node>
                </node>
              </node>
            </node>
          </node>
        </node>
      </node>
    </node>
    <node concept="3aamgX" id="6khVixyl9sQ" role="3acgRq">
      <ref role="30HIoZ" to="j0tk:6khVixyiJy9" resolve="AntimicrobialSusceptibilityOfPathogenFromAnyCultureTestAndSpecimenType" />
      <node concept="gft3U" id="6khVixyl9V8" role="1lVwrX">
        <node concept="2ShNRf" id="6khVixyl9Ve" role="gfFT$">
          <node concept="1pGfFk" id="6khVixyla0v" role="2ShVmc">
            <ref role="37wK5l" to="hfwg:6khVixykTtx" resolve="AntimicrobialSusceptibilityOfPathogenFromAnyCultureTestAndSpecimenType" />
            <node concept="Xl_RD" id="6khVixyHJVy" role="37wK5m">
              <property role="Xl_RC" value="antimicrobial" />
              <node concept="29HgVG" id="6khVixyHKjW" role="lGtFl">
                <node concept="3NFfHV" id="6khVixyHKjX" role="3NFExx">
                  <node concept="3clFbS" id="6khVixyHKjY" role="2VODD2">
                    <node concept="3clFbF" id="6khVixyHKk4" role="3cqZAp">
                      <node concept="2OqwBi" id="6khVixyHKjZ" role="3clFbG">
                        <node concept="3TrEf2" id="6khVixyHKk2" role="2OqNvi">
                          <ref role="3Tt5mk" to="j0tk:6khVixyGI0c" resolve="antimicrobialReference" />
                        </node>
                        <node concept="30H73N" id="6khVixyHKk3" role="2Oq$k0" />
                      </node>
                    </node>
                  </node>
                </node>
              </node>
            </node>
            <node concept="Xl_RD" id="6khVixyla0C" role="37wK5m">
              <property role="Xl_RC" value="pathogen" />
              <node concept="29HgVG" id="6khVixyla0R" role="lGtFl">
                <node concept="3NFfHV" id="6khVixyla0S" role="3NFExx">
                  <node concept="3clFbS" id="6khVixyla0T" role="2VODD2">
                    <node concept="3clFbF" id="6khVixyla0Z" role="3cqZAp">
                      <node concept="2OqwBi" id="6khVixyla0U" role="3clFbG">
                        <node concept="3TrEf2" id="6khVixyla0X" role="2OqNvi">
                          <ref role="3Tt5mk" to="j0tk:6khVixyiJya" resolve="pathogenReference" />
                        </node>
                        <node concept="30H73N" id="6khVixyla0Y" role="2Oq$k0" />
                      </node>
                    </node>
                  </node>
                </node>
              </node>
            </node>
          </node>
        </node>
      </node>
    </node>
    <node concept="3aamgX" id="6khVixylis0" role="3acgRq">
      <ref role="30HIoZ" to="j0tk:6khVixyjFdS" resolve="AntimicrobialSensitivityEqualTo" />
      <node concept="gft3U" id="6khVixyliUK" role="1lVwrX">
        <node concept="2ShNRf" id="6khVixyliUQ" role="gfFT$">
          <node concept="1pGfFk" id="6khVixylup$" role="2ShVmc">
            <ref role="37wK5l" to="hfwg:6khVixylkjt" resolve="AntimicrobialSusceptibilityEqualTo" />
            <node concept="2ShNRf" id="6khVixylupH" role="37wK5m">
              <node concept="HV5vD" id="6khVixyluxw" role="2ShVmc">
                <ref role="HV5vE" to="hfwg:6khVixyl0QS" resolve="AntimicrobialSusceptibility" />
              </node>
              <node concept="29HgVG" id="6khVixyluxN" role="lGtFl">
                <node concept="3NFfHV" id="6khVixyluxO" role="3NFExx">
                  <node concept="3clFbS" id="6khVixyluxP" role="2VODD2">
                    <node concept="3clFbF" id="6khVixyluxV" role="3cqZAp">
                      <node concept="2OqwBi" id="6khVixyluxQ" role="3clFbG">
                        <node concept="3TrEf2" id="6khVixyluxT" role="2OqNvi">
                          <ref role="3Tt5mk" to="j0tk:6khVixyjNBG" resolve="sensitivity" />
                        </node>
                        <node concept="30H73N" id="6khVixyluxU" role="2Oq$k0" />
                      </node>
                    </node>
                  </node>
                </node>
              </node>
            </node>
          </node>
        </node>
      </node>
    </node>
    <node concept="3aamgX" id="6khVixyluCE" role="3acgRq">
      <ref role="30HIoZ" to="j0tk:6khVixyjMoK" resolve="SensitiveAntimicrobialSensitivity" />
      <node concept="gft3U" id="6khVixylvkl" role="1lVwrX">
        <node concept="10M0yZ" id="6khVixyl$eZ" role="gfFT$">
          <ref role="3cqZAo" to="hfwg:6khVixyl1lp" resolve="SENSITIVE" />
          <ref role="1PxDUh" to="hfwg:6khVixyl0QS" resolve="AntimicrobialSusceptibility" />
        </node>
      </node>
    </node>
    <node concept="3aamgX" id="6khVixyl$Vr" role="3acgRq">
      <ref role="30HIoZ" to="j0tk:6khVixyjMoL" resolve="IntermediateAntimicrobialSensitivity" />
      <node concept="gft3U" id="6khVixyl_Bc" role="1lVwrX">
        <node concept="10M0yZ" id="6khVixyl_Bu" role="gfFT$">
          <ref role="3cqZAo" to="hfwg:6khVixyl1vf" resolve="INTERMEDIATE" />
          <ref role="1PxDUh" to="hfwg:6khVixyl0QS" resolve="AntimicrobialSusceptibility" />
        </node>
      </node>
    </node>
    <node concept="3aamgX" id="6khVixyl$fe" role="3acgRq">
      <ref role="30HIoZ" to="j0tk:6khVixyjMoJ" resolve="ResistantAntimicrobialSensitivity" />
      <node concept="gft3U" id="6khVixyl$ff" role="1lVwrX">
        <node concept="10M0yZ" id="6khVixyl$Vc" role="gfFT$">
          <ref role="3cqZAo" to="hfwg:6khVixyl1vQ" resolve="RESISTENT" />
          <ref role="1PxDUh" to="hfwg:6khVixyl0QS" resolve="AntimicrobialSusceptibility" />
        </node>
      </node>
    </node>
  </node>
  <node concept="1pmfR0" id="1mAGFBLxaGR">
    <property role="TrG5h" value="dataMicrobiologyScript" />
    <property role="1v3f2W" value="pre_processing" />
    <node concept="1pplIY" id="1mAGFBLxaGS" role="1pqMTA">
      <node concept="3clFbS" id="1mAGFBLxaGT" role="2VODD2">
        <node concept="2xdQw9" id="1mAGFBLxaH9" role="3cqZAp">
          <property role="2xdLsb" value="debug" />
          <node concept="Xl_RD" id="1mAGFBLxaHb" role="9lYJi">
            <property role="Xl_RC" value="decisions.data.microbiology" />
          </node>
        </node>
      </node>
    </node>
  </node>
</model>

