<?xml version="1.0" encoding="UTF-8"?>
<model ref="r:3c5997c3-620b-4ae7-b4d2-2f4d54f726c4(no.uio.mLab.entities.microbiology.runtime)">
  <persistence version="9" />
  <languages />
  <imports />
  <registry />
</model>

