<?xml version="1.0" encoding="UTF-8"?>
<model ref="r:7fcd5412-0e66-48f8-8a88-4eb56394cc6d(no.uio.mLab.shared.runtime)">
  <persistence version="9" />
  <languages>
    <use id="f3061a53-9226-4cc5-a443-f952ceaf5816" name="jetbrains.mps.baseLanguage" version="6" />
  </languages>
  <imports />
  <registry />
</model>

