<?xml version="1.0" encoding="UTF-8"?>
<model ref="r:2f6d4fa8-e4da-4f59-bd6f-30425e1dd68f(no.furst.mLab.entities.structure)">
  <persistence version="9" />
  <languages>
    <use id="c72da2b9-7cce-4447-8389-f407dc1158b7" name="jetbrains.mps.lang.structure" version="6" />
    <devkit ref="78434eb8-b0e5-444b-850d-e7c4ad2da9ab(jetbrains.mps.devkit.aspect.structure)" />
  </languages>
  <imports>
    <import index="kkto" ref="r:01f3534b-874e-42dc-a9b5-7540591f45bb(no.uio.mLab.entities.core.structure)" />
    <import index="vbok" ref="r:6cc208d3-a370-49ca-a6ac-ded97805a924(no.uio.mLab.shared.structure)" />
  </imports>
  <registry>
    <language id="c72da2b9-7cce-4447-8389-f407dc1158b7" name="jetbrains.mps.lang.structure">
      <concept id="1169125787135" name="jetbrains.mps.lang.structure.structure.AbstractConceptDeclaration" flags="ig" index="PkWjJ">
        <property id="6714410169261853888" name="conceptId" index="EcuMT" />
      </concept>
      <concept id="1169125989551" name="jetbrains.mps.lang.structure.structure.InterfaceConceptDeclaration" flags="ig" index="PlHQZ">
        <child id="1169127546356" name="extends" index="PrDN$" />
      </concept>
      <concept id="1169127622168" name="jetbrains.mps.lang.structure.structure.InterfaceConceptReference" flags="ig" index="PrWs8">
        <reference id="1169127628841" name="intfc" index="PrY4T" />
      </concept>
      <concept id="1071489090640" name="jetbrains.mps.lang.structure.structure.ConceptDeclaration" flags="ig" index="1TIwiD">
        <property id="1096454100552" name="rootable" index="19KtqR" />
        <reference id="1071489389519" name="extends" index="1TJDcQ" />
        <child id="1169129564478" name="implements" index="PzmwI" />
      </concept>
    </language>
    <language id="ceab5195-25ea-4f22-9b92-103b95ca8c0c" name="jetbrains.mps.lang.core">
      <concept id="1169194658468" name="jetbrains.mps.lang.core.structure.INamedConcept" flags="ng" index="TrEIO">
        <property id="1169194664001" name="name" index="TrG5h" />
      </concept>
    </language>
  </registry>
  <node concept="1TIwiD" id="1mAGFBLG5RX">
    <property role="EcuMT" value="1560130832624016893" />
    <property role="TrG5h" value="Autokommentar" />
    <property role="19KtqR" value="true" />
    <ref role="1TJDcQ" to="kkto:4QUW3edDqMR" resolve="Entity" />
    <node concept="PrWs8" id="6khVixxTt4E" role="PzmwI">
      <ref role="PrY4T" node="6khVixxTt19" resolve="IFurstEntitiesTranslatableConcept" />
    </node>
  </node>
  <node concept="PlHQZ" id="6khVixxTt19">
    <property role="EcuMT" value="7282862830131728457" />
    <property role="TrG5h" value="IFurstEntitiesTranslatableConcept" />
    <node concept="PrWs8" id="6khVixxTt1a" role="PrDN$">
      <ref role="PrY4T" to="vbok:5Wfdz$0vc1Z" resolve="ITranslatableConcept" />
    </node>
  </node>
</model>

