<?xml version="1.0" encoding="UTF-8"?>
<model ref="r:582be89a-4650-4440-9634-a3c79b1d9f5b(no.uio.mLab.entities.biochemistry.runtime)">
  <persistence version="9" />
  <languages>
    <use id="f3061a53-9226-4cc5-a443-f952ceaf5816" name="jetbrains.mps.baseLanguage" version="6" />
  </languages>
  <imports />
  <registry />
</model>

