<?xml version="1.0" encoding="UTF-8"?>
<model ref="r:80119bb0-41d8-4e59-a1ce-200704faa812(no.uio.mLab.decisions.tasks.autocommentation.runtime)">
  <persistence version="9" />
  <languages>
    <use id="f3061a53-9226-4cc5-a443-f952ceaf5816" name="jetbrains.mps.baseLanguage" version="6" />
  </languages>
  <imports>
    <import index="8r9s" ref="r:0e143259-7e64-4fad-906c-02a97b75504d(no.uio.mLab.decisions.core.runtime)" />
    <import index="33ny" ref="6354ebe7-c22a-4a0f-ac54-50b52ab9b065/java:java.util(JDK/)" />
    <import index="wyt6" ref="6354ebe7-c22a-4a0f-ac54-50b52ab9b065/java:java.lang(JDK/)" implicit="true" />
  </imports>
  <registry>
    <language id="f3061a53-9226-4cc5-a443-f952ceaf5816" name="jetbrains.mps.baseLanguage">
      <concept id="1080223426719" name="jetbrains.mps.baseLanguage.structure.OrExpression" flags="nn" index="22lmx$" />
      <concept id="1215693861676" name="jetbrains.mps.baseLanguage.structure.BaseAssignmentExpression" flags="nn" index="d038R">
        <child id="1068498886297" name="rValue" index="37vLTx" />
        <child id="1068498886295" name="lValue" index="37vLTJ" />
      </concept>
      <concept id="1202948039474" name="jetbrains.mps.baseLanguage.structure.InstanceMethodCallOperation" flags="nn" index="liA8E" />
      <concept id="1465982738277781862" name="jetbrains.mps.baseLanguage.structure.PlaceholderMember" flags="ng" index="2tJIrI" />
      <concept id="1188207840427" name="jetbrains.mps.baseLanguage.structure.AnnotationInstance" flags="nn" index="2AHcQZ">
        <reference id="1188208074048" name="annotation" index="2AI5Lk" />
      </concept>
      <concept id="1188208481402" name="jetbrains.mps.baseLanguage.structure.HasAnnotation" flags="ng" index="2AJDlI">
        <child id="1188208488637" name="annotation" index="2AJF6D" />
      </concept>
      <concept id="1197027756228" name="jetbrains.mps.baseLanguage.structure.DotExpression" flags="nn" index="2OqwBi">
        <child id="1197027771414" name="operand" index="2Oq$k0" />
        <child id="1197027833540" name="operation" index="2OqNvi" />
      </concept>
      <concept id="1197029447546" name="jetbrains.mps.baseLanguage.structure.FieldReferenceOperation" flags="nn" index="2OwXpG">
        <reference id="1197029500499" name="fieldDeclaration" index="2Oxat5" />
      </concept>
      <concept id="1070475354124" name="jetbrains.mps.baseLanguage.structure.ThisExpression" flags="nn" index="Xjq3P" />
      <concept id="1070475926800" name="jetbrains.mps.baseLanguage.structure.StringLiteral" flags="nn" index="Xl_RD">
        <property id="1070475926801" name="value" index="Xl_RC" />
      </concept>
      <concept id="1081236700937" name="jetbrains.mps.baseLanguage.structure.StaticMethodCall" flags="nn" index="2YIFZM">
        <reference id="1144433194310" name="classConcept" index="1Pybhc" />
      </concept>
      <concept id="1081256982272" name="jetbrains.mps.baseLanguage.structure.InstanceOfExpression" flags="nn" index="2ZW3vV">
        <child id="1081256993305" name="classType" index="2ZW6by" />
        <child id="1081256993304" name="leftExpression" index="2ZW6bz" />
      </concept>
      <concept id="1070534058343" name="jetbrains.mps.baseLanguage.structure.NullLiteral" flags="nn" index="10Nm6u" />
      <concept id="1070534370425" name="jetbrains.mps.baseLanguage.structure.IntegerType" flags="in" index="10Oyi0" />
      <concept id="1070534644030" name="jetbrains.mps.baseLanguage.structure.BooleanType" flags="in" index="10P_77" />
      <concept id="1070534934090" name="jetbrains.mps.baseLanguage.structure.CastExpression" flags="nn" index="10QFUN">
        <child id="1070534934091" name="type" index="10QFUM" />
        <child id="1070534934092" name="expression" index="10QFUP" />
      </concept>
      <concept id="1068390468200" name="jetbrains.mps.baseLanguage.structure.FieldDeclaration" flags="ig" index="312cEg">
        <property id="8606350594693632173" name="isTransient" index="eg7rD" />
        <property id="1240249534625" name="isVolatile" index="34CwA1" />
      </concept>
      <concept id="1068390468198" name="jetbrains.mps.baseLanguage.structure.ClassConcept" flags="ig" index="312cEu">
        <property id="1075300953594" name="abstractClass" index="1sVAO0" />
        <child id="1165602531693" name="superclass" index="1zkMxy" />
      </concept>
      <concept id="1068431474542" name="jetbrains.mps.baseLanguage.structure.VariableDeclaration" flags="ng" index="33uBYm">
        <property id="1176718929932" name="isFinal" index="3TUv4t" />
        <child id="1068431790190" name="initializer" index="33vP2m" />
      </concept>
      <concept id="1068498886296" name="jetbrains.mps.baseLanguage.structure.VariableReference" flags="nn" index="37vLTw">
        <reference id="1068581517664" name="variableDeclaration" index="3cqZAo" />
      </concept>
      <concept id="1068498886292" name="jetbrains.mps.baseLanguage.structure.ParameterDeclaration" flags="ir" index="37vLTG" />
      <concept id="1068498886294" name="jetbrains.mps.baseLanguage.structure.AssignmentExpression" flags="nn" index="37vLTI" />
      <concept id="1225271177708" name="jetbrains.mps.baseLanguage.structure.StringType" flags="in" index="17QB3L" />
      <concept id="4972933694980447171" name="jetbrains.mps.baseLanguage.structure.BaseVariableDeclaration" flags="ng" index="19Szcq">
        <child id="5680397130376446158" name="type" index="1tU5fm" />
      </concept>
      <concept id="1068580123132" name="jetbrains.mps.baseLanguage.structure.BaseMethodDeclaration" flags="ng" index="3clF44">
        <property id="4276006055363816570" name="isSynchronized" index="od$2w" />
        <property id="1181808852946" name="isFinal" index="DiZV1" />
        <child id="1068580123133" name="returnType" index="3clF45" />
        <child id="1068580123134" name="parameter" index="3clF46" />
        <child id="1068580123135" name="body" index="3clF47" />
      </concept>
      <concept id="1068580123165" name="jetbrains.mps.baseLanguage.structure.InstanceMethodDeclaration" flags="ig" index="3clFb_">
        <property id="1178608670077" name="isAbstract" index="1EzhhJ" />
      </concept>
      <concept id="1068580123152" name="jetbrains.mps.baseLanguage.structure.EqualsExpression" flags="nn" index="3clFbC" />
      <concept id="1068580123155" name="jetbrains.mps.baseLanguage.structure.ExpressionStatement" flags="nn" index="3clFbF">
        <child id="1068580123156" name="expression" index="3clFbG" />
      </concept>
      <concept id="1068580123159" name="jetbrains.mps.baseLanguage.structure.IfStatement" flags="nn" index="3clFbJ">
        <child id="1068580123160" name="condition" index="3clFbw" />
        <child id="1068580123161" name="ifTrue" index="3clFbx" />
      </concept>
      <concept id="1068580123136" name="jetbrains.mps.baseLanguage.structure.StatementList" flags="sn" stub="5293379017992965193" index="3clFbS">
        <child id="1068581517665" name="statement" index="3cqZAp" />
      </concept>
      <concept id="1068580123137" name="jetbrains.mps.baseLanguage.structure.BooleanConstant" flags="nn" index="3clFbT">
        <property id="1068580123138" name="value" index="3clFbU" />
      </concept>
      <concept id="1068580123140" name="jetbrains.mps.baseLanguage.structure.ConstructorDeclaration" flags="ig" index="3clFbW" />
      <concept id="1068581242878" name="jetbrains.mps.baseLanguage.structure.ReturnStatement" flags="nn" index="3cpWs6">
        <child id="1068581517676" name="expression" index="3cqZAk" />
      </concept>
      <concept id="1068581242864" name="jetbrains.mps.baseLanguage.structure.LocalVariableDeclarationStatement" flags="nn" index="3cpWs8">
        <child id="1068581242865" name="localVariableDeclaration" index="3cpWs9" />
      </concept>
      <concept id="1068581242863" name="jetbrains.mps.baseLanguage.structure.LocalVariableDeclaration" flags="nr" index="3cpWsn" />
      <concept id="1068581517677" name="jetbrains.mps.baseLanguage.structure.VoidType" flags="in" index="3cqZAl" />
      <concept id="1079359253375" name="jetbrains.mps.baseLanguage.structure.ParenthesizedExpression" flags="nn" index="1eOMI4">
        <child id="1079359253376" name="expression" index="1eOMHV" />
      </concept>
      <concept id="1204053956946" name="jetbrains.mps.baseLanguage.structure.IMethodCall" flags="ng" index="1ndlxa">
        <reference id="1068499141037" name="baseMethodDeclaration" index="37wK5l" />
        <child id="1068499141038" name="actualArgument" index="37wK5m" />
      </concept>
      <concept id="1107461130800" name="jetbrains.mps.baseLanguage.structure.Classifier" flags="ng" index="3pOWGL">
        <child id="5375687026011219971" name="member" index="jymVt" unordered="true" />
      </concept>
      <concept id="7812454656619025416" name="jetbrains.mps.baseLanguage.structure.MethodDeclaration" flags="ng" index="1rXfSm">
        <property id="8355037393041754995" name="isNative" index="2aFKle" />
      </concept>
      <concept id="1107535904670" name="jetbrains.mps.baseLanguage.structure.ClassifierType" flags="in" index="3uibUv">
        <reference id="1107535924139" name="classifier" index="3uigEE" />
        <child id="1109201940907" name="parameter" index="11_B2D" />
      </concept>
      <concept id="1081773326031" name="jetbrains.mps.baseLanguage.structure.BinaryOperation" flags="nn" index="3uHJSO">
        <child id="1081773367579" name="rightExpression" index="3uHU7w" />
        <child id="1081773367580" name="leftExpression" index="3uHU7B" />
      </concept>
      <concept id="1073239437375" name="jetbrains.mps.baseLanguage.structure.NotEqualsExpression" flags="nn" index="3y3z36" />
      <concept id="1178549954367" name="jetbrains.mps.baseLanguage.structure.IVisible" flags="ng" index="1B3ioH">
        <child id="1178549979242" name="visibility" index="1B3o_S" />
      </concept>
      <concept id="1107796713796" name="jetbrains.mps.baseLanguage.structure.Interface" flags="ig" index="3HP615">
        <child id="1107797138135" name="extendedInterface" index="3HQHJm" />
      </concept>
      <concept id="1146644602865" name="jetbrains.mps.baseLanguage.structure.PublicVisibility" flags="nn" index="3Tm1VV" />
      <concept id="1146644623116" name="jetbrains.mps.baseLanguage.structure.PrivateVisibility" flags="nn" index="3Tm6S6" />
    </language>
    <language id="ceab5195-25ea-4f22-9b92-103b95ca8c0c" name="jetbrains.mps.lang.core">
      <concept id="1133920641626" name="jetbrains.mps.lang.core.structure.BaseConcept" flags="ng" index="2VYdi">
        <property id="1193676396447" name="virtualPackage" index="3GE5qa" />
      </concept>
      <concept id="1169194658468" name="jetbrains.mps.lang.core.structure.INamedConcept" flags="ng" index="TrEIO">
        <property id="1169194664001" name="name" index="TrG5h" />
      </concept>
    </language>
  </registry>
  <node concept="312cEu" id="1mAGFBL_Xib">
    <property role="3GE5qa" value="actions" />
    <property role="TrG5h" value="NotifySpecialist" />
    <node concept="312cEg" id="1mAGFBL_YUn" role="jymVt">
      <property role="34CwA1" value="false" />
      <property role="eg7rD" value="false" />
      <property role="TrG5h" value="type" />
      <property role="3TUv4t" value="false" />
      <node concept="3Tm6S6" id="1mAGFBL_Xj8" role="1B3o_S" />
      <node concept="17QB3L" id="1mAGFBLA4a6" role="1tU5fm" />
    </node>
    <node concept="2tJIrI" id="1mAGFBL_YU$" role="jymVt" />
    <node concept="3clFbW" id="1mAGFBL_YUT" role="jymVt">
      <node concept="3cqZAl" id="1mAGFBL_YUV" role="3clF45" />
      <node concept="3Tm1VV" id="1mAGFBL_YUW" role="1B3o_S" />
      <node concept="3clFbS" id="1mAGFBL_YUX" role="3clF47">
        <node concept="3clFbF" id="1mAGFBL_YVV" role="3cqZAp">
          <node concept="37vLTI" id="1mAGFBL_Z5J" role="3clFbG">
            <node concept="37vLTw" id="1mAGFBL_Z7k" role="37vLTx">
              <ref role="3cqZAo" node="1mAGFBL_YVj" resolve="type" />
            </node>
            <node concept="2OqwBi" id="1mAGFBL_YY2" role="37vLTJ">
              <node concept="Xjq3P" id="1mAGFBL_YVU" role="2Oq$k0" />
              <node concept="2OwXpG" id="1mAGFBL_Z0Z" role="2OqNvi">
                <ref role="2Oxat5" node="1mAGFBL_YUn" resolve="type" />
              </node>
            </node>
          </node>
        </node>
      </node>
      <node concept="37vLTG" id="1mAGFBL_YVj" role="3clF46">
        <property role="TrG5h" value="type" />
        <node concept="17QB3L" id="1mAGFBLA4he" role="1tU5fm" />
      </node>
    </node>
    <node concept="2tJIrI" id="1mAGFBL_Z8s" role="jymVt" />
    <node concept="3clFb_" id="1mAGFBL_ZbJ" role="jymVt">
      <property role="1EzhhJ" value="false" />
      <property role="TrG5h" value="getType" />
      <property role="od$2w" value="false" />
      <property role="DiZV1" value="false" />
      <property role="2aFKle" value="false" />
      <node concept="3clFbS" id="1mAGFBL_ZbM" role="3clF47">
        <node concept="3cpWs6" id="1mAGFBL_ZdA" role="3cqZAp">
          <node concept="2OqwBi" id="1mAGFBL_Zgg" role="3cqZAk">
            <node concept="Xjq3P" id="1mAGFBL_ZdQ" role="2Oq$k0" />
            <node concept="2OwXpG" id="1mAGFBL_Zkm" role="2OqNvi">
              <ref role="2Oxat5" node="1mAGFBL_YUn" resolve="type" />
            </node>
          </node>
        </node>
      </node>
      <node concept="3Tm1VV" id="1mAGFBL_Za9" role="1B3o_S" />
      <node concept="17QB3L" id="1mAGFBLA4iw" role="3clF45" />
    </node>
    <node concept="2tJIrI" id="7lYCqhv4LPq" role="jymVt" />
    <node concept="3clFb_" id="7lYCqhv4LBo" role="jymVt">
      <property role="1EzhhJ" value="false" />
      <property role="TrG5h" value="hashCode" />
      <property role="DiZV1" value="false" />
      <property role="od$2w" value="false" />
      <node concept="3Tm1VV" id="7lYCqhv4LBp" role="1B3o_S" />
      <node concept="10Oyi0" id="7lYCqhv4LBr" role="3clF45" />
      <node concept="3clFbS" id="7lYCqhv4LBs" role="3clF47">
        <node concept="3clFbF" id="7lYCqhv4Mlk" role="3cqZAp">
          <node concept="2YIFZM" id="7lYCqhv4MBO" role="3clFbG">
            <ref role="37wK5l" to="33ny:~Objects.hash(java.lang.Object...):int" resolve="hash" />
            <ref role="1Pybhc" to="33ny:~Objects" resolve="Objects" />
            <node concept="2OqwBi" id="7lYCqhv4MIr" role="37wK5m">
              <node concept="Xjq3P" id="7lYCqhv4MCo" role="2Oq$k0" />
              <node concept="liA8E" id="7lYCqhv4MUb" role="2OqNvi">
                <ref role="37wK5l" to="wyt6:~Object.getClass():java.lang.Class" resolve="getClass" />
              </node>
            </node>
            <node concept="37vLTw" id="7lYCqhv4N8_" role="37wK5m">
              <ref role="3cqZAo" node="1mAGFBL_YUn" resolve="type" />
            </node>
          </node>
        </node>
      </node>
      <node concept="2AHcQZ" id="7lYCqhv4LBt" role="2AJF6D">
        <ref role="2AI5Lk" to="wyt6:~Override" resolve="Override" />
      </node>
    </node>
    <node concept="2tJIrI" id="7lYCqhv4M2C" role="jymVt" />
    <node concept="3clFb_" id="7lYCqhv4LBw" role="jymVt">
      <property role="1EzhhJ" value="false" />
      <property role="TrG5h" value="equals" />
      <property role="DiZV1" value="false" />
      <property role="od$2w" value="false" />
      <node concept="3Tm1VV" id="7lYCqhv4LBx" role="1B3o_S" />
      <node concept="10P_77" id="7lYCqhv4LBz" role="3clF45" />
      <node concept="37vLTG" id="7lYCqhv4LB$" role="3clF46">
        <property role="TrG5h" value="object" />
        <node concept="3uibUv" id="7lYCqhv4LB_" role="1tU5fm">
          <ref role="3uigEE" to="wyt6:~Object" resolve="Object" />
        </node>
      </node>
      <node concept="3clFbS" id="7lYCqhv4LBA" role="3clF47">
        <node concept="3clFbJ" id="4B5aqq5Q0C7" role="3cqZAp">
          <node concept="3clFbS" id="4B5aqq5Q0C8" role="3clFbx">
            <node concept="3cpWs6" id="4B5aqq5Q0C9" role="3cqZAp">
              <node concept="3clFbT" id="4B5aqq5Q0Ca" role="3cqZAk">
                <property role="3clFbU" value="true" />
              </node>
            </node>
          </node>
          <node concept="3clFbC" id="4B5aqq5Q0Cb" role="3clFbw">
            <node concept="Xjq3P" id="4B5aqq5Q0Cc" role="3uHU7B" />
            <node concept="37vLTw" id="4B5aqq5Q0Cd" role="3uHU7w">
              <ref role="3cqZAo" node="7lYCqhv4LB$" resolve="object" />
            </node>
          </node>
        </node>
        <node concept="3clFbJ" id="4B5aqq5Q0Ce" role="3cqZAp">
          <node concept="3clFbS" id="4B5aqq5Q0Cf" role="3clFbx">
            <node concept="3cpWs6" id="4B5aqq5Q0Cg" role="3cqZAp">
              <node concept="3clFbT" id="4B5aqq5Q0Ch" role="3cqZAk">
                <property role="3clFbU" value="false" />
              </node>
            </node>
          </node>
          <node concept="22lmx$" id="4B5aqq5Q0Ci" role="3clFbw">
            <node concept="3clFbC" id="4B5aqq5Q0Cj" role="3uHU7B">
              <node concept="10Nm6u" id="4B5aqq5Q0Ck" role="3uHU7w" />
              <node concept="37vLTw" id="4B5aqq5Q0Cl" role="3uHU7B">
                <ref role="3cqZAo" node="7lYCqhv4LB$" resolve="object" />
              </node>
            </node>
            <node concept="3y3z36" id="4B5aqq5Q0Cm" role="3uHU7w">
              <node concept="2OqwBi" id="4B5aqq5Q0Cn" role="3uHU7B">
                <node concept="Xjq3P" id="4B5aqq5Q0Co" role="2Oq$k0" />
                <node concept="liA8E" id="4B5aqq5Q0Cp" role="2OqNvi">
                  <ref role="37wK5l" to="wyt6:~Object.getClass():java.lang.Class" resolve="getClass" />
                </node>
              </node>
              <node concept="2OqwBi" id="4B5aqq5Q0Cq" role="3uHU7w">
                <node concept="37vLTw" id="4B5aqq5Q0Cr" role="2Oq$k0">
                  <ref role="3cqZAo" node="7lYCqhv4LB$" resolve="object" />
                </node>
                <node concept="liA8E" id="4B5aqq5Q0Cs" role="2OqNvi">
                  <ref role="37wK5l" to="wyt6:~Object.getClass():java.lang.Class" resolve="getClass" />
                </node>
              </node>
            </node>
          </node>
        </node>
        <node concept="3cpWs8" id="7lYCqhv4Ogi" role="3cqZAp">
          <node concept="3cpWsn" id="7lYCqhv4Ogj" role="3cpWs9">
            <property role="TrG5h" value="other" />
            <node concept="3uibUv" id="7lYCqhv4Ogk" role="1tU5fm">
              <ref role="3uigEE" node="1mAGFBL_Xib" resolve="NotifySpecialist" />
            </node>
            <node concept="10QFUN" id="7lYCqhv4Tin" role="33vP2m">
              <node concept="3uibUv" id="7lYCqhv4Ty9" role="10QFUM">
                <ref role="3uigEE" node="1mAGFBL_Xib" resolve="NotifySpecialist" />
              </node>
              <node concept="37vLTw" id="7lYCqhv4Ovp" role="10QFUP">
                <ref role="3cqZAo" node="7lYCqhv4LB$" resolve="object" />
              </node>
            </node>
          </node>
        </node>
        <node concept="3cpWs6" id="7lYCqhv4ONh" role="3cqZAp">
          <node concept="2YIFZM" id="4B5aqq5Q1Ep" role="3cqZAk">
            <ref role="37wK5l" to="33ny:~Objects.equals(java.lang.Object,java.lang.Object):boolean" resolve="equals" />
            <ref role="1Pybhc" to="33ny:~Objects" resolve="Objects" />
            <node concept="2OqwBi" id="4B5aqq5Q28t" role="37wK5m">
              <node concept="Xjq3P" id="4B5aqq5Q1UF" role="2Oq$k0" />
              <node concept="2OwXpG" id="4B5aqq5Q2rl" role="2OqNvi">
                <ref role="2Oxat5" node="1mAGFBL_YUn" resolve="type" />
              </node>
            </node>
            <node concept="2OqwBi" id="4B5aqq5Q2SS" role="37wK5m">
              <node concept="37vLTw" id="4B5aqq5Q2G7" role="2Oq$k0">
                <ref role="3cqZAo" node="7lYCqhv4Ogj" resolve="other" />
              </node>
              <node concept="2OwXpG" id="4B5aqq5Q3c1" role="2OqNvi">
                <ref role="2Oxat5" node="1mAGFBL_YUn" resolve="type" />
              </node>
            </node>
          </node>
        </node>
      </node>
      <node concept="2AHcQZ" id="7lYCqhv4LBB" role="2AJF6D">
        <ref role="2AI5Lk" to="wyt6:~Override" resolve="Override" />
      </node>
    </node>
    <node concept="2tJIrI" id="7lYCqhv4KLL" role="jymVt" />
    <node concept="3clFb_" id="7lYCqhv4KHo" role="jymVt">
      <property role="1EzhhJ" value="false" />
      <property role="TrG5h" value="toString" />
      <property role="DiZV1" value="false" />
      <property role="od$2w" value="false" />
      <node concept="3Tm1VV" id="7lYCqhv4KHp" role="1B3o_S" />
      <node concept="3uibUv" id="7lYCqhv4KHr" role="3clF45">
        <ref role="3uigEE" to="wyt6:~String" resolve="String" />
      </node>
      <node concept="3clFbS" id="7lYCqhv4KHs" role="3clF47">
        <node concept="3cpWs6" id="7lYCqhv4KRP" role="3cqZAp">
          <node concept="2YIFZM" id="7lYCqhv4KVZ" role="3cqZAk">
            <ref role="37wK5l" to="wyt6:~String.format(java.lang.String,java.lang.Object...):java.lang.String" resolve="format" />
            <ref role="1Pybhc" to="wyt6:~String" resolve="String" />
            <node concept="Xl_RD" id="7lYCqhv4KZO" role="37wK5m">
              <property role="Xl_RC" value="NotifySpecialist{type=%s}" />
            </node>
            <node concept="37vLTw" id="7lYCqhv4Lu$" role="37wK5m">
              <ref role="3cqZAo" node="1mAGFBL_YUn" resolve="type" />
            </node>
          </node>
        </node>
      </node>
      <node concept="2AHcQZ" id="7lYCqhv4KHt" role="2AJF6D">
        <ref role="2AI5Lk" to="wyt6:~Override" resolve="Override" />
      </node>
    </node>
    <node concept="3Tm1VV" id="1mAGFBL_Xic" role="1B3o_S" />
    <node concept="3uibUv" id="1mAGFBL_XiT" role="1zkMxy">
      <ref role="3uigEE" to="8r9s:1mAGFBLiCZV" resolve="Action" />
    </node>
  </node>
  <node concept="312cEu" id="1mAGFBL$_1B">
    <property role="3GE5qa" value="actions" />
    <property role="TrG5h" value="AddCommentForRequestor" />
    <node concept="312cEg" id="1mAGFBL$_3P" role="jymVt">
      <property role="34CwA1" value="false" />
      <property role="eg7rD" value="false" />
      <property role="TrG5h" value="comment" />
      <property role="3TUv4t" value="false" />
      <node concept="3Tm6S6" id="1mAGFBL$_2U" role="1B3o_S" />
      <node concept="3uibUv" id="4QUW3ee0Huc" role="1tU5fm">
        <ref role="3uigEE" node="4QUW3ee0Hqr" resolve="InterpretativeComment" />
      </node>
    </node>
    <node concept="2tJIrI" id="1mAGFBL$_42" role="jymVt" />
    <node concept="3clFbW" id="1mAGFBL$_fg" role="jymVt">
      <node concept="3cqZAl" id="1mAGFBL$_fi" role="3clF45" />
      <node concept="3Tm1VV" id="1mAGFBL$_fj" role="1B3o_S" />
      <node concept="3clFbS" id="1mAGFBL$_fk" role="3clF47">
        <node concept="3clFbF" id="1mAGFBL$_hw" role="3cqZAp">
          <node concept="37vLTI" id="1mAGFBL$_up" role="3clFbG">
            <node concept="37vLTw" id="1mAGFBL$_wg" role="37vLTx">
              <ref role="3cqZAo" node="1mAGFBL$_gR" resolve="comment" />
            </node>
            <node concept="2OqwBi" id="1mAGFBL$_jB" role="37vLTJ">
              <node concept="Xjq3P" id="1mAGFBL$_hv" role="2Oq$k0" />
              <node concept="2OwXpG" id="1mAGFBL$_p4" role="2OqNvi">
                <ref role="2Oxat5" node="1mAGFBL$_3P" resolve="comment" />
              </node>
            </node>
          </node>
        </node>
      </node>
      <node concept="37vLTG" id="1mAGFBL$_gR" role="3clF46">
        <property role="TrG5h" value="comment" />
        <node concept="3uibUv" id="4QUW3ee0HsZ" role="1tU5fm">
          <ref role="3uigEE" node="4QUW3ee0Hqr" resolve="InterpretativeComment" />
        </node>
      </node>
    </node>
    <node concept="2tJIrI" id="1mAGFBL$_cx" role="jymVt" />
    <node concept="3clFb_" id="1mAGFBL$_4I" role="jymVt">
      <property role="1EzhhJ" value="false" />
      <property role="TrG5h" value="getInterpretativeComment" />
      <property role="od$2w" value="false" />
      <property role="DiZV1" value="false" />
      <property role="2aFKle" value="false" />
      <node concept="3clFbS" id="1mAGFBL$_4L" role="3clF47">
        <node concept="3cpWs6" id="1mAGFBL$_5k" role="3cqZAp">
          <node concept="2OqwBi" id="1mAGFBL$_8a" role="3cqZAk">
            <node concept="Xjq3P" id="1mAGFBL$_5L" role="2Oq$k0" />
            <node concept="2OwXpG" id="1mAGFBL$_bd" role="2OqNvi">
              <ref role="2Oxat5" node="1mAGFBL$_3P" resolve="comment" />
            </node>
          </node>
        </node>
      </node>
      <node concept="3Tm1VV" id="1mAGFBL$_4n" role="1B3o_S" />
      <node concept="3uibUv" id="4QUW3ee0HvR" role="3clF45">
        <ref role="3uigEE" node="4QUW3ee0Hqr" resolve="InterpretativeComment" />
      </node>
    </node>
    <node concept="2tJIrI" id="7lYCqhv4Ubx" role="jymVt" />
    <node concept="3clFb_" id="7lYCqhv4TOY" role="jymVt">
      <property role="1EzhhJ" value="false" />
      <property role="TrG5h" value="hashCode" />
      <property role="DiZV1" value="false" />
      <property role="od$2w" value="false" />
      <node concept="3Tm1VV" id="7lYCqhv4TOZ" role="1B3o_S" />
      <node concept="10Oyi0" id="7lYCqhv4TP0" role="3clF45" />
      <node concept="3clFbS" id="7lYCqhv4TP1" role="3clF47">
        <node concept="3clFbF" id="7lYCqhv4TP2" role="3cqZAp">
          <node concept="2YIFZM" id="7lYCqhv4TP3" role="3clFbG">
            <ref role="1Pybhc" to="33ny:~Objects" resolve="Objects" />
            <ref role="37wK5l" to="33ny:~Objects.hash(java.lang.Object...):int" resolve="hash" />
            <node concept="2OqwBi" id="7lYCqhv4TP4" role="37wK5m">
              <node concept="Xjq3P" id="7lYCqhv4TP5" role="2Oq$k0" />
              <node concept="liA8E" id="7lYCqhv4TP6" role="2OqNvi">
                <ref role="37wK5l" to="wyt6:~Object.getClass():java.lang.Class" resolve="getClass" />
              </node>
            </node>
            <node concept="37vLTw" id="7lYCqhv4URg" role="37wK5m">
              <ref role="3cqZAo" node="1mAGFBL$_3P" resolve="comment" />
            </node>
          </node>
        </node>
      </node>
      <node concept="2AHcQZ" id="7lYCqhv4TP8" role="2AJF6D">
        <ref role="2AI5Lk" to="wyt6:~Override" resolve="Override" />
      </node>
    </node>
    <node concept="2tJIrI" id="7lYCqhv4TP9" role="jymVt" />
    <node concept="3clFb_" id="7lYCqhv4TPa" role="jymVt">
      <property role="1EzhhJ" value="false" />
      <property role="TrG5h" value="equals" />
      <property role="DiZV1" value="false" />
      <property role="od$2w" value="false" />
      <node concept="3Tm1VV" id="7lYCqhv4TPb" role="1B3o_S" />
      <node concept="10P_77" id="7lYCqhv4TPc" role="3clF45" />
      <node concept="37vLTG" id="7lYCqhv4TPd" role="3clF46">
        <property role="TrG5h" value="object" />
        <node concept="3uibUv" id="7lYCqhv4TPe" role="1tU5fm">
          <ref role="3uigEE" to="wyt6:~Object" resolve="Object" />
        </node>
      </node>
      <node concept="3clFbS" id="7lYCqhv4TPf" role="3clF47">
        <node concept="3clFbJ" id="4B5aqq5OJ30" role="3cqZAp">
          <node concept="3clFbS" id="4B5aqq5OJ31" role="3clFbx">
            <node concept="3cpWs6" id="4B5aqq5OJ32" role="3cqZAp">
              <node concept="3clFbT" id="4B5aqq5OJ33" role="3cqZAk">
                <property role="3clFbU" value="true" />
              </node>
            </node>
          </node>
          <node concept="3clFbC" id="4B5aqq5OJ34" role="3clFbw">
            <node concept="Xjq3P" id="4B5aqq5OJ35" role="3uHU7B" />
            <node concept="37vLTw" id="4B5aqq5OJ36" role="3uHU7w">
              <ref role="3cqZAo" node="7lYCqhv4TPd" resolve="object" />
            </node>
          </node>
        </node>
        <node concept="3clFbJ" id="4B5aqq5OJ37" role="3cqZAp">
          <node concept="3clFbS" id="4B5aqq5OJ38" role="3clFbx">
            <node concept="3cpWs6" id="4B5aqq5OJ39" role="3cqZAp">
              <node concept="3clFbT" id="4B5aqq5OJ3a" role="3cqZAk">
                <property role="3clFbU" value="false" />
              </node>
            </node>
          </node>
          <node concept="22lmx$" id="4B5aqq5OJW5" role="3clFbw">
            <node concept="3clFbC" id="4B5aqq5OKlz" role="3uHU7B">
              <node concept="10Nm6u" id="4B5aqq5OKtL" role="3uHU7w" />
              <node concept="37vLTw" id="4B5aqq5OKbr" role="3uHU7B">
                <ref role="3cqZAo" node="7lYCqhv4TPd" resolve="object" />
              </node>
            </node>
            <node concept="3y3z36" id="4B5aqq5OJ3b" role="3uHU7w">
              <node concept="2OqwBi" id="4B5aqq5OJ3c" role="3uHU7B">
                <node concept="Xjq3P" id="4B5aqq5OJ3d" role="2Oq$k0" />
                <node concept="liA8E" id="4B5aqq5OJ3e" role="2OqNvi">
                  <ref role="37wK5l" to="wyt6:~Object.getClass():java.lang.Class" resolve="getClass" />
                </node>
              </node>
              <node concept="2OqwBi" id="4B5aqq5OJ3f" role="3uHU7w">
                <node concept="37vLTw" id="4B5aqq5OJ3g" role="2Oq$k0">
                  <ref role="3cqZAo" node="7lYCqhv4TPd" resolve="object" />
                </node>
                <node concept="liA8E" id="4B5aqq5OJ3h" role="2OqNvi">
                  <ref role="37wK5l" to="wyt6:~Object.getClass():java.lang.Class" resolve="getClass" />
                </node>
              </node>
            </node>
          </node>
        </node>
        <node concept="3cpWs8" id="7lYCqhv4TPo" role="3cqZAp">
          <node concept="3cpWsn" id="7lYCqhv4TPp" role="3cpWs9">
            <property role="TrG5h" value="other" />
            <node concept="3uibUv" id="7lYCqhv4VMG" role="1tU5fm">
              <ref role="3uigEE" node="1mAGFBL$_1B" resolve="AddCommentForRequestor" />
            </node>
            <node concept="10QFUN" id="7lYCqhv4TPr" role="33vP2m">
              <node concept="3uibUv" id="7lYCqhv4V1E" role="10QFUM">
                <ref role="3uigEE" node="1mAGFBL$_1B" resolve="AddCommentForRequestor" />
              </node>
              <node concept="37vLTw" id="7lYCqhv4TPt" role="10QFUP">
                <ref role="3cqZAo" node="7lYCqhv4TPd" resolve="object" />
              </node>
            </node>
          </node>
        </node>
        <node concept="3cpWs6" id="7lYCqhv4TPu" role="3cqZAp">
          <node concept="2YIFZM" id="4B5aqq5PXOi" role="3cqZAk">
            <ref role="37wK5l" to="33ny:~Objects.equals(java.lang.Object,java.lang.Object):boolean" resolve="equals" />
            <ref role="1Pybhc" to="33ny:~Objects" resolve="Objects" />
            <node concept="2OqwBi" id="4B5aqq5PYk8" role="37wK5m">
              <node concept="Xjq3P" id="4B5aqq5PY5t" role="2Oq$k0" />
              <node concept="2OwXpG" id="4B5aqq5PYBT" role="2OqNvi">
                <ref role="2Oxat5" node="1mAGFBL$_3P" resolve="comment" />
              </node>
            </node>
            <node concept="2OqwBi" id="4B5aqq5PZ7g" role="37wK5m">
              <node concept="37vLTw" id="4B5aqq5PYT_" role="2Oq$k0">
                <ref role="3cqZAo" node="7lYCqhv4TPp" resolve="other" />
              </node>
              <node concept="2OwXpG" id="4B5aqq5PZqd" role="2OqNvi">
                <ref role="2Oxat5" node="1mAGFBL$_3P" resolve="comment" />
              </node>
            </node>
          </node>
        </node>
      </node>
      <node concept="2AHcQZ" id="7lYCqhv4TPB" role="2AJF6D">
        <ref role="2AI5Lk" to="wyt6:~Override" resolve="Override" />
      </node>
    </node>
    <node concept="2tJIrI" id="7lYCqhv4HmK" role="jymVt" />
    <node concept="3clFb_" id="7lYCqhv4Hel" role="jymVt">
      <property role="1EzhhJ" value="false" />
      <property role="TrG5h" value="toString" />
      <property role="DiZV1" value="false" />
      <property role="od$2w" value="false" />
      <node concept="3Tm1VV" id="7lYCqhv4Hem" role="1B3o_S" />
      <node concept="3uibUv" id="7lYCqhv4Heo" role="3clF45">
        <ref role="3uigEE" to="wyt6:~String" resolve="String" />
      </node>
      <node concept="3clFbS" id="7lYCqhv4Hep" role="3clF47">
        <node concept="3cpWs6" id="7lYCqhv4Hxe" role="3cqZAp">
          <node concept="2YIFZM" id="7lYCqhv4HCD" role="3cqZAk">
            <ref role="37wK5l" to="wyt6:~String.format(java.lang.String,java.lang.Object...):java.lang.String" resolve="format" />
            <ref role="1Pybhc" to="wyt6:~String" resolve="String" />
            <node concept="Xl_RD" id="7lYCqhv4HGp" role="37wK5m">
              <property role="Xl_RC" value="AddCommentForRequestor{comment=%s}" />
            </node>
            <node concept="2OqwBi" id="7lYCqhv4Itr" role="37wK5m">
              <node concept="37vLTw" id="7lYCqhv4Ios" role="2Oq$k0">
                <ref role="3cqZAo" node="1mAGFBL$_3P" resolve="comment" />
              </node>
              <node concept="liA8E" id="7lYCqhv4IzK" role="2OqNvi">
                <ref role="37wK5l" to="wyt6:~Object.toString():java.lang.String" resolve="toString" />
              </node>
            </node>
          </node>
        </node>
      </node>
      <node concept="2AHcQZ" id="7lYCqhv4Heq" role="2AJF6D">
        <ref role="2AI5Lk" to="wyt6:~Override" resolve="Override" />
      </node>
    </node>
    <node concept="3Tm1VV" id="1mAGFBL$_1C" role="1B3o_S" />
    <node concept="3uibUv" id="1mAGFBL$_2v" role="1zkMxy">
      <ref role="3uigEE" to="8r9s:1mAGFBLiCZV" resolve="Action" />
    </node>
  </node>
  <node concept="312cEu" id="4QUW3ee0Hqr">
    <property role="TrG5h" value="InterpretativeComment" />
    <property role="1sVAO0" value="true" />
    <property role="3GE5qa" value="parameters.comments" />
    <node concept="3Tm1VV" id="4QUW3ee0Hqs" role="1B3o_S" />
  </node>
  <node concept="312cEu" id="4QUW3ee0JoW">
    <property role="3GE5qa" value="parameters.comments" />
    <property role="TrG5h" value="InterpretativeCommentForRequestor" />
    <property role="1sVAO0" value="true" />
    <node concept="3Tm1VV" id="4QUW3ee0JoX" role="1B3o_S" />
    <node concept="3uibUv" id="4QUW3ee0JpH" role="1zkMxy">
      <ref role="3uigEE" node="4QUW3ee0Hqr" resolve="InterpretativeComment" />
    </node>
  </node>
  <node concept="312cEu" id="PDjyzk_KoA">
    <property role="3GE5qa" value="parameters.comments" />
    <property role="TrG5h" value="TextInterpretativeCommentForRequestor" />
    <node concept="312cEg" id="PDjyzk_Kq4" role="jymVt">
      <property role="34CwA1" value="false" />
      <property role="eg7rD" value="false" />
      <property role="TrG5h" value="text" />
      <property role="3TUv4t" value="false" />
      <node concept="3Tm6S6" id="PDjyzk_KpN" role="1B3o_S" />
      <node concept="17QB3L" id="PDjyzk_KpX" role="1tU5fm" />
    </node>
    <node concept="2tJIrI" id="PDjyzk_Kqg" role="jymVt" />
    <node concept="3clFbW" id="PDjyzk_Kqw" role="jymVt">
      <node concept="3cqZAl" id="PDjyzk_Kqy" role="3clF45" />
      <node concept="3Tm1VV" id="PDjyzk_Kqz" role="1B3o_S" />
      <node concept="3clFbS" id="PDjyzk_Kq$" role="3clF47">
        <node concept="3clFbF" id="PDjyzk_Krw" role="3cqZAp">
          <node concept="37vLTI" id="PDjyzk_KEB" role="3clFbG">
            <node concept="37vLTw" id="PDjyzk_KGi" role="37vLTx">
              <ref role="3cqZAo" node="PDjyzk_KqU" resolve="text" />
            </node>
            <node concept="2OqwBi" id="PDjyzk_Kug" role="37vLTJ">
              <node concept="Xjq3P" id="PDjyzk_Krv" role="2Oq$k0" />
              <node concept="2OwXpG" id="PDjyzk_KxQ" role="2OqNvi">
                <ref role="2Oxat5" node="PDjyzk_Kq4" resolve="text" />
              </node>
            </node>
          </node>
        </node>
      </node>
      <node concept="37vLTG" id="PDjyzk_KqU" role="3clF46">
        <property role="TrG5h" value="text" />
        <node concept="17QB3L" id="PDjyzk_KqT" role="1tU5fm" />
      </node>
    </node>
    <node concept="2tJIrI" id="PDjyzk_KHx" role="jymVt" />
    <node concept="3clFb_" id="PDjyzk_KMe" role="jymVt">
      <property role="1EzhhJ" value="false" />
      <property role="TrG5h" value="getText" />
      <property role="od$2w" value="false" />
      <property role="DiZV1" value="false" />
      <property role="2aFKle" value="false" />
      <node concept="3clFbS" id="PDjyzk_KMh" role="3clF47">
        <node concept="3cpWs6" id="PDjyzk_KO9" role="3cqZAp">
          <node concept="2OqwBi" id="PDjyzk_KTY" role="3cqZAk">
            <node concept="Xjq3P" id="PDjyzk_KOo" role="2Oq$k0" />
            <node concept="2OwXpG" id="PDjyzk_KYO" role="2OqNvi">
              <ref role="2Oxat5" node="PDjyzk_Kq4" resolve="text" />
            </node>
          </node>
        </node>
      </node>
      <node concept="3Tm1VV" id="PDjyzk_KK$" role="1B3o_S" />
      <node concept="17QB3L" id="PDjyzk_KM9" role="3clF45" />
    </node>
    <node concept="3Tm1VV" id="PDjyzk_KoB" role="1B3o_S" />
    <node concept="3uibUv" id="PDjyzk_Kph" role="1zkMxy">
      <ref role="3uigEE" node="4QUW3ee0JoW" resolve="InterpretativeCommentForRequestor" />
    </node>
  </node>
  <node concept="312cEu" id="2FjKBCOLdbt">
    <property role="TrG5h" value="HasInterpretativeComment" />
    <property role="3GE5qa" value="data" />
    <node concept="312cEg" id="2FjKBCOLdei" role="jymVt">
      <property role="34CwA1" value="false" />
      <property role="eg7rD" value="false" />
      <property role="TrG5h" value="comment" />
      <property role="3TUv4t" value="false" />
      <node concept="3Tm6S6" id="2FjKBCOLddY" role="1B3o_S" />
      <node concept="3uibUv" id="2FjKBCOLdec" role="1tU5fm">
        <ref role="3uigEE" node="4QUW3ee0Hqr" resolve="InterpretativeComment" />
      </node>
    </node>
    <node concept="2tJIrI" id="2FjKBCOLdcW" role="jymVt" />
    <node concept="3clFbW" id="2FjKBCOLdck" role="jymVt">
      <node concept="3cqZAl" id="2FjKBCOLdcm" role="3clF45" />
      <node concept="3Tm1VV" id="2FjKBCOLdcn" role="1B3o_S" />
      <node concept="3clFbS" id="2FjKBCOLdco" role="3clF47">
        <node concept="3clFbF" id="2FjKBCOLdfw" role="3cqZAp">
          <node concept="37vLTI" id="2FjKBCOLdpU" role="3clFbG">
            <node concept="37vLTw" id="2FjKBCOLdrv" role="37vLTx">
              <ref role="3cqZAo" node="2FjKBCOLde$" resolve="comment" />
            </node>
            <node concept="2OqwBi" id="2FjKBCOLdhH" role="37vLTJ">
              <node concept="Xjq3P" id="2FjKBCOLdfv" role="2Oq$k0" />
              <node concept="2OwXpG" id="2FjKBCOLdkK" role="2OqNvi">
                <ref role="2Oxat5" node="2FjKBCOLdei" resolve="comment" />
              </node>
            </node>
          </node>
        </node>
      </node>
      <node concept="37vLTG" id="2FjKBCOLde$" role="3clF46">
        <property role="TrG5h" value="comment" />
        <node concept="3uibUv" id="2FjKBCOLdez" role="1tU5fm">
          <ref role="3uigEE" node="4QUW3ee0Hqr" resolve="InterpretativeComment" />
        </node>
      </node>
    </node>
    <node concept="2tJIrI" id="2FjKBCOLdsC" role="jymVt" />
    <node concept="3clFb_" id="2FjKBCOLdxf" role="jymVt">
      <property role="1EzhhJ" value="false" />
      <property role="TrG5h" value="getComment" />
      <property role="od$2w" value="false" />
      <property role="DiZV1" value="false" />
      <property role="2aFKle" value="false" />
      <node concept="3clFbS" id="2FjKBCOLdxi" role="3clF47">
        <node concept="3cpWs6" id="2FjKBCOLdz8" role="3cqZAp">
          <node concept="2OqwBi" id="2FjKBCOLd_Q" role="3cqZAk">
            <node concept="Xjq3P" id="2FjKBCOLdzn" role="2Oq$k0" />
            <node concept="2OwXpG" id="2FjKBCOLdE3" role="2OqNvi">
              <ref role="2Oxat5" node="2FjKBCOLdei" resolve="comment" />
            </node>
          </node>
        </node>
      </node>
      <node concept="3Tm1VV" id="2FjKBCOLdvB" role="1B3o_S" />
      <node concept="3uibUv" id="2FjKBCOLdx7" role="3clF45">
        <ref role="3uigEE" node="4QUW3ee0Hqr" resolve="InterpretativeComment" />
      </node>
    </node>
    <node concept="2tJIrI" id="2FjKBCOLdFN" role="jymVt" />
    <node concept="3clFb_" id="2FjKBCOLgKd" role="jymVt">
      <property role="1EzhhJ" value="false" />
      <property role="TrG5h" value="accept" />
      <property role="od$2w" value="false" />
      <property role="DiZV1" value="false" />
      <property role="2aFKle" value="false" />
      <node concept="3Tm1VV" id="2FjKBCOLgKf" role="1B3o_S" />
      <node concept="3uibUv" id="2FjKBCOLgKg" role="3clF45">
        <ref role="3uigEE" to="8r9s:2XLt5KVsHET" resolve="LisResponse" />
        <node concept="3uibUv" id="2FjKBCOLp1W" role="11_B2D">
          <ref role="3uigEE" to="wyt6:~Boolean" resolve="Boolean" />
        </node>
      </node>
      <node concept="37vLTG" id="2FjKBCOLgKi" role="3clF46">
        <property role="TrG5h" value="visitor" />
        <node concept="3uibUv" id="2FjKBCOLgKj" role="1tU5fm">
          <ref role="3uigEE" to="8r9s:5jVYnMGKCt5" resolve="DataValueVisitor" />
        </node>
      </node>
      <node concept="3clFbS" id="2FjKBCOLgKl" role="3clF47">
        <node concept="3clFbJ" id="2FjKBCOLhoI" role="3cqZAp">
          <node concept="2ZW3vV" id="2FjKBCOLhyu" role="3clFbw">
            <node concept="3uibUv" id="2FjKBCOLiuH" role="2ZW6by">
              <ref role="3uigEE" node="2FjKBCOLimj" resolve="AutoCommentationTaskDataValueVisitor" />
            </node>
            <node concept="37vLTw" id="2FjKBCOLhpc" role="2ZW6bz">
              <ref role="3cqZAo" node="2FjKBCOLgKi" resolve="visitor" />
            </node>
          </node>
          <node concept="3clFbS" id="2FjKBCOLhoK" role="3clFbx">
            <node concept="3cpWs6" id="2FjKBCOLjhE" role="3cqZAp">
              <node concept="2OqwBi" id="2FjKBCOLj2l" role="3cqZAk">
                <node concept="1eOMI4" id="2FjKBCOLiTu" role="2Oq$k0">
                  <node concept="10QFUN" id="2FjKBCOLiGC" role="1eOMHV">
                    <node concept="3uibUv" id="2FjKBCOLiZW" role="10QFUM">
                      <ref role="3uigEE" node="2FjKBCOLimj" resolve="AutoCommentationTaskDataValueVisitor" />
                    </node>
                    <node concept="37vLTw" id="2FjKBCOLivw" role="10QFUP">
                      <ref role="3cqZAo" node="2FjKBCOLgKi" resolve="visitor" />
                    </node>
                  </node>
                </node>
                <node concept="liA8E" id="2FjKBCOLjam" role="2OqNvi">
                  <ref role="37wK5l" node="2FjKBCOLimS" resolve="visit" />
                  <node concept="Xjq3P" id="2FjKBCOLjbr" role="37wK5m" />
                </node>
              </node>
            </node>
          </node>
        </node>
        <node concept="3clFbF" id="2FjKBCOLm63" role="3cqZAp">
          <node concept="10Nm6u" id="2FjKBCOLm61" role="3clFbG" />
        </node>
      </node>
      <node concept="2AHcQZ" id="2FjKBCOLgKm" role="2AJF6D">
        <ref role="2AI5Lk" to="wyt6:~Override" resolve="Override" />
      </node>
    </node>
    <node concept="2tJIrI" id="2FjKBCOLqjB" role="jymVt" />
    <node concept="3clFb_" id="2FjKBCOLe31" role="jymVt">
      <property role="1EzhhJ" value="false" />
      <property role="TrG5h" value="hashCode" />
      <property role="DiZV1" value="false" />
      <property role="od$2w" value="false" />
      <node concept="3Tm1VV" id="2FjKBCOLe32" role="1B3o_S" />
      <node concept="10Oyi0" id="2FjKBCOLe33" role="3clF45" />
      <node concept="3clFbS" id="2FjKBCOLe34" role="3clF47">
        <node concept="3clFbF" id="2FjKBCOLe35" role="3cqZAp">
          <node concept="2YIFZM" id="2FjKBCOLe36" role="3clFbG">
            <ref role="1Pybhc" to="33ny:~Objects" resolve="Objects" />
            <ref role="37wK5l" to="33ny:~Objects.hash(java.lang.Object...):int" resolve="hash" />
            <node concept="2OqwBi" id="2FjKBCOLe37" role="37wK5m">
              <node concept="Xjq3P" id="2FjKBCOLe38" role="2Oq$k0" />
              <node concept="liA8E" id="2FjKBCOLe39" role="2OqNvi">
                <ref role="37wK5l" to="wyt6:~Object.getClass():java.lang.Class" resolve="getClass" />
              </node>
            </node>
            <node concept="37vLTw" id="2FjKBCOLf5X" role="37wK5m">
              <ref role="3cqZAo" node="2FjKBCOLdei" resolve="comment" />
            </node>
          </node>
        </node>
      </node>
      <node concept="2AHcQZ" id="2FjKBCOLe3b" role="2AJF6D">
        <ref role="2AI5Lk" to="wyt6:~Override" resolve="Override" />
      </node>
    </node>
    <node concept="2tJIrI" id="2FjKBCOLe3c" role="jymVt" />
    <node concept="3clFb_" id="2FjKBCOLe3d" role="jymVt">
      <property role="1EzhhJ" value="false" />
      <property role="TrG5h" value="equals" />
      <property role="DiZV1" value="false" />
      <property role="od$2w" value="false" />
      <node concept="3Tm1VV" id="2FjKBCOLe3e" role="1B3o_S" />
      <node concept="10P_77" id="2FjKBCOLe3f" role="3clF45" />
      <node concept="37vLTG" id="2FjKBCOLe3g" role="3clF46">
        <property role="TrG5h" value="object" />
        <node concept="3uibUv" id="2FjKBCOLe3h" role="1tU5fm">
          <ref role="3uigEE" to="wyt6:~Object" resolve="Object" />
        </node>
      </node>
      <node concept="3clFbS" id="2FjKBCOLe3i" role="3clF47">
        <node concept="3clFbJ" id="2FjKBCOLe3j" role="3cqZAp">
          <node concept="3clFbS" id="2FjKBCOLe3k" role="3clFbx">
            <node concept="3cpWs6" id="2FjKBCOLe3l" role="3cqZAp">
              <node concept="3clFbT" id="2FjKBCOLe3m" role="3cqZAk">
                <property role="3clFbU" value="true" />
              </node>
            </node>
          </node>
          <node concept="3clFbC" id="2FjKBCOLe3n" role="3clFbw">
            <node concept="Xjq3P" id="2FjKBCOLe3o" role="3uHU7B" />
            <node concept="37vLTw" id="2FjKBCOLe3p" role="3uHU7w">
              <ref role="3cqZAo" node="2FjKBCOLe3g" resolve="object" />
            </node>
          </node>
        </node>
        <node concept="3clFbJ" id="2FjKBCOLe3q" role="3cqZAp">
          <node concept="3clFbS" id="2FjKBCOLe3r" role="3clFbx">
            <node concept="3cpWs6" id="2FjKBCOLe3s" role="3cqZAp">
              <node concept="3clFbT" id="2FjKBCOLe3t" role="3cqZAk">
                <property role="3clFbU" value="false" />
              </node>
            </node>
          </node>
          <node concept="22lmx$" id="2FjKBCOLe3u" role="3clFbw">
            <node concept="3clFbC" id="2FjKBCOLe3v" role="3uHU7B">
              <node concept="10Nm6u" id="2FjKBCOLe3w" role="3uHU7w" />
              <node concept="37vLTw" id="2FjKBCOLe3x" role="3uHU7B">
                <ref role="3cqZAo" node="2FjKBCOLe3g" resolve="object" />
              </node>
            </node>
            <node concept="3y3z36" id="2FjKBCOLe3y" role="3uHU7w">
              <node concept="2OqwBi" id="2FjKBCOLe3z" role="3uHU7B">
                <node concept="Xjq3P" id="2FjKBCOLe3$" role="2Oq$k0" />
                <node concept="liA8E" id="2FjKBCOLe3_" role="2OqNvi">
                  <ref role="37wK5l" to="wyt6:~Object.getClass():java.lang.Class" resolve="getClass" />
                </node>
              </node>
              <node concept="2OqwBi" id="2FjKBCOLe3A" role="3uHU7w">
                <node concept="37vLTw" id="2FjKBCOLe3B" role="2Oq$k0">
                  <ref role="3cqZAo" node="2FjKBCOLe3g" resolve="object" />
                </node>
                <node concept="liA8E" id="2FjKBCOLe3C" role="2OqNvi">
                  <ref role="37wK5l" to="wyt6:~Object.getClass():java.lang.Class" resolve="getClass" />
                </node>
              </node>
            </node>
          </node>
        </node>
        <node concept="3cpWs8" id="2FjKBCOLe3D" role="3cqZAp">
          <node concept="3cpWsn" id="2FjKBCOLe3E" role="3cpWs9">
            <property role="TrG5h" value="other" />
            <node concept="3uibUv" id="2FjKBCOLfAY" role="1tU5fm">
              <ref role="3uigEE" node="2FjKBCOLdbt" resolve="HasInterpretativeComment" />
            </node>
            <node concept="10QFUN" id="2FjKBCOLe3G" role="33vP2m">
              <node concept="3uibUv" id="2FjKBCOLfsg" role="10QFUM">
                <ref role="3uigEE" node="2FjKBCOLdbt" resolve="HasInterpretativeComment" />
              </node>
              <node concept="37vLTw" id="2FjKBCOLe3I" role="10QFUP">
                <ref role="3cqZAo" node="2FjKBCOLe3g" resolve="object" />
              </node>
            </node>
          </node>
        </node>
        <node concept="3cpWs6" id="2FjKBCOLe3J" role="3cqZAp">
          <node concept="2YIFZM" id="2FjKBCOLe3K" role="3cqZAk">
            <ref role="37wK5l" to="33ny:~Objects.equals(java.lang.Object,java.lang.Object):boolean" resolve="equals" />
            <ref role="1Pybhc" to="33ny:~Objects" resolve="Objects" />
            <node concept="2OqwBi" id="2FjKBCOLe3L" role="37wK5m">
              <node concept="Xjq3P" id="2FjKBCOLe3M" role="2Oq$k0" />
              <node concept="2OwXpG" id="2FjKBCOLff1" role="2OqNvi">
                <ref role="2Oxat5" node="2FjKBCOLdei" resolve="comment" />
              </node>
            </node>
            <node concept="2OqwBi" id="2FjKBCOLe3O" role="37wK5m">
              <node concept="37vLTw" id="2FjKBCOLe3P" role="2Oq$k0">
                <ref role="3cqZAo" node="2FjKBCOLe3E" resolve="other" />
              </node>
              <node concept="2OwXpG" id="2FjKBCOLfOg" role="2OqNvi">
                <ref role="2Oxat5" node="2FjKBCOLdei" resolve="comment" />
              </node>
            </node>
          </node>
        </node>
      </node>
      <node concept="2AHcQZ" id="2FjKBCOLe3R" role="2AJF6D">
        <ref role="2AI5Lk" to="wyt6:~Override" resolve="Override" />
      </node>
    </node>
    <node concept="2tJIrI" id="2FjKBCOLgXU" role="jymVt" />
    <node concept="3Tm1VV" id="2FjKBCOLdbu" role="1B3o_S" />
    <node concept="3uibUv" id="2FjKBCOLoJ4" role="1zkMxy">
      <ref role="3uigEE" to="8r9s:1mAGFBLk56n" resolve="BooleanDataValue" />
    </node>
  </node>
  <node concept="3HP615" id="2FjKBCOLimj">
    <property role="TrG5h" value="AutoCommentationTaskDataValueVisitor" />
    <node concept="3clFb_" id="2FjKBCOLimS" role="jymVt">
      <property role="1EzhhJ" value="true" />
      <property role="2aFKle" value="false" />
      <property role="TrG5h" value="visit" />
      <node concept="3clFbS" id="2FjKBCOLimV" role="3clF47" />
      <node concept="3Tm1VV" id="2FjKBCOLimW" role="1B3o_S" />
      <node concept="3uibUv" id="2FjKBCOLkBw" role="3clF45">
        <ref role="3uigEE" to="8r9s:2XLt5KVsHET" resolve="LisResponse" />
        <node concept="3uibUv" id="2FjKBCOLn8T" role="11_B2D">
          <ref role="3uigEE" to="wyt6:~Boolean" resolve="Boolean" />
        </node>
      </node>
      <node concept="37vLTG" id="2FjKBCOLinh" role="3clF46">
        <property role="TrG5h" value="dataValue" />
        <node concept="3uibUv" id="2FjKBCOLing" role="1tU5fm">
          <ref role="3uigEE" node="2FjKBCOLdbt" resolve="HasInterpretativeComment" />
        </node>
      </node>
    </node>
    <node concept="3Tm1VV" id="2FjKBCOLimk" role="1B3o_S" />
    <node concept="3uibUv" id="2FjKBCOLim_" role="3HQHJm">
      <ref role="3uigEE" to="8r9s:5jVYnMGKCt5" resolve="DataValueVisitor" />
    </node>
  </node>
</model>

