<?xml version="1.0" encoding="UTF-8"?>
<model ref="00000000-0000-4000-5f02-5beb5f025beb/i:f836773(checkpoints/no.uio.mLab.shared.structure@descriptorclasses)">
  <persistence version="9" />
  <attribute name="checkpoint" value="DescriptorClasses" />
  <attribute name="generation-plan" value="AspectCPS" />
  <languages />
  <imports>
    <import index="vbok" ref="r:6cc208d3-a370-49ca-a6ac-ded97805a924(no.uio.mLab.shared.structure)" />
    <import index="ksn4" ref="6ed54515-acc8-4d1e-a16c-9fd6cfe951ea/java:jetbrains.mps.lang.smodel(MPS.Core/)" />
    <import index="c17a" ref="8865b7a8-5271-43d3-884c-6fd1d9cfdd34/java:org.jetbrains.mps.openapi.language(MPS.OpenAPI/)" />
    <import index="ze1i" ref="6ed54515-acc8-4d1e-a16c-9fd6cfe951ea/java:jetbrains.mps.smodel.runtime(MPS.Core/)" />
    <import index="e8bb" ref="6ed54515-acc8-4d1e-a16c-9fd6cfe951ea/java:jetbrains.mps.smodel.adapter.ids(MPS.Core/)" />
    <import index="33ny" ref="6354ebe7-c22a-4a0f-ac54-50b52ab9b065/java:java.util(JDK/)" />
    <import index="vndm" ref="6ed54515-acc8-4d1e-a16c-9fd6cfe951ea/java:jetbrains.mps.smodel.language(MPS.Core/)" />
    <import index="bzg8" ref="6ed54515-acc8-4d1e-a16c-9fd6cfe951ea/java:jetbrains.mps.smodel.runtime.impl(MPS.Core/)" />
    <import index="mhfm" ref="3f233e7f-b8a6-46d2-a57f-795d56775243/java:org.jetbrains.annotations(Annotations/)" />
    <import index="wyt6" ref="6354ebe7-c22a-4a0f-ac54-50b52ab9b065/java:java.lang(JDK/)" />
  </imports>
  <registry>
    <language id="f3061a53-9226-4cc5-a443-f952ceaf5816" name="jetbrains.mps.baseLanguage">
      <concept id="1215693861676" name="jetbrains.mps.baseLanguage.structure.BaseAssignmentExpression" flags="nn" index="d038R">
        <child id="1068498886297" name="rValue" index="37vLTx" />
        <child id="1068498886295" name="lValue" index="37vLTJ" />
      </concept>
      <concept id="1202948039474" name="jetbrains.mps.baseLanguage.structure.InstanceMethodCallOperation" flags="nn" index="liA8E" />
      <concept id="1465982738277781862" name="jetbrains.mps.baseLanguage.structure.PlaceholderMember" flags="ng" index="2tJIrI" />
      <concept id="1188207840427" name="jetbrains.mps.baseLanguage.structure.AnnotationInstance" flags="nn" index="2AHcQZ">
        <reference id="1188208074048" name="annotation" index="2AI5Lk" />
      </concept>
      <concept id="1188208481402" name="jetbrains.mps.baseLanguage.structure.HasAnnotation" flags="ng" index="2AJDlI">
        <child id="1188208488637" name="annotation" index="2AJF6D" />
      </concept>
      <concept id="1224848483129" name="jetbrains.mps.baseLanguage.structure.IBLDeprecatable" flags="ng" index="IEa8$">
        <property id="1224848525476" name="isDeprecated" index="IEkAT" />
      </concept>
      <concept id="1197027756228" name="jetbrains.mps.baseLanguage.structure.DotExpression" flags="nn" index="2OqwBi">
        <child id="1197027771414" name="operand" index="2Oq$k0" />
        <child id="1197027833540" name="operation" index="2OqNvi" />
      </concept>
      <concept id="1145552977093" name="jetbrains.mps.baseLanguage.structure.GenericNewExpression" flags="nn" index="2ShNRf">
        <child id="1145553007750" name="creator" index="2ShVmc" />
      </concept>
      <concept id="1070462154015" name="jetbrains.mps.baseLanguage.structure.StaticFieldDeclaration" flags="ig" index="Wx3nA">
        <property id="6468716278899126575" name="isVolatile" index="2dlcS1" />
        <property id="6468716278899125786" name="isTransient" index="2dld4O" />
      </concept>
      <concept id="1070475926800" name="jetbrains.mps.baseLanguage.structure.StringLiteral" flags="nn" index="Xl_RD">
        <property id="1070475926801" name="value" index="Xl_RC" />
      </concept>
      <concept id="1081236700938" name="jetbrains.mps.baseLanguage.structure.StaticMethodDeclaration" flags="ig" index="2YIFZL" />
      <concept id="1081236700937" name="jetbrains.mps.baseLanguage.structure.StaticMethodCall" flags="nn" index="2YIFZM">
        <reference id="1144433194310" name="classConcept" index="1Pybhc" />
      </concept>
      <concept id="1070533707846" name="jetbrains.mps.baseLanguage.structure.StaticFieldReference" flags="nn" index="10M0yZ">
        <reference id="1144433057691" name="classifier" index="1PxDUh" />
      </concept>
      <concept id="1070534058343" name="jetbrains.mps.baseLanguage.structure.NullLiteral" flags="nn" index="10Nm6u" />
      <concept id="1070534370425" name="jetbrains.mps.baseLanguage.structure.IntegerType" flags="in" index="10Oyi0" />
      <concept id="1070534934090" name="jetbrains.mps.baseLanguage.structure.CastExpression" flags="nn" index="10QFUN">
        <child id="1070534934091" name="type" index="10QFUM" />
        <child id="1070534934092" name="expression" index="10QFUP" />
      </concept>
      <concept id="1068390468200" name="jetbrains.mps.baseLanguage.structure.FieldDeclaration" flags="ig" index="312cEg">
        <property id="8606350594693632173" name="isTransient" index="eg7rD" />
        <property id="1240249534625" name="isVolatile" index="34CwA1" />
      </concept>
      <concept id="1068390468198" name="jetbrains.mps.baseLanguage.structure.ClassConcept" flags="ig" index="312cEu">
        <property id="1221565133444" name="isFinal" index="1EXbeo" />
        <child id="1165602531693" name="superclass" index="1zkMxy" />
      </concept>
      <concept id="1068431474542" name="jetbrains.mps.baseLanguage.structure.VariableDeclaration" flags="ng" index="33uBYm">
        <property id="1176718929932" name="isFinal" index="3TUv4t" />
        <child id="1068431790190" name="initializer" index="33vP2m" />
      </concept>
      <concept id="1068498886296" name="jetbrains.mps.baseLanguage.structure.VariableReference" flags="nn" index="37vLTw">
        <reference id="1068581517664" name="variableDeclaration" index="3cqZAo" />
      </concept>
      <concept id="1068498886292" name="jetbrains.mps.baseLanguage.structure.ParameterDeclaration" flags="ir" index="37vLTG" />
      <concept id="1068498886294" name="jetbrains.mps.baseLanguage.structure.AssignmentExpression" flags="nn" index="37vLTI" />
      <concept id="4972933694980447171" name="jetbrains.mps.baseLanguage.structure.BaseVariableDeclaration" flags="ng" index="19Szcq">
        <child id="5680397130376446158" name="type" index="1tU5fm" />
      </concept>
      <concept id="4269842503726207156" name="jetbrains.mps.baseLanguage.structure.LongLiteral" flags="nn" index="1adDum">
        <property id="4269842503726207157" name="value" index="1adDun" />
      </concept>
      <concept id="1068580123132" name="jetbrains.mps.baseLanguage.structure.BaseMethodDeclaration" flags="ng" index="3clF44">
        <property id="4276006055363816570" name="isSynchronized" index="od$2w" />
        <property id="1181808852946" name="isFinal" index="DiZV1" />
        <child id="1068580123133" name="returnType" index="3clF45" />
        <child id="1068580123134" name="parameter" index="3clF46" />
        <child id="1068580123135" name="body" index="3clF47" />
      </concept>
      <concept id="1068580123165" name="jetbrains.mps.baseLanguage.structure.InstanceMethodDeclaration" flags="ig" index="3clFb_">
        <property id="1178608670077" name="isAbstract" index="1EzhhJ" />
      </concept>
      <concept id="1068580123152" name="jetbrains.mps.baseLanguage.structure.EqualsExpression" flags="nn" index="3clFbC" />
      <concept id="1068580123155" name="jetbrains.mps.baseLanguage.structure.ExpressionStatement" flags="nn" index="3clFbF">
        <child id="1068580123156" name="expression" index="3clFbG" />
      </concept>
      <concept id="1068580123159" name="jetbrains.mps.baseLanguage.structure.IfStatement" flags="nn" index="3clFbJ">
        <child id="1068580123160" name="condition" index="3clFbw" />
        <child id="1068580123161" name="ifTrue" index="3clFbx" />
      </concept>
      <concept id="1068580123136" name="jetbrains.mps.baseLanguage.structure.StatementList" flags="sn" stub="5293379017992965193" index="3clFbS">
        <child id="1068581517665" name="statement" index="3cqZAp" />
      </concept>
      <concept id="1068580123140" name="jetbrains.mps.baseLanguage.structure.ConstructorDeclaration" flags="ig" index="3clFbW" />
      <concept id="1068580320020" name="jetbrains.mps.baseLanguage.structure.IntegerConstant" flags="nn" index="3cmrfG">
        <property id="1068580320021" name="value" index="3cmrfH" />
      </concept>
      <concept id="1068581242878" name="jetbrains.mps.baseLanguage.structure.ReturnStatement" flags="nn" index="3cpWs6">
        <child id="1068581517676" name="expression" index="3cqZAk" />
      </concept>
      <concept id="1068581242864" name="jetbrains.mps.baseLanguage.structure.LocalVariableDeclarationStatement" flags="nn" index="3cpWs8">
        <child id="1068581242865" name="localVariableDeclaration" index="3cpWs9" />
      </concept>
      <concept id="1068581242863" name="jetbrains.mps.baseLanguage.structure.LocalVariableDeclaration" flags="nr" index="3cpWsn" />
      <concept id="1068581517677" name="jetbrains.mps.baseLanguage.structure.VoidType" flags="in" index="3cqZAl" />
      <concept id="1204053956946" name="jetbrains.mps.baseLanguage.structure.IMethodCall" flags="ng" index="1ndlxa">
        <reference id="1068499141037" name="baseMethodDeclaration" index="37wK5l" />
        <child id="1068499141038" name="actualArgument" index="37wK5m" />
      </concept>
      <concept id="1212685548494" name="jetbrains.mps.baseLanguage.structure.ClassCreator" flags="nn" index="1pGfFk" />
      <concept id="1107461130800" name="jetbrains.mps.baseLanguage.structure.Classifier" flags="ng" index="3pOWGL">
        <child id="5375687026011219971" name="member" index="jymVt" unordered="true" />
      </concept>
      <concept id="7812454656619025416" name="jetbrains.mps.baseLanguage.structure.MethodDeclaration" flags="ng" index="1rXfSm">
        <property id="8355037393041754995" name="isNative" index="2aFKle" />
      </concept>
      <concept id="7812454656619025412" name="jetbrains.mps.baseLanguage.structure.LocalMethodCall" flags="nn" index="1rXfSq" />
      <concept id="1107535904670" name="jetbrains.mps.baseLanguage.structure.ClassifierType" flags="in" index="3uibUv">
        <reference id="1107535924139" name="classifier" index="3uigEE" />
        <child id="1109201940907" name="parameter" index="11_B2D" />
      </concept>
      <concept id="1081773326031" name="jetbrains.mps.baseLanguage.structure.BinaryOperation" flags="nn" index="3uHJSO">
        <child id="1081773367579" name="rightExpression" index="3uHU7w" />
        <child id="1081773367580" name="leftExpression" index="3uHU7B" />
      </concept>
      <concept id="1178549954367" name="jetbrains.mps.baseLanguage.structure.IVisible" flags="ng" index="1B3ioH">
        <child id="1178549979242" name="visibility" index="1B3o_S" />
      </concept>
      <concept id="1163670490218" name="jetbrains.mps.baseLanguage.structure.SwitchStatement" flags="nn" index="3KaCP$">
        <child id="1163670592366" name="defaultBlock" index="3Kb1Dw" />
        <child id="1163670766145" name="expression" index="3KbGdf" />
        <child id="1163670772911" name="case" index="3KbHQx" />
      </concept>
      <concept id="1163670641947" name="jetbrains.mps.baseLanguage.structure.SwitchCase" flags="ng" index="3KbdKl">
        <child id="1163670677455" name="expression" index="3Kbmr1" />
        <child id="1163670683720" name="body" index="3Kbo56" />
      </concept>
      <concept id="1146644602865" name="jetbrains.mps.baseLanguage.structure.PublicVisibility" flags="nn" index="3Tm1VV" />
      <concept id="1146644623116" name="jetbrains.mps.baseLanguage.structure.PrivateVisibility" flags="nn" index="3Tm6S6" />
      <concept id="1116615150612" name="jetbrains.mps.baseLanguage.structure.ClassifierClassExpression" flags="nn" index="3VsKOn">
        <reference id="1116615189566" name="classifier" index="3VsUkX" />
      </concept>
    </language>
    <language id="b401a680-8325-4110-8fd3-84331ff25bef" name="jetbrains.mps.lang.generator">
      <concept id="3864140621129707969" name="jetbrains.mps.lang.generator.structure.GeneratorDebug_Mappings" flags="nn" index="39dXUE">
        <child id="3864140621129713349" name="labels" index="39e2AI" />
      </concept>
      <concept id="3864140621129713351" name="jetbrains.mps.lang.generator.structure.GeneratorDebug_NodeMapEntry" flags="nn" index="39e2AG">
        <property id="5843998055530255671" name="isNewRoot" index="2mV_xN" />
        <child id="3864140621129713365" name="outputNode" index="39e2AY" />
      </concept>
      <concept id="3864140621129713348" name="jetbrains.mps.lang.generator.structure.GeneratorDebug_LabelEntry" flags="nn" index="39e2AJ">
        <property id="3864140621129715945" name="label" index="39e3Y2" />
        <child id="3864140621129715947" name="entries" index="39e3Y0" />
      </concept>
      <concept id="3864140621129713362" name="jetbrains.mps.lang.generator.structure.GeneratorDebug_NodeRef" flags="nn" index="39e2AT">
        <reference id="3864140621129713363" name="node" index="39e2AS" />
      </concept>
    </language>
    <language id="ceab5195-25ea-4f22-9b92-103b95ca8c0c" name="jetbrains.mps.lang.core">
      <concept id="1169194658468" name="jetbrains.mps.lang.core.structure.INamedConcept" flags="ng" index="TrEIO">
        <property id="1169194664001" name="name" index="TrG5h" />
      </concept>
    </language>
  </registry>
  <node concept="312cEu" id="0">
    <property role="TrG5h" value="ConceptPresentationAspectImpl" />
    <node concept="3uibUv" id="1" role="1zkMxy">
      <ref role="3uigEE" to="ze1i:~ConceptPresentationAspectBase" resolve="ConceptPresentationAspectBase" />
    </node>
    <node concept="312cEg" id="2" role="jymVt">
      <property role="eg7rD" value="false" />
      <property role="34CwA1" value="false" />
      <property role="3TUv4t" value="false" />
      <property role="TrG5h" value="props_IHasUnit" />
      <node concept="3uibUv" id="9" role="1tU5fm">
        <ref role="3uigEE" to="ze1i:~ConceptPresentation" resolve="ConceptPresentation" />
      </node>
      <node concept="3Tm6S6" id="a" role="1B3o_S" />
    </node>
    <node concept="312cEg" id="3" role="jymVt">
      <property role="eg7rD" value="false" />
      <property role="34CwA1" value="false" />
      <property role="3TUv4t" value="false" />
      <property role="TrG5h" value="props_IReferrableConcept" />
      <node concept="3uibUv" id="b" role="1tU5fm">
        <ref role="3uigEE" to="ze1i:~ConceptPresentation" resolve="ConceptPresentation" />
      </node>
      <node concept="3Tm6S6" id="c" role="1B3o_S" />
    </node>
    <node concept="312cEg" id="4" role="jymVt">
      <property role="eg7rD" value="false" />
      <property role="34CwA1" value="false" />
      <property role="3TUv4t" value="false" />
      <property role="TrG5h" value="props_IShowableConcept" />
      <node concept="3uibUv" id="d" role="1tU5fm">
        <ref role="3uigEE" to="ze1i:~ConceptPresentation" resolve="ConceptPresentation" />
      </node>
      <node concept="3Tm6S6" id="e" role="1B3o_S" />
    </node>
    <node concept="312cEg" id="5" role="jymVt">
      <property role="eg7rD" value="false" />
      <property role="34CwA1" value="false" />
      <property role="3TUv4t" value="false" />
      <property role="TrG5h" value="props_ITranslatableConcept" />
      <node concept="3uibUv" id="f" role="1tU5fm">
        <ref role="3uigEE" to="ze1i:~ConceptPresentation" resolve="ConceptPresentation" />
      </node>
      <node concept="3Tm6S6" id="g" role="1B3o_S" />
    </node>
    <node concept="3Tm1VV" id="6" role="1B3o_S" />
    <node concept="2tJIrI" id="7" role="jymVt" />
    <node concept="3clFb_" id="8" role="jymVt">
      <property role="IEkAT" value="false" />
      <property role="1EzhhJ" value="false" />
      <property role="TrG5h" value="getDescriptor" />
      <property role="DiZV1" value="false" />
      <node concept="3Tm1VV" id="h" role="1B3o_S" />
      <node concept="37vLTG" id="i" role="3clF46">
        <property role="TrG5h" value="c" />
        <node concept="3uibUv" id="n" role="1tU5fm">
          <ref role="3uigEE" to="c17a:~SAbstractConcept" resolve="SAbstractConcept" />
        </node>
      </node>
      <node concept="3clFbS" id="j" role="3clF47">
        <node concept="3cpWs8" id="o" role="3cqZAp">
          <node concept="3cpWsn" id="r" role="3cpWs9">
            <property role="TrG5h" value="structureDescriptor" />
            <node concept="3uibUv" id="s" role="1tU5fm">
              <ref role="3uigEE" node="3p" resolve="StructureAspectDescriptor" />
            </node>
            <node concept="10QFUN" id="t" role="33vP2m">
              <node concept="3uibUv" id="u" role="10QFUM">
                <ref role="3uigEE" node="3p" resolve="StructureAspectDescriptor" />
              </node>
              <node concept="2OqwBi" id="v" role="10QFUP">
                <node concept="37vLTw" id="w" role="2Oq$k0">
                  <ref role="3cqZAo" to="ze1i:~ConceptPresentationAspectBase.myLanguageRuntime" resolve="myLanguageRuntime" />
                </node>
                <node concept="liA8E" id="x" role="2OqNvi">
                  <ref role="37wK5l" to="vndm:~LanguageRuntime.getAspect(java.lang.Class):jetbrains.mps.smodel.runtime.ILanguageAspect" resolve="getAspect" />
                  <node concept="3VsKOn" id="y" role="37wK5m">
                    <ref role="3VsUkX" to="ze1i:~StructureAspectDescriptor" resolve="StructureAspectDescriptor" />
                  </node>
                </node>
              </node>
            </node>
          </node>
        </node>
        <node concept="3KaCP$" id="p" role="3cqZAp">
          <node concept="2OqwBi" id="z" role="3KbGdf">
            <node concept="37vLTw" id="C" role="2Oq$k0">
              <ref role="3cqZAo" node="r" resolve="structureDescriptor" />
            </node>
            <node concept="liA8E" id="D" role="2OqNvi">
              <ref role="37wK5l" node="3C" resolve="internalIndex" />
              <node concept="37vLTw" id="E" role="37wK5m">
                <ref role="3cqZAo" node="i" resolve="c" />
              </node>
            </node>
          </node>
          <node concept="3KbdKl" id="$" role="3KbHQx">
            <node concept="3clFbS" id="F" role="3Kbo56">
              <node concept="3clFbJ" id="H" role="3cqZAp">
                <node concept="3clFbS" id="J" role="3clFbx">
                  <node concept="3cpWs8" id="L" role="3cqZAp">
                    <node concept="3cpWsn" id="N" role="3cpWs9">
                      <property role="TrG5h" value="cpb" />
                      <node concept="3uibUv" id="O" role="1tU5fm">
                        <ref role="3uigEE" to="ze1i:~ConceptPresentationBuilder" resolve="ConceptPresentationBuilder" />
                      </node>
                      <node concept="2ShNRf" id="P" role="33vP2m">
                        <node concept="1pGfFk" id="Q" role="2ShVmc">
                          <ref role="37wK5l" to="ze1i:~ConceptPresentationBuilder.&lt;init&gt;()" resolve="ConceptPresentationBuilder" />
                        </node>
                      </node>
                    </node>
                  </node>
                  <node concept="3clFbF" id="M" role="3cqZAp">
                    <node concept="37vLTI" id="R" role="3clFbG">
                      <node concept="2OqwBi" id="S" role="37vLTx">
                        <node concept="37vLTw" id="U" role="2Oq$k0">
                          <ref role="3cqZAo" node="N" resolve="cpb" />
                        </node>
                        <node concept="liA8E" id="V" role="2OqNvi">
                          <ref role="37wK5l" to="ze1i:~ConceptPresentationBuilder.create():jetbrains.mps.smodel.runtime.ConceptPresentation" resolve="create" />
                        </node>
                      </node>
                      <node concept="37vLTw" id="T" role="37vLTJ">
                        <ref role="3cqZAo" node="2" resolve="props_IHasUnit" />
                      </node>
                    </node>
                  </node>
                </node>
                <node concept="3clFbC" id="K" role="3clFbw">
                  <node concept="10Nm6u" id="W" role="3uHU7w" />
                  <node concept="37vLTw" id="X" role="3uHU7B">
                    <ref role="3cqZAo" node="2" resolve="props_IHasUnit" />
                  </node>
                </node>
              </node>
              <node concept="3cpWs6" id="I" role="3cqZAp">
                <node concept="37vLTw" id="Y" role="3cqZAk">
                  <ref role="3cqZAo" node="2" resolve="props_IHasUnit" />
                </node>
              </node>
            </node>
            <node concept="10M0yZ" id="G" role="3Kbmr1">
              <ref role="1PxDUh" node="23" resolve="LanguageConceptSwitch" />
              <ref role="3cqZAo" node="25" resolve="IHasUnit" />
            </node>
          </node>
          <node concept="3KbdKl" id="_" role="3KbHQx">
            <node concept="3clFbS" id="Z" role="3Kbo56">
              <node concept="3clFbJ" id="11" role="3cqZAp">
                <node concept="3clFbS" id="13" role="3clFbx">
                  <node concept="3cpWs8" id="15" role="3cqZAp">
                    <node concept="3cpWsn" id="17" role="3cpWs9">
                      <property role="TrG5h" value="cpb" />
                      <node concept="3uibUv" id="18" role="1tU5fm">
                        <ref role="3uigEE" to="ze1i:~ConceptPresentationBuilder" resolve="ConceptPresentationBuilder" />
                      </node>
                      <node concept="2ShNRf" id="19" role="33vP2m">
                        <node concept="1pGfFk" id="1a" role="2ShVmc">
                          <ref role="37wK5l" to="ze1i:~ConceptPresentationBuilder.&lt;init&gt;()" resolve="ConceptPresentationBuilder" />
                        </node>
                      </node>
                    </node>
                  </node>
                  <node concept="3clFbF" id="16" role="3cqZAp">
                    <node concept="37vLTI" id="1b" role="3clFbG">
                      <node concept="2OqwBi" id="1c" role="37vLTx">
                        <node concept="37vLTw" id="1e" role="2Oq$k0">
                          <ref role="3cqZAo" node="17" resolve="cpb" />
                        </node>
                        <node concept="liA8E" id="1f" role="2OqNvi">
                          <ref role="37wK5l" to="ze1i:~ConceptPresentationBuilder.create():jetbrains.mps.smodel.runtime.ConceptPresentation" resolve="create" />
                        </node>
                      </node>
                      <node concept="37vLTw" id="1d" role="37vLTJ">
                        <ref role="3cqZAo" node="3" resolve="props_IReferrableConcept" />
                      </node>
                    </node>
                  </node>
                </node>
                <node concept="3clFbC" id="14" role="3clFbw">
                  <node concept="10Nm6u" id="1g" role="3uHU7w" />
                  <node concept="37vLTw" id="1h" role="3uHU7B">
                    <ref role="3cqZAo" node="3" resolve="props_IReferrableConcept" />
                  </node>
                </node>
              </node>
              <node concept="3cpWs6" id="12" role="3cqZAp">
                <node concept="37vLTw" id="1i" role="3cqZAk">
                  <ref role="3cqZAo" node="3" resolve="props_IReferrableConcept" />
                </node>
              </node>
            </node>
            <node concept="10M0yZ" id="10" role="3Kbmr1">
              <ref role="1PxDUh" node="23" resolve="LanguageConceptSwitch" />
              <ref role="3cqZAo" node="26" resolve="IReferrableConcept" />
            </node>
          </node>
          <node concept="3KbdKl" id="A" role="3KbHQx">
            <node concept="3clFbS" id="1j" role="3Kbo56">
              <node concept="3clFbJ" id="1l" role="3cqZAp">
                <node concept="3clFbS" id="1n" role="3clFbx">
                  <node concept="3cpWs8" id="1p" role="3cqZAp">
                    <node concept="3cpWsn" id="1r" role="3cpWs9">
                      <property role="TrG5h" value="cpb" />
                      <node concept="3uibUv" id="1s" role="1tU5fm">
                        <ref role="3uigEE" to="ze1i:~ConceptPresentationBuilder" resolve="ConceptPresentationBuilder" />
                      </node>
                      <node concept="2ShNRf" id="1t" role="33vP2m">
                        <node concept="1pGfFk" id="1u" role="2ShVmc">
                          <ref role="37wK5l" to="ze1i:~ConceptPresentationBuilder.&lt;init&gt;()" resolve="ConceptPresentationBuilder" />
                        </node>
                      </node>
                    </node>
                  </node>
                  <node concept="3clFbF" id="1q" role="3cqZAp">
                    <node concept="37vLTI" id="1v" role="3clFbG">
                      <node concept="2OqwBi" id="1w" role="37vLTx">
                        <node concept="37vLTw" id="1y" role="2Oq$k0">
                          <ref role="3cqZAo" node="1r" resolve="cpb" />
                        </node>
                        <node concept="liA8E" id="1z" role="2OqNvi">
                          <ref role="37wK5l" to="ze1i:~ConceptPresentationBuilder.create():jetbrains.mps.smodel.runtime.ConceptPresentation" resolve="create" />
                        </node>
                      </node>
                      <node concept="37vLTw" id="1x" role="37vLTJ">
                        <ref role="3cqZAo" node="4" resolve="props_IShowableConcept" />
                      </node>
                    </node>
                  </node>
                </node>
                <node concept="3clFbC" id="1o" role="3clFbw">
                  <node concept="10Nm6u" id="1$" role="3uHU7w" />
                  <node concept="37vLTw" id="1_" role="3uHU7B">
                    <ref role="3cqZAo" node="4" resolve="props_IShowableConcept" />
                  </node>
                </node>
              </node>
              <node concept="3cpWs6" id="1m" role="3cqZAp">
                <node concept="37vLTw" id="1A" role="3cqZAk">
                  <ref role="3cqZAo" node="4" resolve="props_IShowableConcept" />
                </node>
              </node>
            </node>
            <node concept="10M0yZ" id="1k" role="3Kbmr1">
              <ref role="1PxDUh" node="23" resolve="LanguageConceptSwitch" />
              <ref role="3cqZAo" node="27" resolve="IShowableConcept" />
            </node>
          </node>
          <node concept="3KbdKl" id="B" role="3KbHQx">
            <node concept="3clFbS" id="1B" role="3Kbo56">
              <node concept="3clFbJ" id="1D" role="3cqZAp">
                <node concept="3clFbS" id="1F" role="3clFbx">
                  <node concept="3cpWs8" id="1H" role="3cqZAp">
                    <node concept="3cpWsn" id="1J" role="3cpWs9">
                      <property role="TrG5h" value="cpb" />
                      <node concept="3uibUv" id="1K" role="1tU5fm">
                        <ref role="3uigEE" to="ze1i:~ConceptPresentationBuilder" resolve="ConceptPresentationBuilder" />
                      </node>
                      <node concept="2ShNRf" id="1L" role="33vP2m">
                        <node concept="1pGfFk" id="1M" role="2ShVmc">
                          <ref role="37wK5l" to="ze1i:~ConceptPresentationBuilder.&lt;init&gt;()" resolve="ConceptPresentationBuilder" />
                        </node>
                      </node>
                    </node>
                  </node>
                  <node concept="3clFbF" id="1I" role="3cqZAp">
                    <node concept="37vLTI" id="1N" role="3clFbG">
                      <node concept="2OqwBi" id="1O" role="37vLTx">
                        <node concept="37vLTw" id="1Q" role="2Oq$k0">
                          <ref role="3cqZAo" node="1J" resolve="cpb" />
                        </node>
                        <node concept="liA8E" id="1R" role="2OqNvi">
                          <ref role="37wK5l" to="ze1i:~ConceptPresentationBuilder.create():jetbrains.mps.smodel.runtime.ConceptPresentation" resolve="create" />
                        </node>
                      </node>
                      <node concept="37vLTw" id="1P" role="37vLTJ">
                        <ref role="3cqZAo" node="5" resolve="props_ITranslatableConcept" />
                      </node>
                    </node>
                  </node>
                </node>
                <node concept="3clFbC" id="1G" role="3clFbw">
                  <node concept="10Nm6u" id="1S" role="3uHU7w" />
                  <node concept="37vLTw" id="1T" role="3uHU7B">
                    <ref role="3cqZAo" node="5" resolve="props_ITranslatableConcept" />
                  </node>
                </node>
              </node>
              <node concept="3cpWs6" id="1E" role="3cqZAp">
                <node concept="37vLTw" id="1U" role="3cqZAk">
                  <ref role="3cqZAo" node="5" resolve="props_ITranslatableConcept" />
                </node>
              </node>
            </node>
            <node concept="10M0yZ" id="1C" role="3Kbmr1">
              <ref role="1PxDUh" node="23" resolve="LanguageConceptSwitch" />
              <ref role="3cqZAo" node="28" resolve="ITranslatableConcept" />
            </node>
          </node>
        </node>
        <node concept="3cpWs6" id="q" role="3cqZAp">
          <node concept="10Nm6u" id="1V" role="3cqZAk" />
        </node>
      </node>
      <node concept="3uibUv" id="k" role="3clF45">
        <ref role="3uigEE" to="ze1i:~ConceptPresentation" resolve="ConceptPresentation" />
      </node>
      <node concept="2AHcQZ" id="l" role="2AJF6D">
        <ref role="2AI5Lk" to="wyt6:~Override" resolve="Override" />
      </node>
      <node concept="2AHcQZ" id="m" role="2AJF6D">
        <ref role="2AI5Lk" to="mhfm:~Nullable" resolve="Nullable" />
      </node>
    </node>
  </node>
  <node concept="39dXUE" id="1W">
    <node concept="39e2AJ" id="1X" role="39e2AI">
      <property role="39e3Y2" value="ConceptPresentationAspectClass" />
      <node concept="39e2AG" id="1Z" role="39e3Y0">
        <property role="2mV_xN" value="true" />
        <node concept="39e2AT" id="20" role="39e2AY">
          <ref role="39e2AS" node="0" resolve="ConceptPresentationAspectImpl" />
        </node>
      </node>
    </node>
    <node concept="39e2AJ" id="1Y" role="39e2AI">
      <property role="39e3Y2" value="StructureAspectDescriptorCons" />
      <node concept="39e2AG" id="21" role="39e3Y0">
        <property role="2mV_xN" value="true" />
        <node concept="39e2AT" id="22" role="39e2AY">
          <ref role="39e2AS" node="3y" resolve="StructureAspectDescriptor" />
        </node>
      </node>
    </node>
  </node>
  <node concept="312cEu" id="23">
    <property role="TrG5h" value="LanguageConceptSwitch" />
    <property role="1EXbeo" value="true" />
    <node concept="312cEg" id="24" role="jymVt">
      <property role="34CwA1" value="false" />
      <property role="eg7rD" value="false" />
      <property role="TrG5h" value="myIndex" />
      <property role="3TUv4t" value="true" />
      <node concept="3Tm6S6" id="2g" role="1B3o_S" />
      <node concept="3uibUv" id="2h" role="1tU5fm">
        <ref role="3uigEE" to="ksn4:~LanguageConceptIndex" resolve="LanguageConceptIndex" />
      </node>
    </node>
    <node concept="Wx3nA" id="25" role="jymVt">
      <property role="2dlcS1" value="false" />
      <property role="2dld4O" value="false" />
      <property role="3TUv4t" value="true" />
      <property role="TrG5h" value="IHasUnit" />
      <node concept="3Tm1VV" id="2i" role="1B3o_S" />
      <node concept="10Oyi0" id="2j" role="1tU5fm" />
      <node concept="3cmrfG" id="2k" role="33vP2m">
        <property role="3cmrfH" value="0" />
      </node>
    </node>
    <node concept="Wx3nA" id="26" role="jymVt">
      <property role="2dlcS1" value="false" />
      <property role="2dld4O" value="false" />
      <property role="3TUv4t" value="true" />
      <property role="TrG5h" value="IReferrableConcept" />
      <node concept="3Tm1VV" id="2l" role="1B3o_S" />
      <node concept="10Oyi0" id="2m" role="1tU5fm" />
      <node concept="3cmrfG" id="2n" role="33vP2m">
        <property role="3cmrfH" value="1" />
      </node>
    </node>
    <node concept="Wx3nA" id="27" role="jymVt">
      <property role="2dlcS1" value="false" />
      <property role="2dld4O" value="false" />
      <property role="3TUv4t" value="true" />
      <property role="TrG5h" value="IShowableConcept" />
      <node concept="3Tm1VV" id="2o" role="1B3o_S" />
      <node concept="10Oyi0" id="2p" role="1tU5fm" />
      <node concept="3cmrfG" id="2q" role="33vP2m">
        <property role="3cmrfH" value="2" />
      </node>
    </node>
    <node concept="Wx3nA" id="28" role="jymVt">
      <property role="2dlcS1" value="false" />
      <property role="2dld4O" value="false" />
      <property role="3TUv4t" value="true" />
      <property role="TrG5h" value="ITranslatableConcept" />
      <node concept="3Tm1VV" id="2r" role="1B3o_S" />
      <node concept="10Oyi0" id="2s" role="1tU5fm" />
      <node concept="3cmrfG" id="2t" role="33vP2m">
        <property role="3cmrfH" value="3" />
      </node>
    </node>
    <node concept="2tJIrI" id="29" role="jymVt" />
    <node concept="3clFbW" id="2a" role="jymVt">
      <node concept="3cqZAl" id="2u" role="3clF45" />
      <node concept="3Tm1VV" id="2v" role="1B3o_S" />
      <node concept="3clFbS" id="2w" role="3clF47">
        <node concept="3cpWs8" id="2x" role="3cqZAp">
          <node concept="3cpWsn" id="2B" role="3cpWs9">
            <property role="TrG5h" value="builder" />
            <node concept="3uibUv" id="2C" role="1tU5fm">
              <ref role="3uigEE" to="ksn4:~LanguageConceptIndexBuilder" resolve="LanguageConceptIndexBuilder" />
            </node>
            <node concept="2ShNRf" id="2D" role="33vP2m">
              <node concept="1pGfFk" id="2E" role="2ShVmc">
                <ref role="37wK5l" to="ksn4:~LanguageConceptIndexBuilder.&lt;init&gt;(long,long)" resolve="LanguageConceptIndexBuilder" />
                <node concept="1adDum" id="2F" role="37wK5m">
                  <property role="1adDun" value="0x6adcef385cdc48dcL" />
                </node>
                <node concept="1adDum" id="2G" role="37wK5m">
                  <property role="1adDun" value="0xb225be76276615fdL" />
                </node>
              </node>
            </node>
          </node>
        </node>
        <node concept="3clFbF" id="2y" role="3cqZAp">
          <node concept="2OqwBi" id="2H" role="3clFbG">
            <node concept="37vLTw" id="2I" role="2Oq$k0">
              <ref role="3cqZAo" node="2B" resolve="builder" />
            </node>
            <node concept="liA8E" id="2J" role="2OqNvi">
              <ref role="37wK5l" to="ksn4:~LanguageConceptIndexBuilder.put(long,int):jetbrains.mps.lang.smodel.LanguageConceptIndexBuilder" resolve="put" />
              <node concept="1adDum" id="2K" role="37wK5m">
                <property role="1adDun" value="0x757ea1a45e4d715eL" />
              </node>
              <node concept="37vLTw" id="2L" role="37wK5m">
                <ref role="3cqZAo" node="25" resolve="IHasUnit" />
              </node>
            </node>
          </node>
        </node>
        <node concept="3clFbF" id="2z" role="3cqZAp">
          <node concept="2OqwBi" id="2M" role="3clFbG">
            <node concept="37vLTw" id="2N" role="2Oq$k0">
              <ref role="3cqZAo" node="2B" resolve="builder" />
            </node>
            <node concept="liA8E" id="2O" role="2OqNvi">
              <ref role="37wK5l" to="ksn4:~LanguageConceptIndexBuilder.put(long,int):jetbrains.mps.lang.smodel.LanguageConceptIndexBuilder" resolve="put" />
              <node concept="1adDum" id="2P" role="37wK5m">
                <property role="1adDun" value="0x4dbaf0338fb1e303L" />
              </node>
              <node concept="37vLTw" id="2Q" role="37wK5m">
                <ref role="3cqZAo" node="26" resolve="IReferrableConcept" />
              </node>
            </node>
          </node>
        </node>
        <node concept="3clFbF" id="2$" role="3cqZAp">
          <node concept="2OqwBi" id="2R" role="3clFbG">
            <node concept="37vLTw" id="2S" role="2Oq$k0">
              <ref role="3cqZAo" node="2B" resolve="builder" />
            </node>
            <node concept="liA8E" id="2T" role="2OqNvi">
              <ref role="37wK5l" to="ksn4:~LanguageConceptIndexBuilder.put(long,int):jetbrains.mps.lang.smodel.LanguageConceptIndexBuilder" resolve="put" />
              <node concept="1adDum" id="2U" role="37wK5m">
                <property role="1adDun" value="0x4249b170a9b34a0cL" />
              </node>
              <node concept="37vLTw" id="2V" role="37wK5m">
                <ref role="3cqZAo" node="27" resolve="IShowableConcept" />
              </node>
            </node>
          </node>
        </node>
        <node concept="3clFbF" id="2_" role="3cqZAp">
          <node concept="2OqwBi" id="2W" role="3clFbG">
            <node concept="37vLTw" id="2X" role="2Oq$k0">
              <ref role="3cqZAo" node="2B" resolve="builder" />
            </node>
            <node concept="liA8E" id="2Y" role="2OqNvi">
              <ref role="37wK5l" to="ksn4:~LanguageConceptIndexBuilder.put(long,int):jetbrains.mps.lang.smodel.LanguageConceptIndexBuilder" resolve="put" />
              <node concept="1adDum" id="2Z" role="37wK5m">
                <property role="1adDun" value="0x5f0f3639007cc07fL" />
              </node>
              <node concept="37vLTw" id="30" role="37wK5m">
                <ref role="3cqZAo" node="28" resolve="ITranslatableConcept" />
              </node>
            </node>
          </node>
        </node>
        <node concept="3clFbF" id="2A" role="3cqZAp">
          <node concept="37vLTI" id="31" role="3clFbG">
            <node concept="2OqwBi" id="32" role="37vLTx">
              <node concept="37vLTw" id="34" role="2Oq$k0">
                <ref role="3cqZAo" node="2B" resolve="builder" />
              </node>
              <node concept="liA8E" id="35" role="2OqNvi">
                <ref role="37wK5l" to="ksn4:~LanguageConceptIndexBuilder.seal():jetbrains.mps.lang.smodel.LanguageConceptIndex" resolve="seal" />
              </node>
            </node>
            <node concept="37vLTw" id="33" role="37vLTJ">
              <ref role="3cqZAo" node="24" resolve="myIndex" />
            </node>
          </node>
        </node>
      </node>
    </node>
    <node concept="2tJIrI" id="2b" role="jymVt" />
    <node concept="3clFb_" id="2c" role="jymVt">
      <property role="TrG5h" value="index" />
      <node concept="10Oyi0" id="36" role="3clF45" />
      <node concept="3clFbS" id="37" role="3clF47">
        <node concept="3cpWs6" id="39" role="3cqZAp">
          <node concept="2OqwBi" id="3a" role="3cqZAk">
            <node concept="37vLTw" id="3b" role="2Oq$k0">
              <ref role="3cqZAo" node="24" resolve="myIndex" />
            </node>
            <node concept="liA8E" id="3c" role="2OqNvi">
              <ref role="37wK5l" to="ksn4:~LanguageConceptIndex.index(jetbrains.mps.smodel.adapter.ids.SConceptId):int" resolve="index" />
              <node concept="37vLTw" id="3d" role="37wK5m">
                <ref role="3cqZAo" node="38" resolve="cid" />
              </node>
            </node>
          </node>
        </node>
      </node>
      <node concept="37vLTG" id="38" role="3clF46">
        <property role="TrG5h" value="cid" />
        <node concept="3uibUv" id="3e" role="1tU5fm">
          <ref role="3uigEE" to="e8bb:~SConceptId" resolve="SConceptId" />
        </node>
      </node>
    </node>
    <node concept="2tJIrI" id="2d" role="jymVt" />
    <node concept="3clFb_" id="2e" role="jymVt">
      <property role="TrG5h" value="index" />
      <node concept="10Oyi0" id="3f" role="3clF45" />
      <node concept="3Tm1VV" id="3g" role="1B3o_S" />
      <node concept="3clFbS" id="3h" role="3clF47">
        <node concept="3cpWs6" id="3j" role="3cqZAp">
          <node concept="2OqwBi" id="3k" role="3cqZAk">
            <node concept="37vLTw" id="3l" role="2Oq$k0">
              <ref role="3cqZAo" node="24" resolve="myIndex" />
            </node>
            <node concept="liA8E" id="3m" role="2OqNvi">
              <ref role="37wK5l" to="ksn4:~ConceptIndex.index(org.jetbrains.mps.openapi.language.SAbstractConcept):int" resolve="index" />
              <node concept="37vLTw" id="3n" role="37wK5m">
                <ref role="3cqZAo" node="3i" resolve="concept" />
              </node>
            </node>
          </node>
        </node>
      </node>
      <node concept="37vLTG" id="3i" role="3clF46">
        <property role="TrG5h" value="concept" />
        <node concept="3uibUv" id="3o" role="1tU5fm">
          <ref role="3uigEE" to="c17a:~SAbstractConcept" resolve="SAbstractConcept" />
        </node>
      </node>
    </node>
    <node concept="3Tm1VV" id="2f" role="1B3o_S" />
  </node>
  <node concept="312cEu" id="3p">
    <property role="TrG5h" value="StructureAspectDescriptor" />
    <node concept="3uibUv" id="3q" role="1zkMxy">
      <ref role="3uigEE" to="ze1i:~BaseStructureAspectDescriptor" resolve="BaseStructureAspectDescriptor" />
    </node>
    <node concept="312cEg" id="3r" role="jymVt">
      <property role="eg7rD" value="false" />
      <property role="34CwA1" value="false" />
      <property role="3TUv4t" value="true" />
      <property role="TrG5h" value="myConceptIHasUnit" />
      <node concept="3uibUv" id="3I" role="1tU5fm">
        <ref role="3uigEE" to="ze1i:~ConceptDescriptor" resolve="ConceptDescriptor" />
      </node>
      <node concept="1rXfSq" id="3J" role="33vP2m">
        <ref role="37wK5l" node="3E" resolve="createDescriptorForIHasUnit" />
      </node>
    </node>
    <node concept="312cEg" id="3s" role="jymVt">
      <property role="eg7rD" value="false" />
      <property role="34CwA1" value="false" />
      <property role="3TUv4t" value="true" />
      <property role="TrG5h" value="myConceptIReferrableConcept" />
      <node concept="3uibUv" id="3K" role="1tU5fm">
        <ref role="3uigEE" to="ze1i:~ConceptDescriptor" resolve="ConceptDescriptor" />
      </node>
      <node concept="1rXfSq" id="3L" role="33vP2m">
        <ref role="37wK5l" node="3F" resolve="createDescriptorForIReferrableConcept" />
      </node>
    </node>
    <node concept="312cEg" id="3t" role="jymVt">
      <property role="eg7rD" value="false" />
      <property role="34CwA1" value="false" />
      <property role="3TUv4t" value="true" />
      <property role="TrG5h" value="myConceptIShowableConcept" />
      <node concept="3uibUv" id="3M" role="1tU5fm">
        <ref role="3uigEE" to="ze1i:~ConceptDescriptor" resolve="ConceptDescriptor" />
      </node>
      <node concept="1rXfSq" id="3N" role="33vP2m">
        <ref role="37wK5l" node="3G" resolve="createDescriptorForIShowableConcept" />
      </node>
    </node>
    <node concept="312cEg" id="3u" role="jymVt">
      <property role="eg7rD" value="false" />
      <property role="34CwA1" value="false" />
      <property role="3TUv4t" value="true" />
      <property role="TrG5h" value="myConceptITranslatableConcept" />
      <node concept="3uibUv" id="3O" role="1tU5fm">
        <ref role="3uigEE" to="ze1i:~ConceptDescriptor" resolve="ConceptDescriptor" />
      </node>
      <node concept="1rXfSq" id="3P" role="33vP2m">
        <ref role="37wK5l" node="3H" resolve="createDescriptorForITranslatableConcept" />
      </node>
    </node>
    <node concept="312cEg" id="3v" role="jymVt">
      <property role="TrG5h" value="myIndexSwitch" />
      <property role="3TUv4t" value="true" />
      <node concept="3Tm6S6" id="3Q" role="1B3o_S" />
      <node concept="3uibUv" id="3R" role="1tU5fm">
        <ref role="3uigEE" node="23" resolve="LanguageConceptSwitch" />
      </node>
    </node>
    <node concept="3Tm1VV" id="3w" role="1B3o_S" />
    <node concept="2tJIrI" id="3x" role="jymVt" />
    <node concept="3clFbW" id="3y" role="jymVt">
      <node concept="3cqZAl" id="3S" role="3clF45" />
      <node concept="3Tm1VV" id="3T" role="1B3o_S" />
      <node concept="3clFbS" id="3U" role="3clF47">
        <node concept="3clFbF" id="3V" role="3cqZAp">
          <node concept="37vLTI" id="3W" role="3clFbG">
            <node concept="2ShNRf" id="3X" role="37vLTx">
              <node concept="1pGfFk" id="3Z" role="2ShVmc">
                <ref role="37wK5l" node="2a" resolve="LanguageConceptSwitch" />
              </node>
            </node>
            <node concept="37vLTw" id="3Y" role="37vLTJ">
              <ref role="3cqZAo" node="3v" resolve="myIndexSwitch" />
            </node>
          </node>
        </node>
      </node>
    </node>
    <node concept="2tJIrI" id="3z" role="jymVt" />
    <node concept="3clFb_" id="3$" role="jymVt">
      <property role="1EzhhJ" value="false" />
      <property role="od$2w" value="false" />
      <property role="TrG5h" value="getDescriptors" />
      <property role="DiZV1" value="false" />
      <node concept="3clFbS" id="40" role="3clF47">
        <node concept="3cpWs6" id="44" role="3cqZAp">
          <node concept="2YIFZM" id="45" role="3cqZAk">
            <ref role="1Pybhc" to="33ny:~Arrays" resolve="Arrays" />
            <ref role="37wK5l" to="33ny:~Arrays.asList(java.lang.Object...):java.util.List" resolve="asList" />
            <node concept="37vLTw" id="46" role="37wK5m">
              <ref role="3cqZAo" node="3r" resolve="myConceptIHasUnit" />
            </node>
            <node concept="37vLTw" id="47" role="37wK5m">
              <ref role="3cqZAo" node="3s" resolve="myConceptIReferrableConcept" />
            </node>
            <node concept="37vLTw" id="48" role="37wK5m">
              <ref role="3cqZAo" node="3t" resolve="myConceptIShowableConcept" />
            </node>
            <node concept="37vLTw" id="49" role="37wK5m">
              <ref role="3cqZAo" node="3u" resolve="myConceptITranslatableConcept" />
            </node>
          </node>
        </node>
      </node>
      <node concept="3Tm1VV" id="41" role="1B3o_S" />
      <node concept="3uibUv" id="42" role="3clF45">
        <ref role="3uigEE" to="33ny:~Collection" resolve="Collection" />
        <node concept="3uibUv" id="4a" role="11_B2D">
          <ref role="3uigEE" to="ze1i:~ConceptDescriptor" resolve="ConceptDescriptor" />
        </node>
      </node>
      <node concept="2AHcQZ" id="43" role="2AJF6D">
        <ref role="2AI5Lk" to="wyt6:~Override" resolve="Override" />
      </node>
    </node>
    <node concept="2tJIrI" id="3_" role="jymVt" />
    <node concept="3clFb_" id="3A" role="jymVt">
      <property role="IEkAT" value="false" />
      <property role="1EzhhJ" value="false" />
      <property role="TrG5h" value="getDescriptor" />
      <property role="DiZV1" value="false" />
      <node concept="3Tm1VV" id="4b" role="1B3o_S" />
      <node concept="37vLTG" id="4c" role="3clF46">
        <property role="TrG5h" value="id" />
        <node concept="3uibUv" id="4h" role="1tU5fm">
          <ref role="3uigEE" to="e8bb:~SConceptId" resolve="SConceptId" />
        </node>
      </node>
      <node concept="3clFbS" id="4d" role="3clF47">
        <node concept="3KaCP$" id="4i" role="3cqZAp">
          <node concept="3KbdKl" id="4j" role="3KbHQx">
            <node concept="3clFbS" id="4p" role="3Kbo56">
              <node concept="3cpWs6" id="4r" role="3cqZAp">
                <node concept="37vLTw" id="4s" role="3cqZAk">
                  <ref role="3cqZAo" node="3r" resolve="myConceptIHasUnit" />
                </node>
              </node>
            </node>
            <node concept="10M0yZ" id="4q" role="3Kbmr1">
              <ref role="1PxDUh" node="23" resolve="LanguageConceptSwitch" />
              <ref role="3cqZAo" node="25" resolve="IHasUnit" />
            </node>
          </node>
          <node concept="3KbdKl" id="4k" role="3KbHQx">
            <node concept="3clFbS" id="4t" role="3Kbo56">
              <node concept="3cpWs6" id="4v" role="3cqZAp">
                <node concept="37vLTw" id="4w" role="3cqZAk">
                  <ref role="3cqZAo" node="3s" resolve="myConceptIReferrableConcept" />
                </node>
              </node>
            </node>
            <node concept="10M0yZ" id="4u" role="3Kbmr1">
              <ref role="1PxDUh" node="23" resolve="LanguageConceptSwitch" />
              <ref role="3cqZAo" node="26" resolve="IReferrableConcept" />
            </node>
          </node>
          <node concept="3KbdKl" id="4l" role="3KbHQx">
            <node concept="3clFbS" id="4x" role="3Kbo56">
              <node concept="3cpWs6" id="4z" role="3cqZAp">
                <node concept="37vLTw" id="4$" role="3cqZAk">
                  <ref role="3cqZAo" node="3t" resolve="myConceptIShowableConcept" />
                </node>
              </node>
            </node>
            <node concept="10M0yZ" id="4y" role="3Kbmr1">
              <ref role="1PxDUh" node="23" resolve="LanguageConceptSwitch" />
              <ref role="3cqZAo" node="27" resolve="IShowableConcept" />
            </node>
          </node>
          <node concept="3KbdKl" id="4m" role="3KbHQx">
            <node concept="3clFbS" id="4_" role="3Kbo56">
              <node concept="3cpWs6" id="4B" role="3cqZAp">
                <node concept="37vLTw" id="4C" role="3cqZAk">
                  <ref role="3cqZAo" node="3u" resolve="myConceptITranslatableConcept" />
                </node>
              </node>
            </node>
            <node concept="10M0yZ" id="4A" role="3Kbmr1">
              <ref role="1PxDUh" node="23" resolve="LanguageConceptSwitch" />
              <ref role="3cqZAo" node="28" resolve="ITranslatableConcept" />
            </node>
          </node>
          <node concept="2OqwBi" id="4n" role="3KbGdf">
            <node concept="37vLTw" id="4D" role="2Oq$k0">
              <ref role="3cqZAo" node="3v" resolve="myIndexSwitch" />
            </node>
            <node concept="liA8E" id="4E" role="2OqNvi">
              <ref role="37wK5l" node="2c" resolve="index" />
              <node concept="37vLTw" id="4F" role="37wK5m">
                <ref role="3cqZAo" node="4c" resolve="id" />
              </node>
            </node>
          </node>
          <node concept="3clFbS" id="4o" role="3Kb1Dw">
            <node concept="3cpWs6" id="4G" role="3cqZAp">
              <node concept="10Nm6u" id="4H" role="3cqZAk" />
            </node>
          </node>
        </node>
      </node>
      <node concept="3uibUv" id="4e" role="3clF45">
        <ref role="3uigEE" to="ze1i:~ConceptDescriptor" resolve="ConceptDescriptor" />
      </node>
      <node concept="2AHcQZ" id="4f" role="2AJF6D">
        <ref role="2AI5Lk" to="wyt6:~Override" resolve="Override" />
      </node>
      <node concept="2AHcQZ" id="4g" role="2AJF6D">
        <ref role="2AI5Lk" to="mhfm:~Nullable" resolve="Nullable" />
      </node>
    </node>
    <node concept="2tJIrI" id="3B" role="jymVt" />
    <node concept="3clFb_" id="3C" role="jymVt">
      <property role="TrG5h" value="internalIndex" />
      <node concept="10Oyi0" id="4I" role="3clF45" />
      <node concept="3clFbS" id="4J" role="3clF47">
        <node concept="3cpWs6" id="4L" role="3cqZAp">
          <node concept="2OqwBi" id="4M" role="3cqZAk">
            <node concept="37vLTw" id="4N" role="2Oq$k0">
              <ref role="3cqZAo" node="3v" resolve="myIndexSwitch" />
            </node>
            <node concept="liA8E" id="4O" role="2OqNvi">
              <ref role="37wK5l" node="2e" resolve="index" />
              <node concept="37vLTw" id="4P" role="37wK5m">
                <ref role="3cqZAo" node="4K" resolve="c" />
              </node>
            </node>
          </node>
        </node>
      </node>
      <node concept="37vLTG" id="4K" role="3clF46">
        <property role="TrG5h" value="c" />
        <node concept="3uibUv" id="4Q" role="1tU5fm">
          <ref role="3uigEE" to="c17a:~SAbstractConcept" resolve="SAbstractConcept" />
        </node>
      </node>
    </node>
    <node concept="2tJIrI" id="3D" role="jymVt" />
    <node concept="2YIFZL" id="3E" role="jymVt">
      <property role="od$2w" value="false" />
      <property role="DiZV1" value="false" />
      <property role="2aFKle" value="false" />
      <property role="TrG5h" value="createDescriptorForIHasUnit" />
      <node concept="3clFbS" id="4R" role="3clF47">
        <node concept="3cpWs8" id="4U" role="3cqZAp">
          <node concept="3cpWsn" id="4Z" role="3cpWs9">
            <property role="TrG5h" value="b" />
            <node concept="3uibUv" id="50" role="1tU5fm">
              <ref role="3uigEE" to="bzg8:~ConceptDescriptorBuilder2" resolve="ConceptDescriptorBuilder2" />
            </node>
            <node concept="2ShNRf" id="51" role="33vP2m">
              <node concept="1pGfFk" id="52" role="2ShVmc">
                <ref role="37wK5l" to="bzg8:~ConceptDescriptorBuilder2.&lt;init&gt;(java.lang.String,java.lang.String,long,long,long)" resolve="ConceptDescriptorBuilder2" />
                <node concept="Xl_RD" id="53" role="37wK5m">
                  <property role="Xl_RC" value="no.uio.mLab.shared" />
                </node>
                <node concept="Xl_RD" id="54" role="37wK5m">
                  <property role="Xl_RC" value="IHasUnit" />
                </node>
                <node concept="1adDum" id="55" role="37wK5m">
                  <property role="1adDun" value="0x6adcef385cdc48dcL" />
                </node>
                <node concept="1adDum" id="56" role="37wK5m">
                  <property role="1adDun" value="0xb225be76276615fdL" />
                </node>
                <node concept="1adDum" id="57" role="37wK5m">
                  <property role="1adDun" value="0x757ea1a45e4d715eL" />
                </node>
              </node>
            </node>
          </node>
        </node>
        <node concept="3clFbF" id="4V" role="3cqZAp">
          <node concept="2OqwBi" id="58" role="3clFbG">
            <node concept="37vLTw" id="59" role="2Oq$k0">
              <ref role="3cqZAo" node="4Z" resolve="b" />
            </node>
            <node concept="liA8E" id="5a" role="2OqNvi">
              <ref role="37wK5l" to="bzg8:~ConceptDescriptorBuilder2.interface_():jetbrains.mps.smodel.runtime.impl.ConceptDescriptorBuilder2" resolve="interface_" />
            </node>
          </node>
        </node>
        <node concept="3clFbF" id="4W" role="3cqZAp">
          <node concept="2OqwBi" id="5b" role="3clFbG">
            <node concept="37vLTw" id="5c" role="2Oq$k0">
              <ref role="3cqZAo" node="4Z" resolve="b" />
            </node>
            <node concept="liA8E" id="5d" role="2OqNvi">
              <ref role="37wK5l" to="bzg8:~ConceptDescriptorBuilder2.origin(java.lang.String):jetbrains.mps.smodel.runtime.impl.ConceptDescriptorBuilder2" resolve="origin" />
              <node concept="Xl_RD" id="5e" role="37wK5m">
                <property role="Xl_RC" value="r:6cc208d3-a370-49ca-a6ac-ded97805a924(no.uio.mLab.shared.structure)/8466382076831953246" />
              </node>
            </node>
          </node>
        </node>
        <node concept="3clFbF" id="4X" role="3cqZAp">
          <node concept="2OqwBi" id="5f" role="3clFbG">
            <node concept="37vLTw" id="5g" role="2Oq$k0">
              <ref role="3cqZAo" node="4Z" resolve="b" />
            </node>
            <node concept="liA8E" id="5h" role="2OqNvi">
              <ref role="37wK5l" to="bzg8:~ConceptDescriptorBuilder2.version(int):jetbrains.mps.smodel.runtime.impl.ConceptDescriptorBuilder2" resolve="version" />
              <node concept="3cmrfG" id="5i" role="37wK5m">
                <property role="3cmrfH" value="2" />
              </node>
            </node>
          </node>
        </node>
        <node concept="3cpWs6" id="4Y" role="3cqZAp">
          <node concept="2OqwBi" id="5j" role="3cqZAk">
            <node concept="37vLTw" id="5k" role="2Oq$k0">
              <ref role="3cqZAo" node="4Z" resolve="b" />
            </node>
            <node concept="liA8E" id="5l" role="2OqNvi">
              <ref role="37wK5l" to="bzg8:~ConceptDescriptorBuilder2.create():jetbrains.mps.smodel.runtime.ConceptDescriptor" resolve="create" />
            </node>
          </node>
        </node>
      </node>
      <node concept="3Tm6S6" id="4S" role="1B3o_S" />
      <node concept="3uibUv" id="4T" role="3clF45">
        <ref role="3uigEE" to="ze1i:~ConceptDescriptor" resolve="ConceptDescriptor" />
      </node>
    </node>
    <node concept="2YIFZL" id="3F" role="jymVt">
      <property role="od$2w" value="false" />
      <property role="DiZV1" value="false" />
      <property role="2aFKle" value="false" />
      <property role="TrG5h" value="createDescriptorForIReferrableConcept" />
      <node concept="3clFbS" id="5m" role="3clF47">
        <node concept="3cpWs8" id="5p" role="3cqZAp">
          <node concept="3cpWsn" id="5w" role="3cpWs9">
            <property role="TrG5h" value="b" />
            <node concept="3uibUv" id="5x" role="1tU5fm">
              <ref role="3uigEE" to="bzg8:~ConceptDescriptorBuilder2" resolve="ConceptDescriptorBuilder2" />
            </node>
            <node concept="2ShNRf" id="5y" role="33vP2m">
              <node concept="1pGfFk" id="5z" role="2ShVmc">
                <ref role="37wK5l" to="bzg8:~ConceptDescriptorBuilder2.&lt;init&gt;(java.lang.String,java.lang.String,long,long,long)" resolve="ConceptDescriptorBuilder2" />
                <node concept="Xl_RD" id="5$" role="37wK5m">
                  <property role="Xl_RC" value="no.uio.mLab.shared" />
                </node>
                <node concept="Xl_RD" id="5_" role="37wK5m">
                  <property role="Xl_RC" value="IReferrableConcept" />
                </node>
                <node concept="1adDum" id="5A" role="37wK5m">
                  <property role="1adDun" value="0x6adcef385cdc48dcL" />
                </node>
                <node concept="1adDum" id="5B" role="37wK5m">
                  <property role="1adDun" value="0xb225be76276615fdL" />
                </node>
                <node concept="1adDum" id="5C" role="37wK5m">
                  <property role="1adDun" value="0x4dbaf0338fb1e303L" />
                </node>
              </node>
            </node>
          </node>
        </node>
        <node concept="3clFbF" id="5q" role="3cqZAp">
          <node concept="2OqwBi" id="5D" role="3clFbG">
            <node concept="37vLTw" id="5E" role="2Oq$k0">
              <ref role="3cqZAo" node="5w" resolve="b" />
            </node>
            <node concept="liA8E" id="5F" role="2OqNvi">
              <ref role="37wK5l" to="bzg8:~ConceptDescriptorBuilder2.interface_():jetbrains.mps.smodel.runtime.impl.ConceptDescriptorBuilder2" resolve="interface_" />
            </node>
          </node>
        </node>
        <node concept="3clFbF" id="5r" role="3cqZAp">
          <node concept="2OqwBi" id="5G" role="3clFbG">
            <node concept="37vLTw" id="5H" role="2Oq$k0">
              <ref role="3cqZAo" node="5w" resolve="b" />
            </node>
            <node concept="liA8E" id="5I" role="2OqNvi">
              <ref role="37wK5l" to="bzg8:~ConceptDescriptorBuilder2.parent(long,long,long):jetbrains.mps.smodel.runtime.impl.ConceptDescriptorBuilder2" resolve="parent" />
              <node concept="1adDum" id="5J" role="37wK5m">
                <property role="1adDun" value="0xceab519525ea4f22L" />
              </node>
              <node concept="1adDum" id="5K" role="37wK5m">
                <property role="1adDun" value="0x9b92103b95ca8c0cL" />
              </node>
              <node concept="1adDum" id="5L" role="37wK5m">
                <property role="1adDun" value="0x110396eaaa4L" />
              </node>
            </node>
          </node>
        </node>
        <node concept="3clFbF" id="5s" role="3cqZAp">
          <node concept="2OqwBi" id="5M" role="3clFbG">
            <node concept="37vLTw" id="5N" role="2Oq$k0">
              <ref role="3cqZAo" node="6F" resolve="b" />
            </node>
            <node concept="liA8E" id="5O" role="2OqNvi">
              <ref role="37wK5l" to="bzg8:~ConceptDescriptorBuilder2.parent(long,long,long):jetbrains.mps.smodel.runtime.impl.ConceptDescriptorBuilder2" resolve="parent" />
              <node concept="1adDum" id="5P" role="37wK5m">
                <property role="1adDun" value="0x6adcef385cdc48dcL" />
              </node>
              <node concept="1adDum" id="5Q" role="37wK5m">
                <property role="1adDun" value="0xb225be76276615fdL" />
              </node>
              <node concept="1adDum" id="5R" role="37wK5m">
                <property role="1adDun" value="0x5f0f3639007cc07fL" />
              </node>
            </node>
          </node>
        </node>
        <node concept="3clFbF" id="5t" role="3cqZAp">
          <node concept="2OqwBi" id="5S" role="3clFbG">
            <node concept="37vLTw" id="5T" role="2Oq$k0">
              <ref role="3cqZAo" node="5w" resolve="b" />
            </node>
            <node concept="liA8E" id="5U" role="2OqNvi">
              <ref role="37wK5l" to="bzg8:~ConceptDescriptorBuilder2.origin(java.lang.String):jetbrains.mps.smodel.runtime.impl.ConceptDescriptorBuilder2" resolve="origin" />
              <node concept="Xl_RD" id="5V" role="37wK5m">
                <property role="Xl_RC" value="r:6cc208d3-a370-49ca-a6ac-ded97805a924(no.uio.mLab.shared.structure)/5601053190833431299" />
              </node>
            </node>
          </node>
        </node>
        <node concept="3clFbF" id="5u" role="3cqZAp">
          <node concept="2OqwBi" id="5W" role="3clFbG">
            <node concept="37vLTw" id="5X" role="2Oq$k0">
              <ref role="3cqZAo" node="5w" resolve="b" />
            </node>
            <node concept="liA8E" id="5Y" role="2OqNvi">
              <ref role="37wK5l" to="bzg8:~ConceptDescriptorBuilder2.version(int):jetbrains.mps.smodel.runtime.impl.ConceptDescriptorBuilder2" resolve="version" />
              <node concept="3cmrfG" id="5Z" role="37wK5m">
                <property role="3cmrfH" value="2" />
              </node>
            </node>
          </node>
        </node>
        <node concept="3cpWs6" id="5v" role="3cqZAp">
          <node concept="2OqwBi" id="60" role="3cqZAk">
            <node concept="37vLTw" id="61" role="2Oq$k0">
              <ref role="3cqZAo" node="5w" resolve="b" />
            </node>
            <node concept="liA8E" id="62" role="2OqNvi">
              <ref role="37wK5l" to="bzg8:~ConceptDescriptorBuilder2.create():jetbrains.mps.smodel.runtime.ConceptDescriptor" resolve="create" />
            </node>
          </node>
        </node>
      </node>
      <node concept="3Tm6S6" id="5n" role="1B3o_S" />
      <node concept="3uibUv" id="5o" role="3clF45">
        <ref role="3uigEE" to="ze1i:~ConceptDescriptor" resolve="ConceptDescriptor" />
      </node>
    </node>
    <node concept="2YIFZL" id="3G" role="jymVt">
      <property role="od$2w" value="false" />
      <property role="DiZV1" value="false" />
      <property role="2aFKle" value="false" />
      <property role="TrG5h" value="createDescriptorForIShowableConcept" />
      <node concept="3clFbS" id="63" role="3clF47">
        <node concept="3cpWs8" id="66" role="3cqZAp">
          <node concept="3cpWsn" id="6b" role="3cpWs9">
            <property role="TrG5h" value="b" />
            <node concept="3uibUv" id="6c" role="1tU5fm">
              <ref role="3uigEE" to="bzg8:~ConceptDescriptorBuilder2" resolve="ConceptDescriptorBuilder2" />
            </node>
            <node concept="2ShNRf" id="6d" role="33vP2m">
              <node concept="1pGfFk" id="6e" role="2ShVmc">
                <ref role="37wK5l" to="bzg8:~ConceptDescriptorBuilder2.&lt;init&gt;(java.lang.String,java.lang.String,long,long,long)" resolve="ConceptDescriptorBuilder2" />
                <node concept="Xl_RD" id="6f" role="37wK5m">
                  <property role="Xl_RC" value="no.uio.mLab.shared" />
                </node>
                <node concept="Xl_RD" id="6g" role="37wK5m">
                  <property role="Xl_RC" value="IShowableConcept" />
                </node>
                <node concept="1adDum" id="6h" role="37wK5m">
                  <property role="1adDun" value="0x6adcef385cdc48dcL" />
                </node>
                <node concept="1adDum" id="6i" role="37wK5m">
                  <property role="1adDun" value="0xb225be76276615fdL" />
                </node>
                <node concept="1adDum" id="6j" role="37wK5m">
                  <property role="1adDun" value="0x4249b170a9b34a0cL" />
                </node>
              </node>
            </node>
          </node>
        </node>
        <node concept="3clFbF" id="67" role="3cqZAp">
          <node concept="2OqwBi" id="6k" role="3clFbG">
            <node concept="37vLTw" id="6l" role="2Oq$k0">
              <ref role="3cqZAo" node="6b" resolve="b" />
            </node>
            <node concept="liA8E" id="6m" role="2OqNvi">
              <ref role="37wK5l" to="bzg8:~ConceptDescriptorBuilder2.interface_():jetbrains.mps.smodel.runtime.impl.ConceptDescriptorBuilder2" resolve="interface_" />
            </node>
          </node>
        </node>
        <node concept="3clFbF" id="68" role="3cqZAp">
          <node concept="2OqwBi" id="6n" role="3clFbG">
            <node concept="37vLTw" id="6o" role="2Oq$k0">
              <ref role="3cqZAo" node="6b" resolve="b" />
            </node>
            <node concept="liA8E" id="6p" role="2OqNvi">
              <ref role="37wK5l" to="bzg8:~ConceptDescriptorBuilder2.origin(java.lang.String):jetbrains.mps.smodel.runtime.impl.ConceptDescriptorBuilder2" resolve="origin" />
              <node concept="Xl_RD" id="6q" role="37wK5m">
                <property role="Xl_RC" value="r:6cc208d3-a370-49ca-a6ac-ded97805a924(no.uio.mLab.shared.structure)/4776543977244674572" />
              </node>
            </node>
          </node>
        </node>
        <node concept="3clFbF" id="69" role="3cqZAp">
          <node concept="2OqwBi" id="6r" role="3clFbG">
            <node concept="37vLTw" id="6s" role="2Oq$k0">
              <ref role="3cqZAo" node="6b" resolve="b" />
            </node>
            <node concept="liA8E" id="6t" role="2OqNvi">
              <ref role="37wK5l" to="bzg8:~ConceptDescriptorBuilder2.version(int):jetbrains.mps.smodel.runtime.impl.ConceptDescriptorBuilder2" resolve="version" />
              <node concept="3cmrfG" id="6u" role="37wK5m">
                <property role="3cmrfH" value="2" />
              </node>
            </node>
          </node>
        </node>
        <node concept="3cpWs6" id="6a" role="3cqZAp">
          <node concept="2OqwBi" id="6v" role="3cqZAk">
            <node concept="37vLTw" id="6w" role="2Oq$k0">
              <ref role="3cqZAo" node="6b" resolve="b" />
            </node>
            <node concept="liA8E" id="6x" role="2OqNvi">
              <ref role="37wK5l" to="bzg8:~ConceptDescriptorBuilder2.create():jetbrains.mps.smodel.runtime.ConceptDescriptor" resolve="create" />
            </node>
          </node>
        </node>
      </node>
      <node concept="3Tm6S6" id="64" role="1B3o_S" />
      <node concept="3uibUv" id="65" role="3clF45">
        <ref role="3uigEE" to="ze1i:~ConceptDescriptor" resolve="ConceptDescriptor" />
      </node>
    </node>
    <node concept="2YIFZL" id="3H" role="jymVt">
      <property role="od$2w" value="false" />
      <property role="DiZV1" value="false" />
      <property role="2aFKle" value="false" />
      <property role="TrG5h" value="createDescriptorForITranslatableConcept" />
      <node concept="3clFbS" id="6y" role="3clF47">
        <node concept="3cpWs8" id="6_" role="3cqZAp">
          <node concept="3cpWsn" id="6F" role="3cpWs9">
            <property role="TrG5h" value="b" />
            <node concept="3uibUv" id="6G" role="1tU5fm">
              <ref role="3uigEE" to="bzg8:~ConceptDescriptorBuilder2" resolve="ConceptDescriptorBuilder2" />
            </node>
            <node concept="2ShNRf" id="6H" role="33vP2m">
              <node concept="1pGfFk" id="6I" role="2ShVmc">
                <ref role="37wK5l" to="bzg8:~ConceptDescriptorBuilder2.&lt;init&gt;(java.lang.String,java.lang.String,long,long,long)" resolve="ConceptDescriptorBuilder2" />
                <node concept="Xl_RD" id="6J" role="37wK5m">
                  <property role="Xl_RC" value="no.uio.mLab.shared" />
                </node>
                <node concept="Xl_RD" id="6K" role="37wK5m">
                  <property role="Xl_RC" value="ITranslatableConcept" />
                </node>
                <node concept="1adDum" id="6L" role="37wK5m">
                  <property role="1adDun" value="0x6adcef385cdc48dcL" />
                </node>
                <node concept="1adDum" id="6M" role="37wK5m">
                  <property role="1adDun" value="0xb225be76276615fdL" />
                </node>
                <node concept="1adDum" id="6N" role="37wK5m">
                  <property role="1adDun" value="0x5f0f3639007cc07fL" />
                </node>
              </node>
            </node>
          </node>
        </node>
        <node concept="3clFbF" id="6A" role="3cqZAp">
          <node concept="2OqwBi" id="6O" role="3clFbG">
            <node concept="37vLTw" id="6P" role="2Oq$k0">
              <ref role="3cqZAo" node="6F" resolve="b" />
            </node>
            <node concept="liA8E" id="6Q" role="2OqNvi">
              <ref role="37wK5l" to="bzg8:~ConceptDescriptorBuilder2.interface_():jetbrains.mps.smodel.runtime.impl.ConceptDescriptorBuilder2" resolve="interface_" />
            </node>
          </node>
        </node>
        <node concept="3clFbF" id="6B" role="3cqZAp">
          <node concept="2OqwBi" id="6R" role="3clFbG">
            <node concept="37vLTw" id="6S" role="2Oq$k0">
              <ref role="3cqZAo" node="6b" resolve="b" />
            </node>
            <node concept="liA8E" id="6T" role="2OqNvi">
              <ref role="37wK5l" to="bzg8:~ConceptDescriptorBuilder2.parent(long,long,long):jetbrains.mps.smodel.runtime.impl.ConceptDescriptorBuilder2" resolve="parent" />
              <node concept="1adDum" id="6U" role="37wK5m">
                <property role="1adDun" value="0x6adcef385cdc48dcL" />
              </node>
              <node concept="1adDum" id="6V" role="37wK5m">
                <property role="1adDun" value="0xb225be76276615fdL" />
              </node>
              <node concept="1adDum" id="6W" role="37wK5m">
                <property role="1adDun" value="0x4249b170a9b34a0cL" />
              </node>
            </node>
          </node>
        </node>
        <node concept="3clFbF" id="6C" role="3cqZAp">
          <node concept="2OqwBi" id="6X" role="3clFbG">
            <node concept="37vLTw" id="6Y" role="2Oq$k0">
              <ref role="3cqZAo" node="6F" resolve="b" />
            </node>
            <node concept="liA8E" id="6Z" role="2OqNvi">
              <ref role="37wK5l" to="bzg8:~ConceptDescriptorBuilder2.origin(java.lang.String):jetbrains.mps.smodel.runtime.impl.ConceptDescriptorBuilder2" resolve="origin" />
              <node concept="Xl_RD" id="70" role="37wK5m">
                <property role="Xl_RC" value="r:6cc208d3-a370-49ca-a6ac-ded97805a924(no.uio.mLab.shared.structure)/6849753176703025279" />
              </node>
            </node>
          </node>
        </node>
        <node concept="3clFbF" id="6D" role="3cqZAp">
          <node concept="2OqwBi" id="71" role="3clFbG">
            <node concept="37vLTw" id="72" role="2Oq$k0">
              <ref role="3cqZAo" node="6F" resolve="b" />
            </node>
            <node concept="liA8E" id="73" role="2OqNvi">
              <ref role="37wK5l" to="bzg8:~ConceptDescriptorBuilder2.version(int):jetbrains.mps.smodel.runtime.impl.ConceptDescriptorBuilder2" resolve="version" />
              <node concept="3cmrfG" id="74" role="37wK5m">
                <property role="3cmrfH" value="2" />
              </node>
            </node>
          </node>
        </node>
        <node concept="3cpWs6" id="6E" role="3cqZAp">
          <node concept="2OqwBi" id="75" role="3cqZAk">
            <node concept="37vLTw" id="76" role="2Oq$k0">
              <ref role="3cqZAo" node="6F" resolve="b" />
            </node>
            <node concept="liA8E" id="77" role="2OqNvi">
              <ref role="37wK5l" to="bzg8:~ConceptDescriptorBuilder2.create():jetbrains.mps.smodel.runtime.ConceptDescriptor" resolve="create" />
            </node>
          </node>
        </node>
      </node>
      <node concept="3Tm6S6" id="6z" role="1B3o_S" />
      <node concept="3uibUv" id="6$" role="3clF45">
        <ref role="3uigEE" to="ze1i:~ConceptDescriptor" resolve="ConceptDescriptor" />
      </node>
    </node>
  </node>
</model>

