<?xml version="1.0" encoding="UTF-8"?>
<model ref="r:fec459ba-83d1-4379-953c-1404156f70ee(no.uio.mLab.entities.specialistType.translations)">
  <persistence version="9" />
  <languages />
  <imports />
  <registry />
</model>

