<?xml version="1.0" encoding="UTF-8"?>
<model ref="r:21f6a30a-8f3c-4251-80f3-8c6b604f12dc(no.uio.mLab.decisions.tasks.autocommentation.behavior)">
  <persistence version="9" />
  <languages>
    <use id="af65afd8-f0dd-4942-87d9-63a55f2a9db1" name="jetbrains.mps.lang.behavior" version="1" />
    <devkit ref="fbc25dd2-5da4-483a-8b19-70928e1b62d7(jetbrains.mps.devkit.general-purpose)" />
  </languages>
  <imports>
    <import index="1yj" ref="r:0c887d67-81ab-420f-9a35-a9f6bf96c975(no.uio.mLab.shared.behavior)" />
    <import index="wb6c" ref="r:19d15037-83c1-4ae2-b66a-763828cb8279(no.uio.mLab.decisions.core.behavior)" />
    <import index="3rko" ref="r:9f6c7de2-64a9-454f-9a9b-110883f340fd(no.uio.mLab.decisions.tasks.autocommentation.translations)" />
    <import index="7f9y" ref="r:790ac37e-42d3-4dd3-977c-e8fe9cc56a45(no.uio.mLab.decisions.core.structure)" />
    <import index="wyt6" ref="6354ebe7-c22a-4a0f-ac54-50b52ab9b065/java:java.lang(JDK/)" />
    <import index="jn6m" ref="r:8d706f6f-a342-4d4f-96d8-7be452515eda(no.uio.mLab.decisions.tasks.autocommentation.structure)" />
    <import index="hyw5" ref="r:b77da972-4430-4cfb-8552-374583961329(no.uio.mLab.decisions.core.utils)" />
  </imports>
  <registry>
    <language id="af65afd8-f0dd-4942-87d9-63a55f2a9db1" name="jetbrains.mps.lang.behavior">
      <concept id="6496299201655527393" name="jetbrains.mps.lang.behavior.structure.LocalBehaviorMethodCall" flags="nn" index="BsUDl" />
      <concept id="1225194240794" name="jetbrains.mps.lang.behavior.structure.ConceptBehavior" flags="ng" index="13h7C7">
        <reference id="1225194240799" name="concept" index="13h7C2" />
        <child id="1225194240805" name="method" index="13h7CS" />
        <child id="1225194240801" name="constructor" index="13h7CW" />
      </concept>
      <concept id="1225194413805" name="jetbrains.mps.lang.behavior.structure.ConceptConstructorDeclaration" flags="in" index="13hLZK" />
      <concept id="1225194472830" name="jetbrains.mps.lang.behavior.structure.ConceptMethodDeclaration" flags="ng" index="13i0hz">
        <property id="5864038008284099149" name="isStatic" index="2Ki8OM" />
        <property id="1225194472832" name="isVirtual" index="13i0it" />
        <property id="1225194472834" name="isAbstract" index="13i0iv" />
        <reference id="1225194472831" name="overriddenMethod" index="13i0hy" />
      </concept>
      <concept id="1225194691553" name="jetbrains.mps.lang.behavior.structure.ThisNodeExpression" flags="nn" index="13iPFW" />
    </language>
    <language id="f3061a53-9226-4cc5-a443-f952ceaf5816" name="jetbrains.mps.baseLanguage">
      <concept id="4836112446988635817" name="jetbrains.mps.baseLanguage.structure.UndefinedType" flags="in" index="2jxLKc" />
      <concept id="1202948039474" name="jetbrains.mps.baseLanguage.structure.InstanceMethodCallOperation" flags="nn" index="liA8E" />
      <concept id="1197027756228" name="jetbrains.mps.baseLanguage.structure.DotExpression" flags="nn" index="2OqwBi">
        <child id="1197027771414" name="operand" index="2Oq$k0" />
        <child id="1197027833540" name="operation" index="2OqNvi" />
      </concept>
      <concept id="1137021947720" name="jetbrains.mps.baseLanguage.structure.ConceptFunction" flags="in" index="2VMwT0">
        <child id="1137022507850" name="body" index="2VODD2" />
      </concept>
      <concept id="1070475926800" name="jetbrains.mps.baseLanguage.structure.StringLiteral" flags="nn" index="Xl_RD">
        <property id="1070475926801" name="value" index="Xl_RC" />
      </concept>
      <concept id="1081236700937" name="jetbrains.mps.baseLanguage.structure.StaticMethodCall" flags="nn" index="2YIFZM">
        <reference id="1144433194310" name="classConcept" index="1Pybhc" />
      </concept>
      <concept id="1070533707846" name="jetbrains.mps.baseLanguage.structure.StaticFieldReference" flags="nn" index="10M0yZ">
        <reference id="1144433057691" name="classifier" index="1PxDUh" />
      </concept>
      <concept id="1070534644030" name="jetbrains.mps.baseLanguage.structure.BooleanType" flags="in" index="10P_77" />
      <concept id="1068498886296" name="jetbrains.mps.baseLanguage.structure.VariableReference" flags="nn" index="37vLTw">
        <reference id="1068581517664" name="variableDeclaration" index="3cqZAo" />
      </concept>
      <concept id="1068498886292" name="jetbrains.mps.baseLanguage.structure.ParameterDeclaration" flags="ir" index="37vLTG" />
      <concept id="1225271177708" name="jetbrains.mps.baseLanguage.structure.StringType" flags="in" index="17QB3L" />
      <concept id="4972933694980447171" name="jetbrains.mps.baseLanguage.structure.BaseVariableDeclaration" flags="ng" index="19Szcq">
        <child id="5680397130376446158" name="type" index="1tU5fm" />
      </concept>
      <concept id="1068580123132" name="jetbrains.mps.baseLanguage.structure.BaseMethodDeclaration" flags="ng" index="3clF44">
        <child id="1068580123133" name="returnType" index="3clF45" />
        <child id="1068580123134" name="parameter" index="3clF46" />
        <child id="1068580123135" name="body" index="3clF47" />
      </concept>
      <concept id="1068580123155" name="jetbrains.mps.baseLanguage.structure.ExpressionStatement" flags="nn" index="3clFbF">
        <child id="1068580123156" name="expression" index="3clFbG" />
      </concept>
      <concept id="1068580123136" name="jetbrains.mps.baseLanguage.structure.StatementList" flags="sn" stub="5293379017992965193" index="3clFbS">
        <child id="1068581517665" name="statement" index="3cqZAp" />
      </concept>
      <concept id="1068580123137" name="jetbrains.mps.baseLanguage.structure.BooleanConstant" flags="nn" index="3clFbT">
        <property id="1068580123138" name="value" index="3clFbU" />
      </concept>
      <concept id="1068581242878" name="jetbrains.mps.baseLanguage.structure.ReturnStatement" flags="nn" index="3cpWs6">
        <child id="1068581517676" name="expression" index="3cqZAk" />
      </concept>
      <concept id="1204053956946" name="jetbrains.mps.baseLanguage.structure.IMethodCall" flags="ng" index="1ndlxa">
        <reference id="1068499141037" name="baseMethodDeclaration" index="37wK5l" />
        <child id="1068499141038" name="actualArgument" index="37wK5m" />
      </concept>
      <concept id="1107535904670" name="jetbrains.mps.baseLanguage.structure.ClassifierType" flags="in" index="3uibUv">
        <reference id="1107535924139" name="classifier" index="3uigEE" />
      </concept>
      <concept id="1178549954367" name="jetbrains.mps.baseLanguage.structure.IVisible" flags="ng" index="1B3ioH">
        <child id="1178549979242" name="visibility" index="1B3o_S" />
      </concept>
      <concept id="5497648299878491908" name="jetbrains.mps.baseLanguage.structure.BaseVariableReference" flags="nn" index="1M0zk4">
        <reference id="5497648299878491909" name="baseVariableDeclaration" index="1M0zk5" />
      </concept>
      <concept id="1146644602865" name="jetbrains.mps.baseLanguage.structure.PublicVisibility" flags="nn" index="3Tm1VV" />
    </language>
    <language id="7866978e-a0f0-4cc7-81bc-4d213d9375e1" name="jetbrains.mps.lang.smodel">
      <concept id="1179409122411" name="jetbrains.mps.lang.smodel.structure.Node_ConceptMethodCall" flags="nn" index="2qgKlT" />
      <concept id="1883223317721008708" name="jetbrains.mps.lang.smodel.structure.IfInstanceOfStatement" flags="nn" index="Jncv_">
        <reference id="1883223317721008712" name="nodeConcept" index="JncvD" />
        <child id="1883223317721008709" name="body" index="Jncv$" />
        <child id="1883223317721008711" name="variable" index="JncvA" />
        <child id="1883223317721008710" name="nodeExpression" index="JncvB" />
      </concept>
      <concept id="1883223317721008713" name="jetbrains.mps.lang.smodel.structure.IfInstanceOfVariable" flags="ng" index="JncvC" />
      <concept id="1883223317721107059" name="jetbrains.mps.lang.smodel.structure.IfInstanceOfVarReference" flags="nn" index="Jnkvi" />
      <concept id="2644386474300074836" name="jetbrains.mps.lang.smodel.structure.ConceptIdRefExpression" flags="nn" index="35c_gC">
        <reference id="2644386474300074837" name="conceptDeclaration" index="35c_gD" />
      </concept>
      <concept id="6677504323281689838" name="jetbrains.mps.lang.smodel.structure.SConceptType" flags="in" index="3bZ5Sz">
        <reference id="6677504323281689839" name="conceptDeclaraton" index="3bZ5Sy" />
      </concept>
      <concept id="1138055754698" name="jetbrains.mps.lang.smodel.structure.SNodeType" flags="in" index="3Tqbb2" />
      <concept id="1138056143562" name="jetbrains.mps.lang.smodel.structure.SLinkAccess" flags="nn" index="3TrEf2">
        <reference id="1138056516764" name="link" index="3Tt5mk" />
      </concept>
    </language>
    <language id="ceab5195-25ea-4f22-9b92-103b95ca8c0c" name="jetbrains.mps.lang.core">
      <concept id="1133920641626" name="jetbrains.mps.lang.core.structure.BaseConcept" flags="ng" index="2VYdi">
        <property id="1193676396447" name="virtualPackage" index="3GE5qa" />
      </concept>
      <concept id="1169194658468" name="jetbrains.mps.lang.core.structure.INamedConcept" flags="ng" index="TrEIO">
        <property id="1169194664001" name="name" index="TrG5h" />
      </concept>
    </language>
  </registry>
  <node concept="13h7C7" id="1mAGFBLedI5">
    <property role="3GE5qa" value="base.actions.addComment" />
    <ref role="13h7C2" to="jn6m:1mAGFBLedHi" resolve="AddCommentForRequestor" />
    <node concept="13hLZK" id="1mAGFBLedI6" role="13h7CW">
      <node concept="3clFbS" id="1mAGFBLedI7" role="2VODD2" />
    </node>
    <node concept="13i0hz" id="1mAGFBLedIg" role="13h7CS">
      <property role="13i0iv" value="false" />
      <property role="13i0it" value="false" />
      <property role="TrG5h" value="getDisplayAlias" />
      <property role="2Ki8OM" value="true" />
      <ref role="13i0hy" to="1yj:5Wfdz$0vc2$" resolve="getDisplayAlias" />
      <node concept="3Tm1VV" id="1mAGFBLedIh" role="1B3o_S" />
      <node concept="3clFbS" id="1mAGFBLedIm" role="3clF47">
        <node concept="3clFbF" id="1mAGFBLedMh" role="3cqZAp">
          <node concept="2OqwBi" id="1mAGFBLedTN" role="3clFbG">
            <node concept="BsUDl" id="1Hxyv4EVD4t" role="2Oq$k0">
              <ref role="37wK5l" node="1Hxyv4EVCPS" resolve="getDisplayTranslations" />
            </node>
            <node concept="liA8E" id="1mAGFBLedZx" role="2OqNvi">
              <ref role="37wK5l" to="3rko:5ZQBr_XMo4l" resolve="getAddCommentForRequestorAlias" />
            </node>
          </node>
        </node>
      </node>
      <node concept="17QB3L" id="1mAGFBLERR1" role="3clF45" />
    </node>
    <node concept="13i0hz" id="1mAGFBLedIs" role="13h7CS">
      <property role="13i0iv" value="false" />
      <property role="13i0it" value="false" />
      <property role="TrG5h" value="getDisplayDescription" />
      <property role="2Ki8OM" value="true" />
      <ref role="13i0hy" to="1yj:5Wfdz$0vc3v" resolve="getDisplayDescription" />
      <node concept="3Tm1VV" id="1mAGFBLedIt" role="1B3o_S" />
      <node concept="3clFbS" id="1mAGFBLedIy" role="3clF47">
        <node concept="3clFbF" id="1mAGFBLee0r" role="3cqZAp">
          <node concept="2OqwBi" id="1mAGFBLee7O" role="3clFbG">
            <node concept="BsUDl" id="1Hxyv4EVDa1" role="2Oq$k0">
              <ref role="37wK5l" node="1Hxyv4EVCPS" resolve="getDisplayTranslations" />
            </node>
            <node concept="liA8E" id="1mAGFBLeedE" role="2OqNvi">
              <ref role="37wK5l" to="3rko:5ZQBr_XMo5N" resolve="getAddCommentForRequestorDescription" />
            </node>
          </node>
        </node>
      </node>
      <node concept="17QB3L" id="1mAGFBLERSk" role="3clF45" />
    </node>
    <node concept="13i0hz" id="1mAGFBLen1J" role="13h7CS">
      <property role="TrG5h" value="getMissingComment" />
      <property role="2Ki8OM" value="true" />
      <node concept="3Tm1VV" id="1mAGFBLen1K" role="1B3o_S" />
      <node concept="17QB3L" id="1mAGFBLen2f" role="3clF45" />
      <node concept="3clFbS" id="1mAGFBLen1M" role="3clF47">
        <node concept="3clFbF" id="1mAGFBLeoKC" role="3cqZAp">
          <node concept="2OqwBi" id="1mAGFBLeoKE" role="3clFbG">
            <node concept="BsUDl" id="1Hxyv4EVDfC" role="2Oq$k0">
              <ref role="37wK5l" node="1Hxyv4EVCPS" resolve="getDisplayTranslations" />
            </node>
            <node concept="liA8E" id="1mAGFBLeoKG" role="2OqNvi">
              <ref role="37wK5l" to="3rko:1mAGFBLen9Q" resolve="getAddCommentForRequestorMissingCommentError" />
            </node>
          </node>
        </node>
      </node>
    </node>
    <node concept="13i0hz" id="499Gn2DGnBJ" role="13h7CS">
      <property role="TrG5h" value="toDisplayString" />
      <property role="2Ki8OM" value="false" />
      <property role="13i0it" value="false" />
      <property role="13i0iv" value="false" />
      <ref role="13i0hy" to="1yj:499Gn2DGTs1" resolve="toDisplayString" />
      <node concept="3clFbS" id="499Gn2DGnBT" role="3clF47">
        <node concept="3clFbF" id="499Gn2DGnLV" role="3cqZAp">
          <node concept="2YIFZM" id="499Gn2DGnMf" role="3clFbG">
            <ref role="37wK5l" to="wyt6:~String.format(java.lang.String,java.lang.Object...):java.lang.String" resolve="format" />
            <ref role="1Pybhc" to="wyt6:~String" resolve="String" />
            <node concept="Xl_RD" id="499Gn2DGnNk" role="37wK5m">
              <property role="Xl_RC" value="%s %s" />
            </node>
            <node concept="BsUDl" id="499Gn2DGnWE" role="37wK5m">
              <ref role="37wK5l" to="1yj:5Wfdz$0vc2$" resolve="getDisplayAlias" />
            </node>
            <node concept="2OqwBi" id="4QUW3ee0WW3" role="37wK5m">
              <node concept="2OqwBi" id="4QUW3ee0Wew" role="2Oq$k0">
                <node concept="13iPFW" id="4QUW3ee0VY8" role="2Oq$k0" />
                <node concept="3TrEf2" id="4QUW3ee0Wx1" role="2OqNvi">
                  <ref role="3Tt5mk" to="jn6m:1mAGFBLen0G" resolve="comment" />
                </node>
              </node>
              <node concept="2qgKlT" id="4QUW3ee0XN2" role="2OqNvi">
                <ref role="37wK5l" to="1yj:499Gn2DGTs1" resolve="toDisplayString" />
              </node>
            </node>
          </node>
        </node>
      </node>
      <node concept="17QB3L" id="499Gn2DRNVz" role="3clF45" />
      <node concept="3Tm1VV" id="499Gn2DRNV$" role="1B3o_S" />
    </node>
    <node concept="13i0hz" id="499Gn2DGnBZ" role="13h7CS">
      <property role="TrG5h" value="toGenerationString" />
      <property role="2Ki8OM" value="false" />
      <property role="13i0it" value="false" />
      <property role="13i0iv" value="false" />
      <ref role="13i0hy" to="1yj:499Gn2DGU_t" resolve="toGenerationString" />
      <node concept="3clFbS" id="499Gn2DGnC9" role="3clF47">
        <node concept="3clFbF" id="499Gn2DGMKN" role="3cqZAp">
          <node concept="2YIFZM" id="499Gn2DGMKO" role="3clFbG">
            <ref role="37wK5l" to="wyt6:~String.format(java.lang.String,java.lang.Object...):java.lang.String" resolve="format" />
            <ref role="1Pybhc" to="wyt6:~String" resolve="String" />
            <node concept="Xl_RD" id="499Gn2DGMKP" role="37wK5m">
              <property role="Xl_RC" value="%s %s" />
            </node>
            <node concept="2OqwBi" id="499Gn2DGZ0y" role="37wK5m">
              <node concept="BsUDl" id="499Gn2DGYRY" role="2Oq$k0">
                <ref role="37wK5l" node="1Hxyv4EVCTy" resolve="getGenerationTranslations" />
              </node>
              <node concept="liA8E" id="499Gn2DGZoL" role="2OqNvi">
                <ref role="37wK5l" to="3rko:5ZQBr_XMo4l" resolve="getAddCommentForRequestorAlias" />
              </node>
            </node>
            <node concept="2OqwBi" id="499Gn2DGMKR" role="37wK5m">
              <node concept="2OqwBi" id="499Gn2DGMKS" role="2Oq$k0">
                <node concept="13iPFW" id="499Gn2DGMKT" role="2Oq$k0" />
                <node concept="3TrEf2" id="499Gn2DGMKU" role="2OqNvi">
                  <ref role="3Tt5mk" to="jn6m:1mAGFBLen0G" resolve="comment" />
                </node>
              </node>
              <node concept="2qgKlT" id="4QUW3ee0YKh" role="2OqNvi">
                <ref role="37wK5l" to="1yj:499Gn2DGU_t" resolve="toGenerationString" />
              </node>
            </node>
          </node>
        </node>
      </node>
      <node concept="17QB3L" id="499Gn2DRO4L" role="3clF45" />
      <node concept="3Tm1VV" id="499Gn2DRO4M" role="1B3o_S" />
    </node>
    <node concept="13i0hz" id="1I84Bf7$SwF" role="13h7CS">
      <property role="TrG5h" value="matches" />
      <property role="13i0it" value="false" />
      <property role="13i0iv" value="false" />
      <ref role="13i0hy" to="wb6c:6LTgXmMs$_D" resolve="matches" />
      <node concept="3Tm1VV" id="1I84Bf7$SwG" role="1B3o_S" />
      <node concept="3clFbS" id="1I84Bf7$SwU" role="3clF47">
        <node concept="Jncv_" id="1I84Bf7$SR_" role="3cqZAp">
          <ref role="JncvD" to="jn6m:1mAGFBLedHi" resolve="AddCommentForRequestor" />
          <node concept="37vLTw" id="1I84Bf7$SS2" role="JncvB">
            <ref role="3cqZAo" node="1I84Bf7$SwV" resolve="node" />
          </node>
          <node concept="3clFbS" id="1I84Bf7$SRB" role="Jncv$">
            <node concept="3cpWs6" id="1I84Bf7$STv" role="3cqZAp">
              <node concept="2OqwBi" id="1I84Bf7$TNm" role="3cqZAk">
                <node concept="2OqwBi" id="1I84Bf7$T7d" role="2Oq$k0">
                  <node concept="13iPFW" id="1I84Bf7$ST_" role="2Oq$k0" />
                  <node concept="3TrEf2" id="1I84Bf7$Tnx" role="2OqNvi">
                    <ref role="3Tt5mk" to="jn6m:1mAGFBLen0G" resolve="comment" />
                  </node>
                </node>
                <node concept="2qgKlT" id="1I84Bf7$U$V" role="2OqNvi">
                  <ref role="37wK5l" to="wb6c:6LTgXmMs$_D" resolve="matches" />
                  <node concept="2OqwBi" id="1I84Bf7$UUq" role="37wK5m">
                    <node concept="Jnkvi" id="1I84Bf7$UIz" role="2Oq$k0">
                      <ref role="1M0zk5" node="1I84Bf7$SRC" resolve="other" />
                    </node>
                    <node concept="3TrEf2" id="1I84Bf7$ViD" role="2OqNvi">
                      <ref role="3Tt5mk" to="jn6m:1mAGFBLen0G" resolve="comment" />
                    </node>
                  </node>
                </node>
              </node>
            </node>
          </node>
          <node concept="JncvC" id="1I84Bf7$SRC" role="JncvA">
            <property role="TrG5h" value="other" />
            <node concept="2jxLKc" id="1I84Bf7$SRD" role="1tU5fm" />
          </node>
        </node>
        <node concept="3clFbF" id="1I84Bf7$VzR" role="3cqZAp">
          <node concept="2YIFZM" id="1I84Bf80mC3" role="3clFbG">
            <ref role="37wK5l" to="hyw5:1I84Bf7XEgz" resolve="createMismatch" />
            <ref role="1Pybhc" to="hyw5:6LTgXmO6cZw" resolve="JoinPointMatch" />
          </node>
        </node>
      </node>
      <node concept="37vLTG" id="1I84Bf7$SwV" role="3clF46">
        <property role="TrG5h" value="node" />
        <node concept="3Tqbb2" id="1I84Bf7$SwW" role="1tU5fm" />
      </node>
      <node concept="3uibUv" id="1I84Bf7$SwX" role="3clF45">
        <ref role="3uigEE" to="hyw5:6LTgXmO6cZw" resolve="JoinPointMatch" />
      </node>
    </node>
  </node>
  <node concept="13h7C7" id="1mAGFBLaCUq">
    <property role="3GE5qa" value="base.actions" />
    <ref role="13h7C2" to="jn6m:1mAGFBKnHGH" resolve="NotifySpecialist" />
    <node concept="13hLZK" id="1mAGFBLaCUr" role="13h7CW">
      <node concept="3clFbS" id="1mAGFBLaCUs" role="2VODD2" />
    </node>
    <node concept="13i0hz" id="1mAGFBLaCU_" role="13h7CS">
      <property role="13i0iv" value="false" />
      <property role="13i0it" value="false" />
      <property role="TrG5h" value="getDisplayAlias" />
      <property role="2Ki8OM" value="true" />
      <ref role="13i0hy" to="1yj:5Wfdz$0vc2$" resolve="getDisplayAlias" />
      <node concept="3Tm1VV" id="1mAGFBLaCUA" role="1B3o_S" />
      <node concept="3clFbS" id="1mAGFBLaCUF" role="3clF47">
        <node concept="3clFbF" id="1mAGFBLaD1_" role="3cqZAp">
          <node concept="2OqwBi" id="1mAGFBLaD8X" role="3clFbG">
            <node concept="BsUDl" id="1Hxyv4EVDpR" role="2Oq$k0">
              <ref role="37wK5l" node="1Hxyv4EVCPS" resolve="getDisplayTranslations" />
            </node>
            <node concept="liA8E" id="1mAGFBLaDeH" role="2OqNvi">
              <ref role="37wK5l" to="3rko:17XAtu7ZLHc" resolve="getNotifySpecialistAlias" />
            </node>
          </node>
        </node>
      </node>
      <node concept="17QB3L" id="1mAGFBLERXu" role="3clF45" />
    </node>
    <node concept="13i0hz" id="1mAGFBLaCUL" role="13h7CS">
      <property role="13i0iv" value="false" />
      <property role="13i0it" value="false" />
      <property role="TrG5h" value="getDisplayDescription" />
      <property role="2Ki8OM" value="true" />
      <ref role="13i0hy" to="1yj:5Wfdz$0vc3v" resolve="getDisplayDescription" />
      <node concept="3Tm1VV" id="1mAGFBLaCUM" role="1B3o_S" />
      <node concept="3clFbS" id="1mAGFBLaCUR" role="3clF47">
        <node concept="3clFbF" id="1mAGFBLaDjI" role="3cqZAp">
          <node concept="2OqwBi" id="1mAGFBLaDjJ" role="3clFbG">
            <node concept="BsUDl" id="1Hxyv4EVDrh" role="2Oq$k0">
              <ref role="37wK5l" node="1Hxyv4EVCPS" resolve="getDisplayTranslations" />
            </node>
            <node concept="liA8E" id="1mAGFBLaDjL" role="2OqNvi">
              <ref role="37wK5l" to="3rko:17XAtu7ZMvd" resolve="getNotifySpecialistDesciption" />
            </node>
          </node>
        </node>
      </node>
      <node concept="17QB3L" id="1mAGFBLERYL" role="3clF45" />
    </node>
    <node concept="13i0hz" id="1mAGFBLdaV_" role="13h7CS">
      <property role="TrG5h" value="getMissingSpecialistTypeError" />
      <property role="2Ki8OM" value="true" />
      <node concept="3Tm1VV" id="1mAGFBLdaVA" role="1B3o_S" />
      <node concept="17QB3L" id="1mAGFBLdaW5" role="3clF45" />
      <node concept="3clFbS" id="1mAGFBLdaVC" role="3clF47">
        <node concept="3clFbF" id="1mAGFBLdaX1" role="3cqZAp">
          <node concept="2OqwBi" id="1mAGFBLdb4q" role="3clFbG">
            <node concept="BsUDl" id="1Hxyv4EVDwS" role="2Oq$k0">
              <ref role="37wK5l" node="1Hxyv4EVCPS" resolve="getDisplayTranslations" />
            </node>
            <node concept="liA8E" id="1mAGFBLdbao" role="2OqNvi">
              <ref role="37wK5l" to="3rko:1mAGFBLd8vK" resolve="getNotifySpecialistMissingSpecialistTypeError" />
            </node>
          </node>
        </node>
      </node>
    </node>
    <node concept="13i0hz" id="499Gn2DGRHk" role="13h7CS">
      <property role="TrG5h" value="toDisplayString" />
      <property role="2Ki8OM" value="false" />
      <property role="13i0it" value="false" />
      <property role="13i0iv" value="false" />
      <ref role="13i0hy" to="1yj:499Gn2DGTs1" resolve="toDisplayString" />
      <node concept="3clFbS" id="499Gn2DGRHw" role="3clF47">
        <node concept="3clFbF" id="499Gn2DGRRt" role="3cqZAp">
          <node concept="2YIFZM" id="499Gn2DGRRL" role="3clFbG">
            <ref role="37wK5l" to="wyt6:~String.format(java.lang.String,java.lang.Object...):java.lang.String" resolve="format" />
            <ref role="1Pybhc" to="wyt6:~String" resolve="String" />
            <node concept="Xl_RD" id="499Gn2DGRSO" role="37wK5m">
              <property role="Xl_RC" value="%s %s" />
            </node>
            <node concept="BsUDl" id="499Gn2DGS26" role="37wK5m">
              <ref role="37wK5l" to="1yj:5Wfdz$0vc2$" resolve="getDisplayAlias" />
            </node>
            <node concept="2OqwBi" id="4QUW3efwLFF" role="37wK5m">
              <node concept="2OqwBi" id="4QUW3efwIWB" role="2Oq$k0">
                <node concept="13iPFW" id="4QUW3efwIG7" role="2Oq$k0" />
                <node concept="3TrEf2" id="4QUW3efwJjg" role="2OqNvi">
                  <ref role="3Tt5mk" to="jn6m:4QUW3efwFhq" resolve="specialistReference" />
                </node>
              </node>
              <node concept="2qgKlT" id="4QUW3efwM6e" role="2OqNvi">
                <ref role="37wK5l" to="1yj:499Gn2DGTs1" resolve="toDisplayString" />
              </node>
            </node>
          </node>
        </node>
      </node>
      <node concept="17QB3L" id="499Gn2DROrh" role="3clF45" />
      <node concept="3Tm1VV" id="499Gn2DROri" role="1B3o_S" />
    </node>
    <node concept="13i0hz" id="499Gn2DGRHA" role="13h7CS">
      <property role="TrG5h" value="toGenerationString" />
      <property role="2Ki8OM" value="false" />
      <property role="13i0it" value="false" />
      <property role="13i0iv" value="false" />
      <ref role="13i0hy" to="1yj:499Gn2DGU_t" resolve="toGenerationString" />
      <node concept="3clFbS" id="499Gn2DGRHM" role="3clF47">
        <node concept="3clFbF" id="499Gn2DGVSi" role="3cqZAp">
          <node concept="2YIFZM" id="499Gn2DGVSj" role="3clFbG">
            <ref role="37wK5l" to="wyt6:~String.format(java.lang.String,java.lang.Object...):java.lang.String" resolve="format" />
            <ref role="1Pybhc" to="wyt6:~String" resolve="String" />
            <node concept="Xl_RD" id="499Gn2DGVSk" role="37wK5m">
              <property role="Xl_RC" value="%s %s" />
            </node>
            <node concept="2OqwBi" id="499Gn2DGWIA" role="37wK5m">
              <node concept="BsUDl" id="499Gn2DGWvJ" role="2Oq$k0">
                <ref role="37wK5l" node="1Hxyv4EVCTy" resolve="getGenerationTranslations" />
              </node>
              <node concept="liA8E" id="499Gn2DGX15" role="2OqNvi">
                <ref role="37wK5l" to="3rko:17XAtu7ZLHc" resolve="getNotifySpecialistAlias" />
              </node>
            </node>
            <node concept="2OqwBi" id="4QUW3efwNCx" role="37wK5m">
              <node concept="2OqwBi" id="4QUW3efwMS_" role="2Oq$k0">
                <node concept="13iPFW" id="4QUW3efwMBZ" role="2Oq$k0" />
                <node concept="3TrEf2" id="4QUW3efwNbk" role="2OqNvi">
                  <ref role="3Tt5mk" to="jn6m:4QUW3efwFhq" resolve="specialistReference" />
                </node>
              </node>
              <node concept="2qgKlT" id="4QUW3efwO3i" role="2OqNvi">
                <ref role="37wK5l" to="1yj:499Gn2DGU_t" resolve="toGenerationString" />
              </node>
            </node>
          </node>
        </node>
      </node>
      <node concept="17QB3L" id="499Gn2DRO$L" role="3clF45" />
      <node concept="3Tm1VV" id="499Gn2DRO$M" role="1B3o_S" />
    </node>
    <node concept="13i0hz" id="65epL7Mehik" role="13h7CS">
      <property role="TrG5h" value="matches" />
      <property role="13i0it" value="false" />
      <property role="13i0iv" value="false" />
      <ref role="13i0hy" to="wb6c:6LTgXmMs$_D" resolve="matches" />
      <node concept="3Tm1VV" id="65epL7Mehil" role="1B3o_S" />
      <node concept="3clFbS" id="65epL7Mehiy" role="3clF47">
        <node concept="Jncv_" id="65epL7MehAj" role="3cqZAp">
          <ref role="JncvD" to="jn6m:1mAGFBKnHGH" resolve="NotifySpecialist" />
          <node concept="37vLTw" id="65epL7MehAK" role="JncvB">
            <ref role="3cqZAo" node="65epL7Mehiz" resolve="node" />
          </node>
          <node concept="3clFbS" id="65epL7MehAl" role="Jncv$">
            <node concept="3cpWs6" id="65epL7MehBD" role="3cqZAp">
              <node concept="2OqwBi" id="65epL7MeiOW" role="3cqZAk">
                <node concept="2OqwBi" id="65epL7Mei3x" role="2Oq$k0">
                  <node concept="13iPFW" id="65epL7MehPT" role="2Oq$k0" />
                  <node concept="3TrEf2" id="65epL7MeijP" role="2OqNvi">
                    <ref role="3Tt5mk" to="jn6m:4QUW3efwFhq" resolve="specialistReference" />
                  </node>
                </node>
                <node concept="2qgKlT" id="65epL7Mejbt" role="2OqNvi">
                  <ref role="37wK5l" to="wb6c:6LTgXmMs$_D" resolve="matches" />
                  <node concept="2OqwBi" id="65epL7MejIJ" role="37wK5m">
                    <node concept="Jnkvi" id="65epL7Mejot" role="2Oq$k0">
                      <ref role="1M0zk5" node="65epL7MehAm" resolve="action" />
                    </node>
                    <node concept="3TrEf2" id="65epL7Mek9P" role="2OqNvi">
                      <ref role="3Tt5mk" to="jn6m:4QUW3efwFhq" resolve="specialistReference" />
                    </node>
                  </node>
                </node>
              </node>
            </node>
          </node>
          <node concept="JncvC" id="65epL7MehAm" role="JncvA">
            <property role="TrG5h" value="action" />
            <node concept="2jxLKc" id="65epL7MehAn" role="1tU5fm" />
          </node>
        </node>
        <node concept="3clFbF" id="65epL7MekUT" role="3cqZAp">
          <node concept="2YIFZM" id="65epL7MeldV" role="3clFbG">
            <ref role="37wK5l" to="hyw5:1I84Bf7XEgz" resolve="createMismatch" />
            <ref role="1Pybhc" to="hyw5:6LTgXmO6cZw" resolve="JoinPointMatch" />
          </node>
        </node>
      </node>
      <node concept="37vLTG" id="65epL7Mehiz" role="3clF46">
        <property role="TrG5h" value="node" />
        <node concept="3Tqbb2" id="65epL7Mehi$" role="1tU5fm" />
      </node>
      <node concept="3uibUv" id="65epL7Mehi_" role="3clF45">
        <ref role="3uigEE" to="hyw5:6LTgXmO6cZw" resolve="JoinPointMatch" />
      </node>
    </node>
  </node>
  <node concept="13h7C7" id="1Hxyv4EVCPz">
    <ref role="13h7C2" to="jn6m:1Hxyv4EVCOV" resolve="ITranslatableAutoCommentationConcept" />
    <node concept="13i0hz" id="1Hxyv4EVCPS" role="13h7CS">
      <property role="13i0iv" value="false" />
      <property role="13i0it" value="false" />
      <property role="2Ki8OM" value="true" />
      <property role="TrG5h" value="getDisplayTranslations" />
      <node concept="3Tm1VV" id="1Hxyv4EVCPT" role="1B3o_S" />
      <node concept="3uibUv" id="2$xY$aF7$kf" role="3clF45">
        <ref role="3uigEE" to="3rko:4zMac8rUNtP" resolve="IAutoCommentationTranslations" />
      </node>
      <node concept="3clFbS" id="1Hxyv4EVCPV" role="3clF47">
        <node concept="3clFbF" id="1Hxyv4EVCSL" role="3cqZAp">
          <node concept="10M0yZ" id="2$xY$aF7$l3" role="3clFbG">
            <ref role="3cqZAo" to="3rko:4zMac8rVBeK" resolve="displayTranslations" />
            <ref role="1PxDUh" to="3rko:4zMac8rUNsN" resolve="AutoCommentationTranslationProvider" />
          </node>
        </node>
      </node>
    </node>
    <node concept="13i0hz" id="1Hxyv4EVCTy" role="13h7CS">
      <property role="13i0iv" value="false" />
      <property role="13i0it" value="false" />
      <property role="2Ki8OM" value="true" />
      <property role="TrG5h" value="getGenerationTranslations" />
      <node concept="3Tm1VV" id="1Hxyv4EVCTz" role="1B3o_S" />
      <node concept="3uibUv" id="2$xY$aF7$lC" role="3clF45">
        <ref role="3uigEE" to="3rko:4zMac8rUNtP" resolve="IAutoCommentationTranslations" />
      </node>
      <node concept="3clFbS" id="1Hxyv4EVCT_" role="3clF47">
        <node concept="3clFbF" id="1Hxyv4EVCTA" role="3cqZAp">
          <node concept="10M0yZ" id="2$xY$aF7$md" role="3clFbG">
            <ref role="3cqZAo" to="3rko:1Hxyv4EVCxs" resolve="generationTranslations" />
            <ref role="1PxDUh" to="3rko:4zMac8rUNsN" resolve="AutoCommentationTranslationProvider" />
          </node>
        </node>
      </node>
    </node>
    <node concept="13hLZK" id="1Hxyv4EVCP$" role="13h7CW">
      <node concept="3clFbS" id="1Hxyv4EVCP_" role="2VODD2" />
    </node>
  </node>
  <node concept="13h7C7" id="PDjyzk_yhN">
    <property role="3GE5qa" value="base.actions.addComment.parameters" />
    <ref role="13h7C2" to="jn6m:PDjyzk_uY0" resolve="TextInterpretativeCommentForRequestor" />
    <node concept="13hLZK" id="PDjyzk_yhO" role="13h7CW">
      <node concept="3clFbS" id="PDjyzk_yhP" role="2VODD2" />
    </node>
    <node concept="13i0hz" id="PDjyzk_yhY" role="13h7CS">
      <property role="13i0iv" value="false" />
      <property role="13i0it" value="false" />
      <property role="TrG5h" value="getDisplayAlias" />
      <property role="2Ki8OM" value="true" />
      <ref role="13i0hy" to="1yj:5Wfdz$0vc2$" resolve="getDisplayAlias" />
      <node concept="3Tm1VV" id="PDjyzk_yhZ" role="1B3o_S" />
      <node concept="3clFbS" id="PDjyzk_yi4" role="3clF47">
        <node concept="3clFbF" id="PDjyzk_yqY" role="3cqZAp">
          <node concept="2OqwBi" id="PDjyzk_yxM" role="3clFbG">
            <node concept="BsUDl" id="PDjyzk_yqX" role="2Oq$k0">
              <ref role="37wK5l" node="1Hxyv4EVCPS" resolve="getDisplayTranslations" />
            </node>
            <node concept="liA8E" id="PDjyzk_yBB" role="2OqNvi">
              <ref role="37wK5l" to="3rko:PDjyzk_wG9" resolve="getTextInterpretativeCommentAlias" />
            </node>
          </node>
        </node>
      </node>
      <node concept="17QB3L" id="PDjyzk_yi5" role="3clF45" />
    </node>
    <node concept="13i0hz" id="PDjyzk_yia" role="13h7CS">
      <property role="13i0iv" value="false" />
      <property role="13i0it" value="false" />
      <property role="TrG5h" value="getDisplayDescription" />
      <property role="2Ki8OM" value="true" />
      <ref role="13i0hy" to="1yj:5Wfdz$0vc3v" resolve="getDisplayDescription" />
      <node concept="3Tm1VV" id="PDjyzk_yib" role="1B3o_S" />
      <node concept="3clFbS" id="PDjyzk_yig" role="3clF47">
        <node concept="3clFbF" id="PDjyzk_yil" role="3cqZAp">
          <node concept="2OqwBi" id="PDjyzk_yCh" role="3clFbG">
            <node concept="BsUDl" id="PDjyzk_yCi" role="2Oq$k0">
              <ref role="37wK5l" node="1Hxyv4EVCPS" resolve="getDisplayTranslations" />
            </node>
            <node concept="liA8E" id="PDjyzk_yCj" role="2OqNvi">
              <ref role="37wK5l" to="3rko:PDjyzk_wK7" resolve="getTextInterpretativeCommentDescription" />
            </node>
          </node>
        </node>
      </node>
      <node concept="17QB3L" id="PDjyzk_yih" role="3clF45" />
    </node>
    <node concept="13i0hz" id="PDjyzk_yim" role="13h7CS">
      <property role="13i0iv" value="false" />
      <property role="13i0it" value="false" />
      <property role="TrG5h" value="getGenerationAlias" />
      <property role="2Ki8OM" value="true" />
      <ref role="13i0hy" to="1yj:4QUW3efxqUv" resolve="getGenerationAlias" />
      <node concept="3Tm1VV" id="PDjyzk_yin" role="1B3o_S" />
      <node concept="3clFbS" id="PDjyzk_yis" role="3clF47">
        <node concept="3clFbF" id="PDjyzk_yix" role="3cqZAp">
          <node concept="2OqwBi" id="PDjyzk_yDT" role="3clFbG">
            <node concept="BsUDl" id="PDjyzk_yET" role="2Oq$k0">
              <ref role="37wK5l" node="1Hxyv4EVCTy" resolve="getGenerationTranslations" />
            </node>
            <node concept="liA8E" id="PDjyzk_yDV" role="2OqNvi">
              <ref role="37wK5l" to="3rko:PDjyzk_wG9" resolve="getTextInterpretativeCommentAlias" />
            </node>
          </node>
        </node>
      </node>
      <node concept="17QB3L" id="PDjyzk_yit" role="3clF45" />
    </node>
    <node concept="13i0hz" id="PDjyzk_yFB" role="13h7CS">
      <property role="13i0iv" value="false" />
      <property role="13i0it" value="false" />
      <property role="TrG5h" value="toDisplayString" />
      <ref role="13i0hy" to="1yj:499Gn2DGTs1" resolve="toDisplayString" />
      <node concept="3Tm1VV" id="PDjyzk_yFC" role="1B3o_S" />
      <node concept="3clFbS" id="PDjyzk_yFN" role="3clF47">
        <node concept="3clFbF" id="PDjyzk_yPc" role="3cqZAp">
          <node concept="2OqwBi" id="PDjyzk_zEj" role="3clFbG">
            <node concept="2OqwBi" id="PDjyzk_z1Q" role="2Oq$k0">
              <node concept="13iPFW" id="PDjyzk_yPb" role="2Oq$k0" />
              <node concept="3TrEf2" id="PDjyzk_zgk" role="2OqNvi">
                <ref role="3Tt5mk" to="jn6m:PDjyzk_uYx" resolve="text" />
              </node>
            </node>
            <node concept="2qgKlT" id="PDjyzk_zVx" role="2OqNvi">
              <ref role="37wK5l" to="1yj:499Gn2DGTs1" resolve="toDisplayString" />
            </node>
          </node>
        </node>
      </node>
      <node concept="17QB3L" id="PDjyzk_yFO" role="3clF45" />
    </node>
    <node concept="13i0hz" id="PDjyzk_yFT" role="13h7CS">
      <property role="13i0iv" value="false" />
      <property role="13i0it" value="false" />
      <property role="TrG5h" value="toGenerationString" />
      <ref role="13i0hy" to="1yj:499Gn2DGU_t" resolve="toGenerationString" />
      <node concept="3Tm1VV" id="PDjyzk_yFU" role="1B3o_S" />
      <node concept="3clFbS" id="PDjyzk_yG5" role="3clF47">
        <node concept="3clFbF" id="PDjyzk_yGa" role="3cqZAp">
          <node concept="2OqwBi" id="PDjyzk_$RL" role="3clFbG">
            <node concept="2OqwBi" id="PDjyzk_$fk" role="2Oq$k0">
              <node concept="13iPFW" id="PDjyzk_$2F" role="2Oq$k0" />
              <node concept="3TrEf2" id="PDjyzk_$tM" role="2OqNvi">
                <ref role="3Tt5mk" to="jn6m:PDjyzk_uYx" resolve="text" />
              </node>
            </node>
            <node concept="2qgKlT" id="PDjyzk__8Z" role="2OqNvi">
              <ref role="37wK5l" to="1yj:499Gn2DGU_t" resolve="toGenerationString" />
            </node>
          </node>
        </node>
      </node>
      <node concept="17QB3L" id="PDjyzk_yG6" role="3clF45" />
    </node>
  </node>
  <node concept="13h7C7" id="2FjKBCOKS7x">
    <property role="3GE5qa" value="base.dataValues" />
    <ref role="13h7C2" to="jn6m:2FjKBCOKOcn" resolve="HasInterpretativeComment" />
    <node concept="13hLZK" id="2FjKBCOKS7y" role="13h7CW">
      <node concept="3clFbS" id="2FjKBCOKS7z" role="2VODD2" />
    </node>
    <node concept="13i0hz" id="2FjKBCOKVsZ" role="13h7CS">
      <property role="13i0iv" value="false" />
      <property role="13i0it" value="false" />
      <property role="TrG5h" value="getDisplayAlias" />
      <property role="2Ki8OM" value="true" />
      <ref role="13i0hy" to="1yj:5Wfdz$0vc2$" resolve="getDisplayAlias" />
      <node concept="3Tm1VV" id="2FjKBCOKVt0" role="1B3o_S" />
      <node concept="3clFbS" id="2FjKBCOKVt5" role="3clF47">
        <node concept="3clFbF" id="2FjKBCOKVxp" role="3cqZAp">
          <node concept="2OqwBi" id="2FjKBCOKVGa" role="3clFbG">
            <node concept="BsUDl" id="2FjKBCOKV_n" role="2Oq$k0">
              <ref role="37wK5l" node="1Hxyv4EVCPS" resolve="getDisplayTranslations" />
            </node>
            <node concept="liA8E" id="2FjKBCOKVLV" role="2OqNvi">
              <ref role="37wK5l" to="3rko:2FjKBCOKScz" resolve="getHasInterpretativeCommentAlias" />
            </node>
          </node>
        </node>
      </node>
      <node concept="17QB3L" id="2FjKBCOKVt6" role="3clF45" />
    </node>
    <node concept="13i0hz" id="2FjKBCOKVtb" role="13h7CS">
      <property role="13i0iv" value="false" />
      <property role="13i0it" value="false" />
      <property role="TrG5h" value="getDisplayDescription" />
      <property role="2Ki8OM" value="true" />
      <ref role="13i0hy" to="1yj:5Wfdz$0vc3v" resolve="getDisplayDescription" />
      <node concept="3Tm1VV" id="2FjKBCOKVtc" role="1B3o_S" />
      <node concept="3clFbS" id="2FjKBCOKVth" role="3clF47">
        <node concept="3clFbF" id="2FjKBCOKVMQ" role="3cqZAp">
          <node concept="2OqwBi" id="2FjKBCOKVTU" role="3clFbG">
            <node concept="BsUDl" id="2FjKBCOKVMP" role="2Oq$k0">
              <ref role="37wK5l" node="1Hxyv4EVCPS" resolve="getDisplayTranslations" />
            </node>
            <node concept="liA8E" id="2FjKBCOKVZN" role="2OqNvi">
              <ref role="37wK5l" to="3rko:2FjKBCOKSib" resolve="getHasInterpretativeCommentDescription" />
            </node>
          </node>
        </node>
      </node>
      <node concept="17QB3L" id="2FjKBCOKVti" role="3clF45" />
    </node>
    <node concept="13i0hz" id="2FjKBCOKWnL" role="13h7CS">
      <property role="13i0iv" value="false" />
      <property role="13i0it" value="false" />
      <property role="TrG5h" value="getGenerationAlias" />
      <property role="2Ki8OM" value="true" />
      <ref role="13i0hy" to="1yj:4QUW3efxqUv" resolve="getGenerationAlias" />
      <node concept="3Tm1VV" id="2FjKBCOKWnM" role="1B3o_S" />
      <node concept="3clFbS" id="2FjKBCOKWnR" role="3clF47">
        <node concept="3clFbF" id="2FjKBCOKW1l" role="3cqZAp">
          <node concept="2OqwBi" id="2FjKBCOKWcX" role="3clFbG">
            <node concept="BsUDl" id="2FjKBCOKW5Z" role="2Oq$k0">
              <ref role="37wK5l" node="1Hxyv4EVCTy" resolve="getGenerationTranslations" />
            </node>
            <node concept="liA8E" id="2FjKBCOKWiI" role="2OqNvi">
              <ref role="37wK5l" to="3rko:2FjKBCOKScz" resolve="getHasInterpretativeCommentAlias" />
            </node>
          </node>
        </node>
      </node>
      <node concept="17QB3L" id="2FjKBCOKWnS" role="3clF45" />
    </node>
    <node concept="13i0hz" id="2FjKBCOKWxa" role="13h7CS">
      <property role="13i0iv" value="false" />
      <property role="13i0it" value="false" />
      <property role="TrG5h" value="toDisplayString" />
      <ref role="13i0hy" to="1yj:499Gn2DGTs1" resolve="toDisplayString" />
      <node concept="3Tm1VV" id="2FjKBCOKWxb" role="1B3o_S" />
      <node concept="3clFbS" id="2FjKBCOKWxm" role="3clF47">
        <node concept="3clFbF" id="2FjKBCOKWGN" role="3cqZAp">
          <node concept="2YIFZM" id="2FjKBCOKWH7" role="3clFbG">
            <ref role="37wK5l" to="wyt6:~String.format(java.lang.String,java.lang.Object...):java.lang.String" resolve="format" />
            <ref role="1Pybhc" to="wyt6:~String" resolve="String" />
            <node concept="Xl_RD" id="2FjKBCOKWIb" role="37wK5m">
              <property role="Xl_RC" value="%s %s" />
            </node>
            <node concept="BsUDl" id="2FjKBCOKX1x" role="37wK5m">
              <ref role="37wK5l" to="1yj:5Wfdz$0vc2$" resolve="getDisplayAlias" />
            </node>
            <node concept="2OqwBi" id="2FjKBCOKYgY" role="37wK5m">
              <node concept="2OqwBi" id="2FjKBCOKXu3" role="2Oq$k0">
                <node concept="13iPFW" id="2FjKBCOKXeL" role="2Oq$k0" />
                <node concept="3TrEf2" id="2FjKBCOKXMy" role="2OqNvi">
                  <ref role="3Tt5mk" to="jn6m:2FjKBCOKOco" resolve="comment" />
                </node>
              </node>
              <node concept="2qgKlT" id="2FjKBCOKZfQ" role="2OqNvi">
                <ref role="37wK5l" to="1yj:499Gn2DGTs1" resolve="toDisplayString" />
              </node>
            </node>
          </node>
        </node>
      </node>
      <node concept="17QB3L" id="2FjKBCOKWxn" role="3clF45" />
    </node>
    <node concept="13i0hz" id="2FjKBCOKWxs" role="13h7CS">
      <property role="13i0iv" value="false" />
      <property role="13i0it" value="false" />
      <property role="TrG5h" value="toGenerationString" />
      <ref role="13i0hy" to="1yj:499Gn2DGU_t" resolve="toGenerationString" />
      <node concept="3Tm1VV" id="2FjKBCOKWxt" role="1B3o_S" />
      <node concept="3clFbS" id="2FjKBCOKWxC" role="3clF47">
        <node concept="3clFbF" id="2FjKBCOKYOk" role="3cqZAp">
          <node concept="2YIFZM" id="2FjKBCOKYOl" role="3clFbG">
            <ref role="1Pybhc" to="wyt6:~String" resolve="String" />
            <ref role="37wK5l" to="wyt6:~String.format(java.lang.String,java.lang.Object...):java.lang.String" resolve="format" />
            <node concept="Xl_RD" id="2FjKBCOKYOm" role="37wK5m">
              <property role="Xl_RC" value="%s %s" />
            </node>
            <node concept="BsUDl" id="2FjKBCOKZ_w" role="37wK5m">
              <ref role="37wK5l" to="1yj:4QUW3efxqUv" resolve="getGenerationAlias" />
            </node>
            <node concept="2OqwBi" id="2FjKBCOKYOo" role="37wK5m">
              <node concept="2OqwBi" id="2FjKBCOKYOp" role="2Oq$k0">
                <node concept="13iPFW" id="2FjKBCOKYOq" role="2Oq$k0" />
                <node concept="3TrEf2" id="2FjKBCOKYOr" role="2OqNvi">
                  <ref role="3Tt5mk" to="jn6m:2FjKBCOKOco" resolve="comment" />
                </node>
              </node>
              <node concept="2qgKlT" id="2FjKBCOKYOs" role="2OqNvi">
                <ref role="37wK5l" to="1yj:499Gn2DGU_t" resolve="toGenerationString" />
              </node>
            </node>
          </node>
        </node>
      </node>
      <node concept="17QB3L" id="2FjKBCOKWxD" role="3clF45" />
    </node>
  </node>
  <node concept="13h7C7" id="2FjKBCPNbxr">
    <property role="3GE5qa" value="aspect.variables" />
    <ref role="13h7C2" to="jn6m:2FjKBCPNbwY" resolve="InterpretativeCommentVariable" />
    <node concept="13hLZK" id="2FjKBCPNbxs" role="13h7CW">
      <node concept="3clFbS" id="2FjKBCPNbxt" role="2VODD2" />
    </node>
    <node concept="13i0hz" id="2FjKBCPNbxA" role="13h7CS">
      <property role="13i0iv" value="false" />
      <property role="13i0it" value="false" />
      <property role="TrG5h" value="getDisplayAlias" />
      <property role="2Ki8OM" value="true" />
      <ref role="13i0hy" to="1yj:5Wfdz$0vc2$" resolve="getDisplayAlias" />
      <node concept="3Tm1VV" id="2FjKBCPNbxB" role="1B3o_S" />
      <node concept="3clFbS" id="2FjKBCPNbxG" role="3clF47">
        <node concept="3clFbF" id="2FjKBCPNb_X" role="3cqZAp">
          <node concept="Xl_RD" id="2FjKBCPNb_W" role="3clFbG">
            <property role="Xl_RC" value="interpretative comment" />
          </node>
        </node>
      </node>
      <node concept="17QB3L" id="2FjKBCPNbxH" role="3clF45" />
    </node>
    <node concept="13i0hz" id="2FjKBCPNbxM" role="13h7CS">
      <property role="13i0iv" value="false" />
      <property role="13i0it" value="false" />
      <property role="TrG5h" value="getDisplayDescription" />
      <property role="2Ki8OM" value="true" />
      <ref role="13i0hy" to="1yj:5Wfdz$0vc3v" resolve="getDisplayDescription" />
      <node concept="3Tm1VV" id="2FjKBCPNbxN" role="1B3o_S" />
      <node concept="3clFbS" id="2FjKBCPNbxS" role="3clF47">
        <node concept="3clFbF" id="2FjKBCPNbxX" role="3cqZAp">
          <node concept="Xl_RD" id="2FjKBCPNbAE" role="3clFbG">
            <property role="Xl_RC" value="" />
          </node>
        </node>
      </node>
      <node concept="17QB3L" id="2FjKBCPNbxT" role="3clF45" />
    </node>
    <node concept="13i0hz" id="2FjKBCPO_gz" role="13h7CS">
      <property role="13i0iv" value="false" />
      <property role="13i0it" value="false" />
      <property role="TrG5h" value="getReferenceDescription" />
      <property role="2Ki8OM" value="false" />
      <ref role="13i0hy" to="1yj:4V3GMfXuP$X" resolve="getReferenceDescription" />
      <node concept="3Tm1VV" id="2FjKBCPO_g$" role="1B3o_S" />
      <node concept="3clFbS" id="2FjKBCPO_gJ" role="3clF47">
        <node concept="3clFbF" id="2FjKBCPO_lU" role="3cqZAp">
          <node concept="Xl_RD" id="2FjKBCPO_lT" role="3clFbG">
            <property role="Xl_RC" value="interpretative comment" />
          </node>
        </node>
      </node>
      <node concept="17QB3L" id="2FjKBCPO_gK" role="3clF45" />
    </node>
  </node>
  <node concept="13h7C7" id="2FjKBCPNjKF">
    <property role="3GE5qa" value="aspect.patterns" />
    <ref role="13h7C2" to="jn6m:2FjKBCPNjKf" resolve="WildcardInterpretativeCommentPattern" />
    <node concept="13hLZK" id="2FjKBCPNjKG" role="13h7CW">
      <node concept="3clFbS" id="2FjKBCPNjKH" role="2VODD2" />
    </node>
    <node concept="13i0hz" id="2FjKBCPNjLw" role="13h7CS">
      <property role="13i0iv" value="false" />
      <property role="13i0it" value="false" />
      <property role="TrG5h" value="getDisplayDescription" />
      <property role="2Ki8OM" value="true" />
      <ref role="13i0hy" to="1yj:5Wfdz$0vc3v" resolve="getDisplayDescription" />
      <node concept="3Tm1VV" id="2FjKBCPNjLx" role="1B3o_S" />
      <node concept="3clFbS" id="2FjKBCPNjLA" role="3clF47">
        <node concept="3clFbF" id="2FjKBCPNjLF" role="3cqZAp">
          <node concept="Xl_RD" id="2FjKBCPNknV" role="3clFbG">
            <property role="Xl_RC" value="any interpretative comment" />
          </node>
        </node>
      </node>
      <node concept="17QB3L" id="2FjKBCPNjLB" role="3clF45" />
    </node>
    <node concept="13i0hz" id="2FjKBCPNjLk" role="13h7CS">
      <property role="TrG5h" value="hasPattern" />
      <property role="13i0it" value="false" />
      <property role="13i0iv" value="false" />
      <ref role="13i0hy" to="wb6c:6LTgXmNRv0n" resolve="hasPattern" />
      <node concept="3Tm1VV" id="2FjKBCPNjLl" role="1B3o_S" />
      <node concept="3clFbS" id="2FjKBCPNjLq" role="3clF47">
        <node concept="3clFbF" id="2FjKBCPNjLv" role="3cqZAp">
          <node concept="3clFbT" id="2FjKBCPOsHF" role="3clFbG">
            <property role="3clFbU" value="true" />
          </node>
        </node>
      </node>
      <node concept="10P_77" id="2FjKBCPNjLr" role="3clF45" />
    </node>
    <node concept="13i0hz" id="2FjKBCPOj0a" role="13h7CS">
      <property role="13i0iv" value="false" />
      <property role="13i0it" value="false" />
      <property role="TrG5h" value="getMatchActionParameter" />
      <ref role="13i0hy" to="wb6c:2FjKBCPNnnK" resolve="getMatchActionParameter" />
      <node concept="3Tm1VV" id="2FjKBCPOj0b" role="1B3o_S" />
      <node concept="3clFbS" id="2FjKBCPOj0g" role="3clF47">
        <node concept="3clFbF" id="2FjKBCPOjbi" role="3cqZAp">
          <node concept="35c_gC" id="2FjKBCPNkpc" role="3clFbG">
            <ref role="35c_gD" to="jn6m:4QUW3ee0Het" resolve="InterpretativeComment" />
          </node>
        </node>
      </node>
      <node concept="3bZ5Sz" id="2FjKBCPOj0h" role="3clF45">
        <ref role="3bZ5Sy" to="7f9y:2FjKBCOFjHC" resolve="ActionParameter" />
      </node>
    </node>
  </node>
</model>

