<?xml version="1.0" encoding="UTF-8"?>
<model ref="r:cbb3825a-4c97-4746-89c7-6d2bd4f55eff(no.uio.mLab.entities.specialistType.structure)">
  <persistence version="9" />
  <languages>
    <use id="c72da2b9-7cce-4447-8389-f407dc1158b7" name="jetbrains.mps.lang.structure" version="6" />
    <devkit ref="78434eb8-b0e5-444b-850d-e7c4ad2da9ab(jetbrains.mps.devkit.aspect.structure)" />
  </languages>
  <imports>
    <import index="kkto" ref="r:01f3534b-874e-42dc-a9b5-7540591f45bb(no.uio.mLab.entities.core.structure)" />
  </imports>
  <registry>
    <language id="c72da2b9-7cce-4447-8389-f407dc1158b7" name="jetbrains.mps.lang.structure">
      <concept id="1169125787135" name="jetbrains.mps.lang.structure.structure.AbstractConceptDeclaration" flags="ig" index="PkWjJ">
        <property id="6714410169261853888" name="conceptId" index="EcuMT" />
        <property id="4628067390765956807" name="final" index="R5$K2" />
        <property id="4628067390765956802" name="abstract" index="R5$K7" />
        <child id="1071489727083" name="linkDeclaration" index="1TKVEi" />
      </concept>
      <concept id="1071489090640" name="jetbrains.mps.lang.structure.structure.ConceptDeclaration" flags="ig" index="1TIwiD">
        <reference id="1071489389519" name="extends" index="1TJDcQ" />
      </concept>
      <concept id="1071489288298" name="jetbrains.mps.lang.structure.structure.LinkDeclaration" flags="ig" index="1TJgyj">
        <property id="1071599776563" name="role" index="20kJfa" />
        <property id="1071599937831" name="metaClass" index="20lmBu" />
        <property id="241647608299431140" name="linkId" index="IQ2ns" />
        <reference id="1071599698500" name="specializedLink" index="20ksaX" />
        <reference id="1071599976176" name="target" index="20lvS9" />
      </concept>
    </language>
    <language id="ceab5195-25ea-4f22-9b92-103b95ca8c0c" name="jetbrains.mps.lang.core">
      <concept id="1169194658468" name="jetbrains.mps.lang.core.structure.INamedConcept" flags="ng" index="TrEIO">
        <property id="1169194664001" name="name" index="TrG5h" />
      </concept>
    </language>
  </registry>
  <node concept="1TIwiD" id="1Hxyv4DS4$7">
    <property role="EcuMT" value="1973009780647676167" />
    <property role="TrG5h" value="SpecialistType" />
    <property role="R5$K7" value="true" />
    <property role="R5$K2" value="false" />
    <ref role="1TJDcQ" to="kkto:4QUW3edDqMR" resolve="Entity" />
    <node concept="1TJgyj" id="4QUW3edDvrX" role="1TKVEi">
      <property role="IQ2ns" value="5601053190799095549" />
      <property role="20lmBu" value="reference" />
      <property role="20kJfa" value="deprecatedBy" />
      <ref role="20lvS9" node="1Hxyv4DS4$7" resolve="SpecialistType" />
      <ref role="20ksaX" to="kkto:4QUW3edDrpg" resolve="deprecatedBy" />
    </node>
  </node>
</model>

