<?xml version="1.0" encoding="UTF-8"?>
<model ref="r:fc22de85-2e59-42fa-9fb8-b337e6546f50(main@generator)">
  <persistence version="9" />
  <languages>
    <devkit ref="a2eb3a43-fcc2-4200-80dc-c60110c4862d(jetbrains.mps.devkit.templates)" />
  </languages>
  <imports>
    <import index="ruww" ref="r:d7787915-5b9a-4713-a6ab-6345c5e1ec03(no.uio.mLab.decisions.references.laboratoryTest.structure)" />
  </imports>
  <registry>
    <language id="b401a680-8325-4110-8fd3-84331ff25bef" name="jetbrains.mps.lang.generator">
      <concept id="1095416546421" name="jetbrains.mps.lang.generator.structure.MappingConfiguration" flags="ig" index="bUwia" />
    </language>
    <language id="ceab5195-25ea-4f22-9b92-103b95ca8c0c" name="jetbrains.mps.lang.core">
      <concept id="1169194658468" name="jetbrains.mps.lang.core.structure.INamedConcept" flags="ng" index="TrEIO">
        <property id="1169194664001" name="name" index="TrG5h" />
      </concept>
    </language>
  </registry>
  <node concept="bUwia" id="4QUW3edu$nM">
    <property role="TrG5h" value="laboratoryTestReferenceMain" />
  </node>
</model>

