<?xml version="1.0" encoding="UTF-8"?>
<model ref="r:22f74c93-b2ac-407a-a77f-6316653afdfa(no.uio.mLab.decisions.data.patient.behavior)">
  <persistence version="9" />
  <languages>
    <use id="af65afd8-f0dd-4942-87d9-63a55f2a9db1" name="jetbrains.mps.lang.behavior" version="1" />
    <devkit ref="fbc25dd2-5da4-483a-8b19-70928e1b62d7(jetbrains.mps.devkit.general-purpose)" />
  </languages>
  <imports>
    <import index="1yj" ref="r:0c887d67-81ab-420f-9a35-a9f6bf96c975(no.uio.mLab.shared.behavior)" />
    <import index="wb6c" ref="r:19d15037-83c1-4ae2-b66a-763828cb8279(no.uio.mLab.decisions.core.behavior)" />
    <import index="7f9y" ref="r:790ac37e-42d3-4dd3-977c-e8fe9cc56a45(no.uio.mLab.decisions.core.structure)" />
    <import index="wyt6" ref="6354ebe7-c22a-4a0f-ac54-50b52ab9b065/java:java.lang(JDK/)" />
    <import index="2tx7" ref="r:b9eb9a75-8428-4de0-95e9-56a3344fc1cd(no.uio.mLab.decisions.data.patient.structure)" />
    <import index="bpuv" ref="r:cac6a8de-341e-464b-9501-83ed1e7323df(no.uio.mLab.data.patient.runtime)" />
    <import index="vbok" ref="r:6cc208d3-a370-49ca-a6ac-ded97805a924(no.uio.mLab.shared.structure)" />
    <import index="hyw5" ref="r:b77da972-4430-4cfb-8552-374583961329(no.uio.mLab.decisions.core.utils)" />
  </imports>
  <registry>
    <language id="af65afd8-f0dd-4942-87d9-63a55f2a9db1" name="jetbrains.mps.lang.behavior">
      <concept id="6496299201655527393" name="jetbrains.mps.lang.behavior.structure.LocalBehaviorMethodCall" flags="nn" index="BsUDl" />
      <concept id="1225194240794" name="jetbrains.mps.lang.behavior.structure.ConceptBehavior" flags="ng" index="13h7C7">
        <reference id="1225194240799" name="concept" index="13h7C2" />
        <child id="1225194240805" name="method" index="13h7CS" />
        <child id="1225194240801" name="constructor" index="13h7CW" />
      </concept>
      <concept id="1225194413805" name="jetbrains.mps.lang.behavior.structure.ConceptConstructorDeclaration" flags="in" index="13hLZK" />
      <concept id="1225194472830" name="jetbrains.mps.lang.behavior.structure.ConceptMethodDeclaration" flags="ng" index="13i0hz">
        <property id="5864038008284099149" name="isStatic" index="2Ki8OM" />
        <property id="1225194472832" name="isVirtual" index="13i0it" />
        <property id="1225194472834" name="isAbstract" index="13i0iv" />
        <reference id="1225194472831" name="overriddenMethod" index="13i0hy" />
      </concept>
      <concept id="1225194691553" name="jetbrains.mps.lang.behavior.structure.ThisNodeExpression" flags="nn" index="13iPFW" />
    </language>
    <language id="f3061a53-9226-4cc5-a443-f952ceaf5816" name="jetbrains.mps.baseLanguage">
      <concept id="4836112446988635817" name="jetbrains.mps.baseLanguage.structure.UndefinedType" flags="in" index="2jxLKc" />
      <concept id="1202948039474" name="jetbrains.mps.baseLanguage.structure.InstanceMethodCallOperation" flags="nn" index="liA8E" />
      <concept id="1197027756228" name="jetbrains.mps.baseLanguage.structure.DotExpression" flags="nn" index="2OqwBi">
        <child id="1197027771414" name="operand" index="2Oq$k0" />
        <child id="1197027833540" name="operation" index="2OqNvi" />
      </concept>
      <concept id="1137021947720" name="jetbrains.mps.baseLanguage.structure.ConceptFunction" flags="in" index="2VMwT0">
        <child id="1137022507850" name="body" index="2VODD2" />
      </concept>
      <concept id="1070475926800" name="jetbrains.mps.baseLanguage.structure.StringLiteral" flags="nn" index="Xl_RD">
        <property id="1070475926801" name="value" index="Xl_RC" />
      </concept>
      <concept id="1081236700937" name="jetbrains.mps.baseLanguage.structure.StaticMethodCall" flags="nn" index="2YIFZM">
        <reference id="1144433194310" name="classConcept" index="1Pybhc" />
      </concept>
      <concept id="1070533707846" name="jetbrains.mps.baseLanguage.structure.StaticFieldReference" flags="nn" index="10M0yZ">
        <reference id="1144433057691" name="classifier" index="1PxDUh" />
      </concept>
      <concept id="1070534644030" name="jetbrains.mps.baseLanguage.structure.BooleanType" flags="in" index="10P_77" />
      <concept id="1068431474542" name="jetbrains.mps.baseLanguage.structure.VariableDeclaration" flags="ng" index="33uBYm">
        <child id="1068431790190" name="initializer" index="33vP2m" />
      </concept>
      <concept id="1068498886296" name="jetbrains.mps.baseLanguage.structure.VariableReference" flags="nn" index="37vLTw">
        <reference id="1068581517664" name="variableDeclaration" index="3cqZAo" />
      </concept>
      <concept id="1068498886292" name="jetbrains.mps.baseLanguage.structure.ParameterDeclaration" flags="ir" index="37vLTG" />
      <concept id="1225271177708" name="jetbrains.mps.baseLanguage.structure.StringType" flags="in" index="17QB3L" />
      <concept id="4972933694980447171" name="jetbrains.mps.baseLanguage.structure.BaseVariableDeclaration" flags="ng" index="19Szcq">
        <child id="5680397130376446158" name="type" index="1tU5fm" />
      </concept>
      <concept id="1068580123132" name="jetbrains.mps.baseLanguage.structure.BaseMethodDeclaration" flags="ng" index="3clF44">
        <child id="1068580123133" name="returnType" index="3clF45" />
        <child id="1068580123134" name="parameter" index="3clF46" />
        <child id="1068580123135" name="body" index="3clF47" />
      </concept>
      <concept id="1068580123155" name="jetbrains.mps.baseLanguage.structure.ExpressionStatement" flags="nn" index="3clFbF">
        <child id="1068580123156" name="expression" index="3clFbG" />
      </concept>
      <concept id="1068580123136" name="jetbrains.mps.baseLanguage.structure.StatementList" flags="sn" stub="5293379017992965193" index="3clFbS">
        <child id="1068581517665" name="statement" index="3cqZAp" />
      </concept>
      <concept id="1068581242878" name="jetbrains.mps.baseLanguage.structure.ReturnStatement" flags="nn" index="3cpWs6">
        <child id="1068581517676" name="expression" index="3cqZAk" />
      </concept>
      <concept id="1068581242864" name="jetbrains.mps.baseLanguage.structure.LocalVariableDeclarationStatement" flags="nn" index="3cpWs8">
        <child id="1068581242865" name="localVariableDeclaration" index="3cpWs9" />
      </concept>
      <concept id="1068581242863" name="jetbrains.mps.baseLanguage.structure.LocalVariableDeclaration" flags="nr" index="3cpWsn" />
      <concept id="1204053956946" name="jetbrains.mps.baseLanguage.structure.IMethodCall" flags="ng" index="1ndlxa">
        <reference id="1068499141037" name="baseMethodDeclaration" index="37wK5l" />
        <child id="1068499141038" name="actualArgument" index="37wK5m" />
      </concept>
      <concept id="1107535904670" name="jetbrains.mps.baseLanguage.structure.ClassifierType" flags="in" index="3uibUv">
        <reference id="1107535924139" name="classifier" index="3uigEE" />
      </concept>
      <concept id="1178549954367" name="jetbrains.mps.baseLanguage.structure.IVisible" flags="ng" index="1B3ioH">
        <child id="1178549979242" name="visibility" index="1B3o_S" />
      </concept>
      <concept id="1146644602865" name="jetbrains.mps.baseLanguage.structure.PublicVisibility" flags="nn" index="3Tm1VV" />
    </language>
    <language id="7866978e-a0f0-4cc7-81bc-4d213d9375e1" name="jetbrains.mps.lang.smodel">
      <concept id="1177026924588" name="jetbrains.mps.lang.smodel.structure.RefConcept_Reference" flags="nn" index="chp4Y">
        <reference id="1177026940964" name="conceptDeclaration" index="cht4Q" />
      </concept>
      <concept id="1179409122411" name="jetbrains.mps.lang.smodel.structure.Node_ConceptMethodCall" flags="nn" index="2qgKlT" />
      <concept id="1883223317721008708" name="jetbrains.mps.lang.smodel.structure.IfInstanceOfStatement" flags="nn" index="Jncv_">
        <reference id="1883223317721008712" name="nodeConcept" index="JncvD" />
        <child id="1883223317721008709" name="body" index="Jncv$" />
        <child id="1883223317721008711" name="variable" index="JncvA" />
        <child id="1883223317721008710" name="nodeExpression" index="JncvB" />
      </concept>
      <concept id="1883223317721008713" name="jetbrains.mps.lang.smodel.structure.IfInstanceOfVariable" flags="ng" index="JncvC" />
      <concept id="1180031783296" name="jetbrains.mps.lang.smodel.structure.Concept_IsSubConceptOfOperation" flags="nn" index="2Zo12i">
        <child id="1180031783297" name="conceptArgument" index="2Zo12j" />
      </concept>
      <concept id="6677504323281689838" name="jetbrains.mps.lang.smodel.structure.SConceptType" flags="in" index="3bZ5Sz">
        <reference id="6677504323281689839" name="conceptDeclaraton" index="3bZ5Sy" />
      </concept>
      <concept id="1138055754698" name="jetbrains.mps.lang.smodel.structure.SNodeType" flags="in" index="3Tqbb2" />
      <concept id="1138056143562" name="jetbrains.mps.lang.smodel.structure.SLinkAccess" flags="nn" index="3TrEf2">
        <reference id="1138056516764" name="link" index="3Tt5mk" />
      </concept>
    </language>
    <language id="ceab5195-25ea-4f22-9b92-103b95ca8c0c" name="jetbrains.mps.lang.core">
      <concept id="1133920641626" name="jetbrains.mps.lang.core.structure.BaseConcept" flags="ng" index="2VYdi">
        <property id="1193676396447" name="virtualPackage" index="3GE5qa" />
      </concept>
      <concept id="1169194658468" name="jetbrains.mps.lang.core.structure.INamedConcept" flags="ng" index="TrEIO">
        <property id="1169194664001" name="name" index="TrG5h" />
      </concept>
    </language>
  </registry>
  <node concept="13h7C7" id="1mAGFBIZM59">
    <property role="3GE5qa" value="base.data" />
    <ref role="13h7C2" to="2tx7:3bOTPdWSbEf" resolve="PatientAge" />
    <node concept="13hLZK" id="1mAGFBIZM5a" role="13h7CW">
      <node concept="3clFbS" id="1mAGFBIZM5b" role="2VODD2" />
    </node>
    <node concept="13i0hz" id="1mAGFBIZM5J" role="13h7CS">
      <property role="13i0iv" value="false" />
      <property role="13i0it" value="false" />
      <property role="TrG5h" value="getDisplayAlias" />
      <property role="2Ki8OM" value="true" />
      <ref role="13i0hy" to="1yj:5Wfdz$0vc2$" resolve="getDisplayAlias" />
      <node concept="3Tm1VV" id="1mAGFBIZM5K" role="1B3o_S" />
      <node concept="3clFbS" id="1mAGFBIZM5P" role="3clF47">
        <node concept="3clFbF" id="1mAGFBIZMwl" role="3cqZAp">
          <node concept="2OqwBi" id="1mAGFBIZMBR" role="3clFbG">
            <node concept="BsUDl" id="1Hxyv4EV$qR" role="2Oq$k0">
              <ref role="37wK5l" node="1Hxyv4EVtOc" resolve="getPatientDisplayTranslations" />
            </node>
            <node concept="liA8E" id="1mAGFBIZMH_" role="2OqNvi">
              <ref role="37wK5l" to="bpuv:3bOTPdWRg67" resolve="getPatientAgeAlias" />
            </node>
          </node>
        </node>
      </node>
      <node concept="17QB3L" id="1mAGFBIZM5Q" role="3clF45" />
    </node>
    <node concept="13i0hz" id="1mAGFBIZM5V" role="13h7CS">
      <property role="13i0iv" value="false" />
      <property role="13i0it" value="false" />
      <property role="TrG5h" value="getDisplayDescription" />
      <property role="2Ki8OM" value="true" />
      <ref role="13i0hy" to="1yj:5Wfdz$0vc3v" resolve="getDisplayDescription" />
      <node concept="3Tm1VV" id="1mAGFBIZM5W" role="1B3o_S" />
      <node concept="3clFbS" id="1mAGFBIZM61" role="3clF47">
        <node concept="3clFbF" id="1mAGFBIZMIv" role="3cqZAp">
          <node concept="2OqwBi" id="1mAGFBIZMPS" role="3clFbG">
            <node concept="BsUDl" id="1Hxyv4EV$ww" role="2Oq$k0">
              <ref role="37wK5l" node="1Hxyv4EVtOc" resolve="getPatientDisplayTranslations" />
            </node>
            <node concept="liA8E" id="1mAGFBIZMVI" role="2OqNvi">
              <ref role="37wK5l" to="bpuv:3bOTPdWRg9v" resolve="getPatientAgeDescription" />
            </node>
          </node>
        </node>
      </node>
      <node concept="17QB3L" id="1mAGFBIZM62" role="3clF45" />
    </node>
    <node concept="13i0hz" id="1Hxyv4EV$Cp" role="13h7CS">
      <property role="TrG5h" value="toDisplayString" />
      <property role="13i0it" value="false" />
      <property role="13i0iv" value="false" />
      <property role="2Ki8OM" value="false" />
      <ref role="13i0hy" to="1yj:499Gn2DGTs1" resolve="toDisplayString" />
      <node concept="3clFbS" id="1Hxyv4EV$C_" role="3clF47">
        <node concept="3clFbF" id="1Hxyv4EV$M4" role="3cqZAp">
          <node concept="BsUDl" id="1Hxyv4EV$M3" role="3clFbG">
            <ref role="37wK5l" to="1yj:5Wfdz$0vc2$" resolve="getDisplayAlias" />
          </node>
        </node>
      </node>
      <node concept="17QB3L" id="499Gn2DS4x9" role="3clF45" />
      <node concept="3Tm1VV" id="499Gn2DS4xa" role="1B3o_S" />
    </node>
    <node concept="13i0hz" id="1Hxyv4DUFtb" role="13h7CS">
      <property role="TrG5h" value="toGenerationString" />
      <property role="13i0it" value="false" />
      <property role="13i0iv" value="false" />
      <property role="2Ki8OM" value="false" />
      <ref role="13i0hy" to="1yj:499Gn2DGU_t" resolve="toGenerationString" />
      <node concept="3clFbS" id="1Hxyv4DUFtn" role="3clF47">
        <node concept="3clFbF" id="1Hxyv4DUFts" role="3cqZAp">
          <node concept="2OqwBi" id="1Hxyv4DUFEH" role="3clFbG">
            <node concept="BsUDl" id="4B5aqq6oC0O" role="2Oq$k0">
              <ref role="37wK5l" node="1Hxyv4EVuik" resolve="getPatientGenerationTranslations" />
            </node>
            <node concept="liA8E" id="1Hxyv4DUFEJ" role="2OqNvi">
              <ref role="37wK5l" to="bpuv:3bOTPdWRg67" resolve="getPatientAgeAlias" />
            </node>
          </node>
        </node>
      </node>
      <node concept="17QB3L" id="499Gn2DS4xs" role="3clF45" />
      <node concept="3Tm1VV" id="499Gn2DS4xt" role="1B3o_S" />
    </node>
    <node concept="13i0hz" id="65epL7MechM" role="13h7CS">
      <property role="TrG5h" value="matches" />
      <property role="13i0it" value="false" />
      <property role="13i0iv" value="false" />
      <ref role="13i0hy" to="wb6c:6LTgXmMs$_D" resolve="matches" />
      <node concept="3Tm1VV" id="65epL7MechN" role="1B3o_S" />
      <node concept="3clFbS" id="65epL7Meci0" role="3clF47">
        <node concept="Jncv_" id="65epL7Mecot" role="3cqZAp">
          <ref role="JncvD" to="2tx7:3bOTPdWSbEf" resolve="PatientAge" />
          <node concept="37vLTw" id="65epL7MecoU" role="JncvB">
            <ref role="3cqZAo" node="65epL7Meci1" resolve="node" />
          </node>
          <node concept="3clFbS" id="65epL7Mecov" role="Jncv$">
            <node concept="3cpWs6" id="65epL7MecqV" role="3cqZAp">
              <node concept="2YIFZM" id="65epL7Mecs7" role="3cqZAk">
                <ref role="37wK5l" to="hyw5:5uQLXCsZ3I7" resolve="createMatch" />
                <ref role="1Pybhc" to="hyw5:6LTgXmO6cZw" resolve="JoinPointMatch" />
              </node>
            </node>
          </node>
          <node concept="JncvC" id="65epL7Mecow" role="JncvA">
            <property role="TrG5h" value="dataValue" />
            <node concept="2jxLKc" id="65epL7Mecox" role="1tU5fm" />
          </node>
        </node>
        <node concept="3clFbF" id="65epL7Mect1" role="3cqZAp">
          <node concept="2YIFZM" id="65epL7MectU" role="3clFbG">
            <ref role="37wK5l" to="hyw5:1I84Bf7XEgz" resolve="createMismatch" />
            <ref role="1Pybhc" to="hyw5:6LTgXmO6cZw" resolve="JoinPointMatch" />
          </node>
        </node>
      </node>
      <node concept="37vLTG" id="65epL7Meci1" role="3clF46">
        <property role="TrG5h" value="node" />
        <node concept="3Tqbb2" id="65epL7Meci2" role="1tU5fm" />
      </node>
      <node concept="3uibUv" id="65epL7Meci3" role="3clF45">
        <ref role="3uigEE" to="hyw5:6LTgXmO6cZw" resolve="JoinPointMatch" />
      </node>
    </node>
  </node>
  <node concept="13h7C7" id="1mAGFBJ1srr">
    <property role="3GE5qa" value="base.literals" />
    <ref role="13h7C2" to="2tx7:1mAGFBJ1sr0" resolve="MaleGender" />
    <node concept="13hLZK" id="1mAGFBJ1srs" role="13h7CW">
      <node concept="3clFbS" id="1mAGFBJ1srt" role="2VODD2" />
    </node>
    <node concept="13i0hz" id="1mAGFBJd9C$" role="13h7CS">
      <property role="13i0iv" value="false" />
      <property role="13i0it" value="false" />
      <property role="TrG5h" value="getDisplayAlias" />
      <property role="2Ki8OM" value="true" />
      <ref role="13i0hy" to="1yj:5Wfdz$0vc2$" resolve="getDisplayAlias" />
      <node concept="3Tm1VV" id="1mAGFBJd9C_" role="1B3o_S" />
      <node concept="3clFbS" id="1mAGFBJd9CE" role="3clF47">
        <node concept="3clFbF" id="1mAGFBJd9GW" role="3cqZAp">
          <node concept="2OqwBi" id="1mAGFBJd9Ou" role="3clFbG">
            <node concept="BsUDl" id="1Hxyv4EVy7E" role="2Oq$k0">
              <ref role="37wK5l" node="1Hxyv4EVtOc" resolve="getPatientDisplayTranslations" />
            </node>
            <node concept="liA8E" id="1mAGFBJdcsd" role="2OqNvi">
              <ref role="37wK5l" to="bpuv:1mAGFBJda20" resolve="getMaleGenderAlias" />
            </node>
          </node>
        </node>
      </node>
      <node concept="17QB3L" id="1mAGFBJd9CF" role="3clF45" />
    </node>
    <node concept="13i0hz" id="1mAGFBJd9CK" role="13h7CS">
      <property role="13i0iv" value="false" />
      <property role="13i0it" value="false" />
      <property role="TrG5h" value="getDisplayDescription" />
      <property role="2Ki8OM" value="true" />
      <ref role="13i0hy" to="1yj:5Wfdz$0vc3v" resolve="getDisplayDescription" />
      <node concept="3Tm1VV" id="1mAGFBJd9CL" role="1B3o_S" />
      <node concept="3clFbS" id="1mAGFBJd9CQ" role="3clF47">
        <node concept="3clFbF" id="1mAGFBJdct7" role="3cqZAp">
          <node concept="2OqwBi" id="1mAGFBJdc$w" role="3clFbG">
            <node concept="BsUDl" id="1Hxyv4EVycV" role="2Oq$k0">
              <ref role="37wK5l" node="1Hxyv4EVtOc" resolve="getPatientDisplayTranslations" />
            </node>
            <node concept="liA8E" id="1mAGFBJdcEm" role="2OqNvi">
              <ref role="37wK5l" to="bpuv:1mAGFBJda7u" resolve="getMaleGenderDescription" />
            </node>
          </node>
        </node>
      </node>
      <node concept="17QB3L" id="1mAGFBJd9CR" role="3clF45" />
    </node>
    <node concept="13i0hz" id="1Hxyv4EVyhZ" role="13h7CS">
      <property role="TrG5h" value="toDisplayString" />
      <property role="13i0it" value="false" />
      <property role="13i0iv" value="false" />
      <property role="2Ki8OM" value="false" />
      <ref role="13i0hy" to="1yj:499Gn2DGTs1" resolve="toDisplayString" />
      <node concept="3clFbS" id="1Hxyv4EVyib" role="3clF47">
        <node concept="3clFbF" id="1Hxyv4EVyri" role="3cqZAp">
          <node concept="BsUDl" id="1Hxyv4EVyrh" role="3clFbG">
            <ref role="37wK5l" to="1yj:5Wfdz$0vc2$" resolve="getDisplayAlias" />
          </node>
        </node>
      </node>
      <node concept="17QB3L" id="499Gn2DS4tE" role="3clF45" />
      <node concept="3Tm1VV" id="499Gn2DS4tF" role="1B3o_S" />
    </node>
    <node concept="13i0hz" id="1Hxyv4DW0cj" role="13h7CS">
      <property role="TrG5h" value="toGenerationString" />
      <property role="13i0it" value="false" />
      <property role="13i0iv" value="false" />
      <property role="2Ki8OM" value="false" />
      <ref role="13i0hy" to="1yj:499Gn2DGU_t" resolve="toGenerationString" />
      <node concept="3clFbS" id="1Hxyv4DW0cv" role="3clF47">
        <node concept="3clFbF" id="1Hxyv4DW0c$" role="3cqZAp">
          <node concept="2OqwBi" id="1Hxyv4DW0pt" role="3clFbG">
            <node concept="BsUDl" id="1Hxyv4EVyvN" role="2Oq$k0">
              <ref role="37wK5l" node="1Hxyv4EVuik" resolve="getPatientGenerationTranslations" />
            </node>
            <node concept="liA8E" id="1Hxyv4DW0pv" role="2OqNvi">
              <ref role="37wK5l" to="bpuv:1mAGFBJda20" resolve="getMaleGenderAlias" />
            </node>
          </node>
        </node>
      </node>
      <node concept="17QB3L" id="499Gn2DS4tX" role="3clF45" />
      <node concept="3Tm1VV" id="499Gn2DS4tY" role="1B3o_S" />
    </node>
  </node>
  <node concept="13h7C7" id="1mAGFBJ5AYr">
    <property role="3GE5qa" value="base.data" />
    <ref role="13h7C2" to="2tx7:1mAGFBJ1sqP" resolve="PatientGender" />
    <node concept="13hLZK" id="1mAGFBJ5AYs" role="13h7CW">
      <node concept="3clFbS" id="1mAGFBJ5AYt" role="2VODD2" />
    </node>
    <node concept="13i0hz" id="1mAGFBJ5AYA" role="13h7CS">
      <property role="13i0iv" value="false" />
      <property role="13i0it" value="false" />
      <property role="TrG5h" value="getDisplayAlias" />
      <property role="2Ki8OM" value="true" />
      <ref role="13i0hy" to="1yj:5Wfdz$0vc2$" resolve="getDisplayAlias" />
      <node concept="3Tm1VV" id="1mAGFBJ5AYB" role="1B3o_S" />
      <node concept="3clFbS" id="1mAGFBJ5AYG" role="3clF47">
        <node concept="3clFbF" id="1mAGFBJ5B76" role="3cqZAp">
          <node concept="2OqwBi" id="1mAGFBJ5BeC" role="3clFbG">
            <node concept="BsUDl" id="1Hxyv4EV$Un" role="2Oq$k0">
              <ref role="37wK5l" node="1Hxyv4EVtOc" resolve="getPatientDisplayTranslations" />
            </node>
            <node concept="liA8E" id="1mAGFBJ5Bkm" role="2OqNvi">
              <ref role="37wK5l" to="bpuv:3bOTPdWRgcb" resolve="getPatientGenderAlias" />
            </node>
          </node>
        </node>
      </node>
      <node concept="17QB3L" id="1mAGFBJ5AYH" role="3clF45" />
    </node>
    <node concept="13i0hz" id="1mAGFBJ5AYM" role="13h7CS">
      <property role="13i0iv" value="false" />
      <property role="13i0it" value="false" />
      <property role="TrG5h" value="getDisplayDescription" />
      <property role="2Ki8OM" value="true" />
      <ref role="13i0hy" to="1yj:5Wfdz$0vc3v" resolve="getDisplayDescription" />
      <node concept="3Tm1VV" id="1mAGFBJ5AYN" role="1B3o_S" />
      <node concept="3clFbS" id="1mAGFBJ5AYS" role="3clF47">
        <node concept="3clFbF" id="1mAGFBJ5Blg" role="3cqZAp">
          <node concept="2OqwBi" id="1mAGFBJ5BsD" role="3clFbG">
            <node concept="BsUDl" id="1Hxyv4EV$Vt" role="2Oq$k0">
              <ref role="37wK5l" node="1Hxyv4EVtOc" resolve="getPatientDisplayTranslations" />
            </node>
            <node concept="liA8E" id="1mAGFBJ5Byv" role="2OqNvi">
              <ref role="37wK5l" to="bpuv:3bOTPdWRgfB" resolve="getPatientGenderDescription" />
            </node>
          </node>
        </node>
      </node>
      <node concept="17QB3L" id="1mAGFBJ5AYT" role="3clF45" />
    </node>
    <node concept="13i0hz" id="499Gn2DSgAi" role="13h7CS">
      <property role="13i0iv" value="false" />
      <property role="13i0it" value="false" />
      <property role="TrG5h" value="toDisplayString" />
      <ref role="13i0hy" to="1yj:499Gn2DGTs1" resolve="toDisplayString" />
      <node concept="3Tm1VV" id="499Gn2DSgAj" role="1B3o_S" />
      <node concept="3clFbS" id="499Gn2DSgAu" role="3clF47">
        <node concept="3clFbF" id="499Gn2DSgAz" role="3cqZAp">
          <node concept="BsUDl" id="499Gn2DShFg" role="3clFbG">
            <ref role="37wK5l" to="1yj:5Wfdz$0vc2$" resolve="getDisplayAlias" />
          </node>
        </node>
      </node>
      <node concept="17QB3L" id="499Gn2DSgAv" role="3clF45" />
    </node>
    <node concept="13i0hz" id="1Hxyv4DUiSm" role="13h7CS">
      <property role="TrG5h" value="toGenerationString" />
      <property role="13i0it" value="false" />
      <property role="13i0iv" value="false" />
      <property role="2Ki8OM" value="false" />
      <ref role="13i0hy" to="1yj:499Gn2DGU_t" resolve="toGenerationString" />
      <node concept="3clFbS" id="1Hxyv4DUiSy" role="3clF47">
        <node concept="3clFbF" id="1Hxyv4DUjWl" role="3cqZAp">
          <node concept="2OqwBi" id="1Hxyv4DUk4n" role="3clFbG">
            <node concept="BsUDl" id="499Gn2DSgOY" role="2Oq$k0">
              <ref role="37wK5l" node="1Hxyv4EVuik" resolve="getPatientGenerationTranslations" />
            </node>
            <node concept="liA8E" id="1Hxyv4DUka8" role="2OqNvi">
              <ref role="37wK5l" to="bpuv:3bOTPdWRgcb" resolve="getPatientGenderAlias" />
            </node>
          </node>
        </node>
      </node>
      <node concept="17QB3L" id="499Gn2DSfMe" role="3clF45" />
      <node concept="3Tm1VV" id="499Gn2DSfMf" role="1B3o_S" />
    </node>
    <node concept="13i0hz" id="65epL7MedS$" role="13h7CS">
      <property role="TrG5h" value="matches" />
      <property role="13i0it" value="false" />
      <property role="13i0iv" value="false" />
      <ref role="13i0hy" to="wb6c:6LTgXmMs$_D" resolve="matches" />
      <node concept="3Tm1VV" id="65epL7MedS_" role="1B3o_S" />
      <node concept="3clFbS" id="65epL7MedSM" role="3clF47">
        <node concept="Jncv_" id="65epL7MedXx" role="3cqZAp">
          <ref role="JncvD" to="2tx7:1mAGFBJ1sqP" resolve="PatientGender" />
          <node concept="37vLTw" id="65epL7MedXY" role="JncvB">
            <ref role="3cqZAo" node="65epL7MedSN" resolve="node" />
          </node>
          <node concept="3clFbS" id="65epL7MedXz" role="Jncv$">
            <node concept="3cpWs6" id="65epL7MedZ9" role="3cqZAp">
              <node concept="2YIFZM" id="65epL7Mee0g" role="3cqZAk">
                <ref role="37wK5l" to="hyw5:5uQLXCsZ3I7" resolve="createMatch" />
                <ref role="1Pybhc" to="hyw5:6LTgXmO6cZw" resolve="JoinPointMatch" />
              </node>
            </node>
          </node>
          <node concept="JncvC" id="65epL7MedX$" role="JncvA">
            <property role="TrG5h" value="dataValue" />
            <node concept="2jxLKc" id="65epL7MedX_" role="1tU5fm" />
          </node>
        </node>
        <node concept="3clFbF" id="65epL7Mee19" role="3cqZAp">
          <node concept="2YIFZM" id="65epL7Mee2f" role="3clFbG">
            <ref role="37wK5l" to="hyw5:1I84Bf7XEgz" resolve="createMismatch" />
            <ref role="1Pybhc" to="hyw5:6LTgXmO6cZw" resolve="JoinPointMatch" />
          </node>
        </node>
      </node>
      <node concept="37vLTG" id="65epL7MedSN" role="3clF46">
        <property role="TrG5h" value="node" />
        <node concept="3Tqbb2" id="65epL7MedSO" role="1tU5fm" />
      </node>
      <node concept="3uibUv" id="65epL7MedSP" role="3clF45">
        <ref role="3uigEE" to="hyw5:6LTgXmO6cZw" resolve="JoinPointMatch" />
      </node>
    </node>
  </node>
  <node concept="13h7C7" id="1mAGFBJbQLy">
    <property role="3GE5qa" value="base.constraints" />
    <ref role="13h7C2" to="2tx7:1mAGFBJbKj6" resolve="PatientGenderEqualTo" />
    <node concept="13hLZK" id="1mAGFBJbQLz" role="13h7CW">
      <node concept="3clFbS" id="1mAGFBJbQL$" role="2VODD2" />
    </node>
    <node concept="13i0hz" id="1mAGFBJbQLH" role="13h7CS">
      <property role="13i0iv" value="false" />
      <property role="13i0it" value="false" />
      <property role="TrG5h" value="getDisplayAlias" />
      <property role="2Ki8OM" value="true" />
      <ref role="13i0hy" to="1yj:5Wfdz$0vc2$" resolve="getDisplayAlias" />
      <node concept="3Tm1VV" id="1mAGFBJbQLI" role="1B3o_S" />
      <node concept="3clFbS" id="1mAGFBJbQLN" role="3clF47">
        <node concept="3clFbF" id="1mAGFBJbQLS" role="3cqZAp">
          <node concept="2OqwBi" id="1mAGFBJbTgm" role="3clFbG">
            <node concept="BsUDl" id="1Hxyv4EVyQy" role="2Oq$k0">
              <ref role="37wK5l" node="1Hxyv4EVtOc" resolve="getPatientDisplayTranslations" />
            </node>
            <node concept="liA8E" id="1mAGFBJbTm6" role="2OqNvi">
              <ref role="37wK5l" to="bpuv:1mAGFBJbR0Q" resolve="getPatientGenderEqualityAlias" />
            </node>
          </node>
        </node>
      </node>
      <node concept="17QB3L" id="1mAGFBJbQLO" role="3clF45" />
    </node>
    <node concept="13i0hz" id="1mAGFBJbQLT" role="13h7CS">
      <property role="13i0iv" value="false" />
      <property role="13i0it" value="false" />
      <property role="TrG5h" value="getDisplayDescription" />
      <property role="2Ki8OM" value="true" />
      <ref role="13i0hy" to="1yj:5Wfdz$0vc3v" resolve="getDisplayDescription" />
      <node concept="3Tm1VV" id="1mAGFBJbQLU" role="1B3o_S" />
      <node concept="3clFbS" id="1mAGFBJbQLZ" role="3clF47">
        <node concept="3clFbF" id="1mAGFBJbQM4" role="3cqZAp">
          <node concept="2OqwBi" id="1mAGFBJbTu_" role="3clFbG">
            <node concept="BsUDl" id="1Hxyv4EVz3Y" role="2Oq$k0">
              <ref role="37wK5l" node="1Hxyv4EVtOc" resolve="getPatientDisplayTranslations" />
            </node>
            <node concept="liA8E" id="1mAGFBJbT$t" role="2OqNvi">
              <ref role="37wK5l" to="bpuv:1mAGFBJbR8e" resolve="getPatientGenderEqualityDescription" />
            </node>
          </node>
        </node>
      </node>
      <node concept="17QB3L" id="1mAGFBJbQM0" role="3clF45" />
    </node>
    <node concept="13i0hz" id="1mAGFBK2M5H" role="13h7CS">
      <property role="TrG5h" value="getMissingValueError" />
      <property role="2Ki8OM" value="true" />
      <node concept="3Tm1VV" id="1mAGFBK2M5I" role="1B3o_S" />
      <node concept="17QB3L" id="1mAGFBK2M6d" role="3clF45" />
      <node concept="3clFbS" id="1mAGFBK2M5K" role="3clF47">
        <node concept="3clFbF" id="1mAGFBK2M79" role="3cqZAp">
          <node concept="2OqwBi" id="1mAGFBK2Mey" role="3clFbG">
            <node concept="BsUDl" id="1Hxyv4EVzht" role="2Oq$k0">
              <ref role="37wK5l" node="1Hxyv4EVtOc" resolve="getPatientDisplayTranslations" />
            </node>
            <node concept="liA8E" id="1mAGFBK2RAd" role="2OqNvi">
              <ref role="37wK5l" to="bpuv:1mAGFBK2MHv" resolve="getPatientGenderMissingValueError" />
            </node>
          </node>
        </node>
      </node>
    </node>
    <node concept="13i0hz" id="1Hxyv4EVzGn" role="13h7CS">
      <property role="TrG5h" value="toDisplayString" />
      <property role="13i0it" value="false" />
      <property role="13i0iv" value="false" />
      <property role="2Ki8OM" value="false" />
      <ref role="13i0hy" to="1yj:499Gn2DGTs1" resolve="toDisplayString" />
      <node concept="3clFbS" id="1Hxyv4EVzGz" role="3clF47">
        <node concept="3clFbF" id="499Gn2DSiIJ" role="3cqZAp">
          <node concept="2YIFZM" id="499Gn2DSiIK" role="3clFbG">
            <ref role="37wK5l" to="wyt6:~String.format(java.lang.String,java.lang.Object...):java.lang.String" resolve="format" />
            <ref role="1Pybhc" to="wyt6:~String" resolve="String" />
            <node concept="Xl_RD" id="499Gn2DSiIL" role="37wK5m">
              <property role="Xl_RC" value="%s %s" />
            </node>
            <node concept="BsUDl" id="499Gn2DSiYx" role="37wK5m">
              <ref role="37wK5l" to="1yj:5Wfdz$0vc2$" resolve="getDisplayAlias" />
            </node>
            <node concept="2OqwBi" id="499Gn2DSiIN" role="37wK5m">
              <node concept="2OqwBi" id="499Gn2DSiIO" role="2Oq$k0">
                <node concept="13iPFW" id="499Gn2DSiIP" role="2Oq$k0" />
                <node concept="3TrEf2" id="499Gn2DSiIQ" role="2OqNvi">
                  <ref role="3Tt5mk" to="2tx7:1mAGFBJbKjH" resolve="gender" />
                </node>
              </node>
              <node concept="2qgKlT" id="499Gn2DSiIR" role="2OqNvi">
                <ref role="37wK5l" to="1yj:499Gn2DGU_t" resolve="toGenerationString" />
              </node>
            </node>
          </node>
        </node>
      </node>
      <node concept="17QB3L" id="499Gn2DS6mU" role="3clF45" />
      <node concept="3Tm1VV" id="499Gn2DS6mV" role="1B3o_S" />
    </node>
    <node concept="13i0hz" id="1Hxyv4DV7Ny" role="13h7CS">
      <property role="TrG5h" value="toGenerationString" />
      <property role="13i0it" value="false" />
      <property role="13i0iv" value="false" />
      <property role="2Ki8OM" value="false" />
      <ref role="13i0hy" to="1yj:499Gn2DGU_t" resolve="toGenerationString" />
      <node concept="3clFbS" id="1Hxyv4DV7NI" role="3clF47">
        <node concept="3cpWs8" id="1Hxyv4DV817" role="3cqZAp">
          <node concept="3cpWsn" id="1Hxyv4DV81a" role="3cpWs9">
            <property role="TrG5h" value="alias" />
            <node concept="17QB3L" id="1Hxyv4DV814" role="1tU5fm" />
            <node concept="2OqwBi" id="1Hxyv4DV81N" role="33vP2m">
              <node concept="BsUDl" id="1Hxyv4EVzv2" role="2Oq$k0">
                <ref role="37wK5l" node="1Hxyv4EVuik" resolve="getPatientGenerationTranslations" />
              </node>
              <node concept="liA8E" id="1Hxyv4DV81P" role="2OqNvi">
                <ref role="37wK5l" to="bpuv:1mAGFBJbR0Q" resolve="getPatientGenderEqualityAlias" />
              </node>
            </node>
          </node>
        </node>
        <node concept="3clFbF" id="1Hxyv4DV83X" role="3cqZAp">
          <node concept="2YIFZM" id="1Hxyv4DV84B" role="3clFbG">
            <ref role="37wK5l" to="wyt6:~String.format(java.lang.String,java.lang.Object...):java.lang.String" resolve="format" />
            <ref role="1Pybhc" to="wyt6:~String" resolve="String" />
            <node concept="Xl_RD" id="1Hxyv4DV88Z" role="37wK5m">
              <property role="Xl_RC" value="%s %s" />
            </node>
            <node concept="37vLTw" id="6oczKrNMS41" role="37wK5m">
              <ref role="3cqZAo" node="1Hxyv4DV81a" resolve="alias" />
            </node>
            <node concept="2OqwBi" id="1Hxyv4DVa00" role="37wK5m">
              <node concept="2OqwBi" id="1Hxyv4DV9iF" role="2Oq$k0">
                <node concept="13iPFW" id="6oczKrNMZuJ" role="2Oq$k0" />
                <node concept="3TrEf2" id="6oczKrNMZid" role="2OqNvi">
                  <ref role="3Tt5mk" to="2tx7:1mAGFBJbKjH" resolve="gender" />
                </node>
              </node>
              <node concept="2qgKlT" id="6oczKrNMZTs" role="2OqNvi">
                <ref role="37wK5l" to="1yj:499Gn2DGU_t" resolve="toGenerationString" />
              </node>
            </node>
          </node>
        </node>
      </node>
      <node concept="17QB3L" id="499Gn2DS6dq" role="3clF45" />
      <node concept="3Tm1VV" id="499Gn2DS6dr" role="1B3o_S" />
    </node>
  </node>
  <node concept="13h7C7" id="1mAGFBJdhKB">
    <property role="3GE5qa" value="base.literals" />
    <ref role="13h7C2" to="2tx7:1mAGFBJ1sr1" resolve="FemaleGender" />
    <node concept="13hLZK" id="1mAGFBJdhKC" role="13h7CW">
      <node concept="3clFbS" id="1mAGFBJdhKD" role="2VODD2" />
    </node>
    <node concept="13i0hz" id="1mAGFBJdhKM" role="13h7CS">
      <property role="13i0iv" value="false" />
      <property role="13i0it" value="false" />
      <property role="TrG5h" value="getDisplayAlias" />
      <property role="2Ki8OM" value="true" />
      <ref role="13i0hy" to="1yj:5Wfdz$0vc2$" resolve="getDisplayAlias" />
      <node concept="3Tm1VV" id="1mAGFBJdhKN" role="1B3o_S" />
      <node concept="3clFbS" id="1mAGFBJdhKS" role="3clF47">
        <node concept="3clFbF" id="1mAGFBJdhKX" role="3cqZAp">
          <node concept="2OqwBi" id="1mAGFBJdhWf" role="3clFbG">
            <node concept="BsUDl" id="1Hxyv4EVxyS" role="2Oq$k0">
              <ref role="37wK5l" node="1Hxyv4EVtOc" resolve="getPatientDisplayTranslations" />
            </node>
            <node concept="liA8E" id="1mAGFBJdi1X" role="2OqNvi">
              <ref role="37wK5l" to="bpuv:1mAGFBJdaj$" resolve="getFemaleGenderAlias" />
            </node>
          </node>
        </node>
      </node>
      <node concept="17QB3L" id="1mAGFBJdhKT" role="3clF45" />
    </node>
    <node concept="13i0hz" id="1mAGFBJdhKY" role="13h7CS">
      <property role="13i0iv" value="false" />
      <property role="13i0it" value="false" />
      <property role="TrG5h" value="getDisplayDescription" />
      <property role="2Ki8OM" value="true" />
      <ref role="13i0hy" to="1yj:5Wfdz$0vc3v" resolve="getDisplayDescription" />
      <node concept="3Tm1VV" id="1mAGFBJdhKZ" role="1B3o_S" />
      <node concept="3clFbS" id="1mAGFBJdhL4" role="3clF47">
        <node concept="3clFbF" id="1mAGFBJdi2R" role="3cqZAp">
          <node concept="2OqwBi" id="1mAGFBJdia6" role="3clFbG">
            <node concept="BsUDl" id="1Hxyv4EVxC9" role="2Oq$k0">
              <ref role="37wK5l" node="1Hxyv4EVtOc" resolve="getPatientDisplayTranslations" />
            </node>
            <node concept="liA8E" id="1mAGFBJdifW" role="2OqNvi">
              <ref role="37wK5l" to="bpuv:1mAGFBJdapM" resolve="getFemaleGenderDescription" />
            </node>
          </node>
        </node>
      </node>
      <node concept="17QB3L" id="1mAGFBJdhL5" role="3clF45" />
    </node>
    <node concept="13i0hz" id="1Hxyv4EVxD2" role="13h7CS">
      <property role="TrG5h" value="toDisplayString" />
      <property role="13i0it" value="false" />
      <property role="13i0iv" value="false" />
      <property role="2Ki8OM" value="false" />
      <ref role="13i0hy" to="1yj:499Gn2DGTs1" resolve="toDisplayString" />
      <node concept="3clFbS" id="1Hxyv4EVxDe" role="3clF47">
        <node concept="3clFbF" id="1Hxyv4EVxMl" role="3cqZAp">
          <node concept="BsUDl" id="1Hxyv4EVxMk" role="3clFbG">
            <ref role="37wK5l" to="1yj:5Wfdz$0vc2$" resolve="getDisplayAlias" />
          </node>
        </node>
      </node>
      <node concept="17QB3L" id="499Gn2DS4qK" role="3clF45" />
      <node concept="3Tm1VV" id="499Gn2DS4qL" role="1B3o_S" />
    </node>
    <node concept="13i0hz" id="1Hxyv4DW00u" role="13h7CS">
      <property role="TrG5h" value="toGenerationString" />
      <property role="13i0it" value="false" />
      <property role="13i0iv" value="false" />
      <property role="2Ki8OM" value="false" />
      <ref role="13i0hy" to="1yj:499Gn2DGU_t" resolve="toGenerationString" />
      <node concept="3clFbS" id="1Hxyv4DW00E" role="3clF47">
        <node concept="3clFbF" id="1Hxyv4DW00J" role="3cqZAp">
          <node concept="2OqwBi" id="1Hxyv4DW09w" role="3clFbG">
            <node concept="BsUDl" id="1Hxyv4EVxQQ" role="2Oq$k0">
              <ref role="37wK5l" node="1Hxyv4EVuik" resolve="getPatientGenerationTranslations" />
            </node>
            <node concept="liA8E" id="1Hxyv4DW09y" role="2OqNvi">
              <ref role="37wK5l" to="bpuv:1mAGFBJdaj$" resolve="getFemaleGenderAlias" />
            </node>
          </node>
        </node>
      </node>
      <node concept="17QB3L" id="499Gn2DS4r3" role="3clF45" />
      <node concept="3Tm1VV" id="499Gn2DS4r4" role="1B3o_S" />
    </node>
  </node>
  <node concept="13h7C7" id="1mAGFBKO013">
    <property role="3GE5qa" value="base.constraints" />
    <ref role="13h7C2" to="2tx7:1mAGFBJdO57" resolve="PatientGenderConstraint" />
    <node concept="13hLZK" id="1mAGFBKO014" role="13h7CW">
      <node concept="3clFbS" id="1mAGFBKO015" role="2VODD2" />
    </node>
    <node concept="13i0hz" id="1mAGFBKO01e" role="13h7CS">
      <property role="TrG5h" value="isAllowedToConstrain" />
      <property role="13i0it" value="false" />
      <property role="2Ki8OM" value="true" />
      <property role="13i0iv" value="false" />
      <ref role="13i0hy" to="wb6c:1mAGFBKNuSW" resolve="isAllowedToConstrain" />
      <node concept="3Tm1VV" id="1mAGFBKO01f" role="1B3o_S" />
      <node concept="3clFbS" id="1mAGFBKO01m" role="3clF47">
        <node concept="3clFbF" id="1mAGFBKO05d" role="3cqZAp">
          <node concept="2OqwBi" id="1mAGFBKO0jI" role="3clFbG">
            <node concept="37vLTw" id="1mAGFBKO05c" role="2Oq$k0">
              <ref role="3cqZAo" node="1mAGFBKO01n" resolve="concept" />
            </node>
            <node concept="2Zo12i" id="1mAGFBKO0xj" role="2OqNvi">
              <node concept="chp4Y" id="1mAGFBKO0CJ" role="2Zo12j">
                <ref role="cht4Q" to="2tx7:1mAGFBJ1sqP" resolve="PatientGender" />
              </node>
            </node>
          </node>
        </node>
      </node>
      <node concept="37vLTG" id="1mAGFBKO01n" role="3clF46">
        <property role="TrG5h" value="concept" />
        <node concept="3bZ5Sz" id="1mAGFBKO01o" role="1tU5fm">
          <ref role="3bZ5Sy" to="7f9y:1mAGFBKqQrZ" resolve="DataValue" />
        </node>
      </node>
      <node concept="10P_77" id="1mAGFBKO01p" role="3clF45" />
    </node>
  </node>
  <node concept="13h7C7" id="1Hxyv4EVtNR">
    <ref role="13h7C2" to="2tx7:1Hxyv4EVtNh" resolve="ITranslatablePatientConcept" />
    <node concept="13i0hz" id="1Hxyv4EVtOc" role="13h7CS">
      <property role="13i0iv" value="false" />
      <property role="13i0it" value="false" />
      <property role="TrG5h" value="getPatientDisplayTranslations" />
      <property role="2Ki8OM" value="true" />
      <node concept="3Tm1VV" id="1Hxyv4EVtOd" role="1B3o_S" />
      <node concept="3uibUv" id="ofcHXfPt2f" role="3clF45">
        <ref role="3uigEE" to="bpuv:4zMac8rUNtP" resolve="IPatientTranslations" />
      </node>
      <node concept="3clFbS" id="1Hxyv4EVtOf" role="3clF47">
        <node concept="3clFbF" id="1Hxyv4EVtRD" role="3cqZAp">
          <node concept="10M0yZ" id="ofcHXfPt3s" role="3clFbG">
            <ref role="3cqZAo" to="bpuv:4zMac8rVBeK" resolve="displayTranslations" />
            <ref role="1PxDUh" to="bpuv:4zMac8rUNsN" resolve="PatientTranslationProvider" />
          </node>
        </node>
      </node>
    </node>
    <node concept="13i0hz" id="1Hxyv4EVuik" role="13h7CS">
      <property role="13i0iv" value="false" />
      <property role="13i0it" value="false" />
      <property role="TrG5h" value="getPatientGenerationTranslations" />
      <property role="2Ki8OM" value="true" />
      <node concept="3Tm1VV" id="1Hxyv4EVuil" role="1B3o_S" />
      <node concept="3uibUv" id="ofcHXfPt41" role="3clF45">
        <ref role="3uigEE" to="bpuv:4zMac8rUNtP" resolve="IPatientTranslations" />
      </node>
      <node concept="3clFbS" id="1Hxyv4EVuin" role="3clF47">
        <node concept="3clFbF" id="1Hxyv4EVuio" role="3cqZAp">
          <node concept="10M0yZ" id="ofcHXfPt4A" role="3clFbG">
            <ref role="3cqZAo" to="bpuv:1Hxyv4DUj3E" resolve="generationTranslations" />
            <ref role="1PxDUh" to="bpuv:4zMac8rUNsN" resolve="PatientTranslationProvider" />
          </node>
        </node>
      </node>
    </node>
    <node concept="13hLZK" id="1Hxyv4EVtNS" role="13h7CW">
      <node concept="3clFbS" id="1Hxyv4EVtNT" role="2VODD2" />
    </node>
  </node>
</model>

