<?xml version="1.0" encoding="UTF-8"?>
<model ref="r:608f14d6-1076-429b-b21a-50db27d42551(no.uio.mLab.decisions.data.patient.editor)">
  <persistence version="9" />
  <languages>
    <use id="18bc6592-03a6-4e29-a83a-7ff23bde13ba" name="jetbrains.mps.lang.editor" version="11" />
    <use id="aee9cad2-acd4-4608-aef2-0004f6a1cdbd" name="jetbrains.mps.lang.actions" version="4" />
    <devkit ref="fbc25dd2-5da4-483a-8b19-70928e1b62d7(jetbrains.mps.devkit.general-purpose)" />
  </languages>
  <imports>
    <import index="uubs" ref="r:481ae0fe-9100-4bb8-9488-731d6cfeba53(no.uio.mLab.shared.editor)" />
    <import index="2tx7" ref="r:b9eb9a75-8428-4de0-95e9-56a3344fc1cd(no.uio.mLab.decisions.data.patient.structure)" implicit="true" />
    <import index="1yj" ref="r:0c887d67-81ab-420f-9a35-a9f6bf96c975(no.uio.mLab.shared.behavior)" implicit="true" />
  </imports>
  <registry>
    <language id="18bc6592-03a6-4e29-a83a-7ff23bde13ba" name="jetbrains.mps.lang.editor">
      <concept id="2000375450116454183" name="jetbrains.mps.lang.editor.structure.ISubstituteMenu" flags="ng" index="22mbnS">
        <child id="414384289274416996" name="parts" index="3ft7WO" />
      </concept>
      <concept id="1071666914219" name="jetbrains.mps.lang.editor.structure.ConceptEditorDeclaration" flags="ig" index="24kQdi" />
      <concept id="1106270549637" name="jetbrains.mps.lang.editor.structure.CellLayout_Horizontal" flags="nn" index="2iRfu4" />
      <concept id="1177327570013" name="jetbrains.mps.lang.editor.structure.QueryFunction_SubstituteMenu_Substitute" flags="in" index="ucgPf" />
      <concept id="8478191136883534237" name="jetbrains.mps.lang.editor.structure.IExtensibleSubstituteMenuPart" flags="ng" index="upBLQ">
        <child id="8478191136883534238" name="features" index="upBLP" />
      </concept>
      <concept id="1177335944525" name="jetbrains.mps.lang.editor.structure.QueryFunction_SubstituteMenu_SubstituteString" flags="in" index="uGdhv" />
      <concept id="1080736578640" name="jetbrains.mps.lang.editor.structure.BaseEditorComponent" flags="ig" index="2wURMF">
        <child id="1080736633877" name="cellModel" index="2wV5jI" />
      </concept>
      <concept id="8383079901754291618" name="jetbrains.mps.lang.editor.structure.CellModel_NextEditor" flags="ng" index="B$lHz" />
      <concept id="1078939183254" name="jetbrains.mps.lang.editor.structure.CellModel_Component" flags="sg" stub="3162947552742194261" index="PMmxH">
        <reference id="1078939183255" name="editorComponent" index="PMmxG" />
      </concept>
      <concept id="1630016958697344083" name="jetbrains.mps.lang.editor.structure.IMenu_Concept" flags="ng" index="2ZABuq">
        <reference id="6591946374543067572" name="conceptDeclaration" index="aqKnT" />
      </concept>
      <concept id="8998492695583125082" name="jetbrains.mps.lang.editor.structure.SubstituteFeature_MatchingText" flags="ng" index="16NfWO">
        <child id="8998492695583129244" name="query" index="16NeZM" />
      </concept>
      <concept id="8998492695583129971" name="jetbrains.mps.lang.editor.structure.SubstituteFeature_DescriptionText" flags="ng" index="16NL0t">
        <child id="8998492695583129972" name="query" index="16NL0q" />
      </concept>
      <concept id="7342352913006985483" name="jetbrains.mps.lang.editor.structure.SubstituteMenuPart_Action" flags="ng" index="3eGOop">
        <child id="8612453216082699922" name="substituteHandler" index="3aKz83" />
      </concept>
      <concept id="1381004262292414836" name="jetbrains.mps.lang.editor.structure.ICellStyle" flags="ng" index="1k5N5V">
        <reference id="1381004262292426837" name="parentStyleClass" index="1k5W1q" />
      </concept>
      <concept id="3308396621974580100" name="jetbrains.mps.lang.editor.structure.SubstituteMenu_Default" flags="ng" index="3p36aQ" />
      <concept id="5425882385312046132" name="jetbrains.mps.lang.editor.structure.QueryFunctionParameter_SubstituteMenu_CurrentTargetNode" flags="nn" index="1yR$tW" />
      <concept id="1139848536355" name="jetbrains.mps.lang.editor.structure.CellModel_WithRole" flags="ng" index="1$h60E">
        <property id="1139852716018" name="noTargetText" index="1$x2rV" />
        <reference id="1140103550593" name="relationDeclaration" index="1NtTu8" />
      </concept>
      <concept id="1073389214265" name="jetbrains.mps.lang.editor.structure.EditorCellModel" flags="ng" index="3EYTF0">
        <reference id="1139959269582" name="actionMap" index="1ERwB7" />
      </concept>
      <concept id="1073389446423" name="jetbrains.mps.lang.editor.structure.CellModel_Collection" flags="sn" stub="3013115976261988961" index="3EZMnI">
        <child id="1106270802874" name="cellLayout" index="2iSdaV" />
        <child id="1073389446424" name="childCellModel" index="3EZMnx" />
      </concept>
      <concept id="1073389882823" name="jetbrains.mps.lang.editor.structure.CellModel_RefNode" flags="sg" stub="730538219795960754" index="3F1sOY" />
      <concept id="1166049232041" name="jetbrains.mps.lang.editor.structure.AbstractComponent" flags="ng" index="1XWOmA">
        <reference id="1166049300910" name="conceptDeclaration" index="1XX52x" />
      </concept>
    </language>
    <language id="f3061a53-9226-4cc5-a443-f952ceaf5816" name="jetbrains.mps.baseLanguage">
      <concept id="1197027756228" name="jetbrains.mps.baseLanguage.structure.DotExpression" flags="nn" index="2OqwBi">
        <child id="1197027771414" name="operand" index="2Oq$k0" />
        <child id="1197027833540" name="operation" index="2OqNvi" />
      </concept>
      <concept id="1145552977093" name="jetbrains.mps.baseLanguage.structure.GenericNewExpression" flags="nn" index="2ShNRf">
        <child id="1145553007750" name="creator" index="2ShVmc" />
      </concept>
      <concept id="1137021947720" name="jetbrains.mps.baseLanguage.structure.ConceptFunction" flags="in" index="2VMwT0">
        <child id="1137022507850" name="body" index="2VODD2" />
      </concept>
      <concept id="1068580123155" name="jetbrains.mps.baseLanguage.structure.ExpressionStatement" flags="nn" index="3clFbF">
        <child id="1068580123156" name="expression" index="3clFbG" />
      </concept>
      <concept id="1068580123136" name="jetbrains.mps.baseLanguage.structure.StatementList" flags="sn" stub="5293379017992965193" index="3clFbS">
        <child id="1068581517665" name="statement" index="3cqZAp" />
      </concept>
      <concept id="1204053956946" name="jetbrains.mps.baseLanguage.structure.IMethodCall" flags="ng" index="1ndlxa">
        <reference id="1068499141037" name="baseMethodDeclaration" index="37wK5l" />
      </concept>
    </language>
    <language id="aee9cad2-acd4-4608-aef2-0004f6a1cdbd" name="jetbrains.mps.lang.actions">
      <concept id="5979988948250981289" name="jetbrains.mps.lang.actions.structure.SNodeCreatorAndInitializer" flags="nn" index="2fJWfE">
        <child id="3757480014665187678" name="prototype" index="1wAG5O" />
      </concept>
    </language>
    <language id="7866978e-a0f0-4cc7-81bc-4d213d9375e1" name="jetbrains.mps.lang.smodel">
      <concept id="1179409122411" name="jetbrains.mps.lang.smodel.structure.Node_ConceptMethodCall" flags="nn" index="2qgKlT" />
      <concept id="2644386474300074836" name="jetbrains.mps.lang.smodel.structure.ConceptIdRefExpression" flags="nn" index="35c_gC">
        <reference id="2644386474300074837" name="conceptDeclaration" index="35c_gD" />
      </concept>
      <concept id="1180636770613" name="jetbrains.mps.lang.smodel.structure.SNodeCreator" flags="nn" index="3zrR0B">
        <child id="1180636770616" name="createdType" index="3zrR0E" />
      </concept>
      <concept id="1138055754698" name="jetbrains.mps.lang.smodel.structure.SNodeType" flags="in" index="3Tqbb2">
        <reference id="1138405853777" name="concept" index="ehGHo" />
      </concept>
    </language>
    <language id="ceab5195-25ea-4f22-9b92-103b95ca8c0c" name="jetbrains.mps.lang.core">
      <concept id="1133920641626" name="jetbrains.mps.lang.core.structure.BaseConcept" flags="ng" index="2VYdi">
        <property id="1193676396447" name="virtualPackage" index="3GE5qa" />
      </concept>
    </language>
  </registry>
  <node concept="3p36aQ" id="1mAGFBIZPdd">
    <property role="3GE5qa" value="base.data" />
    <ref role="aqKnT" to="2tx7:3bOTPdWSbEf" resolve="PatientAge" />
    <node concept="3eGOop" id="1mAGFBIZPde" role="3ft7WO">
      <node concept="ucgPf" id="1mAGFBIZPdf" role="3aKz83">
        <node concept="3clFbS" id="1mAGFBIZPdg" role="2VODD2">
          <node concept="3clFbF" id="1mAGFBIZPit" role="3cqZAp">
            <node concept="2ShNRf" id="1mAGFBIZPir" role="3clFbG">
              <node concept="3zrR0B" id="1mAGFBIZQt1" role="2ShVmc">
                <node concept="3Tqbb2" id="1mAGFBIZQt3" role="3zrR0E">
                  <ref role="ehGHo" to="2tx7:3bOTPdWSbEf" resolve="PatientAge" />
                </node>
              </node>
            </node>
          </node>
        </node>
      </node>
      <node concept="16NfWO" id="1mAGFBIZQBC" role="upBLP">
        <node concept="uGdhv" id="1mAGFBIZQH0" role="16NeZM">
          <node concept="3clFbS" id="1mAGFBIZQH2" role="2VODD2">
            <node concept="3clFbF" id="1mAGFBIZQPC" role="3cqZAp">
              <node concept="2OqwBi" id="1mAGFBIZRvG" role="3clFbG">
                <node concept="35c_gC" id="1mAGFBIZQPB" role="2Oq$k0">
                  <ref role="35c_gD" to="2tx7:3bOTPdWSbEf" resolve="PatientAge" />
                </node>
                <node concept="2qgKlT" id="1mAGFBIZS0$" role="2OqNvi">
                  <ref role="37wK5l" to="1yj:5Wfdz$0vc2$" resolve="getDisplayAlias" />
                </node>
              </node>
            </node>
          </node>
        </node>
      </node>
      <node concept="16NL0t" id="1mAGFBIZSvn" role="upBLP">
        <node concept="uGdhv" id="1mAGFBIZS$W" role="16NL0q">
          <node concept="3clFbS" id="1mAGFBIZS$Y" role="2VODD2">
            <node concept="3clFbF" id="1mAGFBIZSH$" role="3cqZAp">
              <node concept="2OqwBi" id="1mAGFBIZTqH" role="3clFbG">
                <node concept="35c_gC" id="1mAGFBIZSHz" role="2Oq$k0">
                  <ref role="35c_gD" to="2tx7:3bOTPdWSbEf" resolve="PatientAge" />
                </node>
                <node concept="2qgKlT" id="1mAGFBIZTV_" role="2OqNvi">
                  <ref role="37wK5l" to="1yj:5Wfdz$0vc3v" resolve="getDisplayDescription" />
                </node>
              </node>
            </node>
          </node>
        </node>
      </node>
    </node>
  </node>
  <node concept="3p36aQ" id="1mAGFBJ5BzL">
    <property role="3GE5qa" value="base.data" />
    <ref role="aqKnT" to="2tx7:1mAGFBJ1sqP" resolve="PatientGender" />
    <node concept="3eGOop" id="1mAGFBJ5BzM" role="3ft7WO">
      <node concept="ucgPf" id="1mAGFBJ5BzN" role="3aKz83">
        <node concept="3clFbS" id="1mAGFBJ5BzO" role="2VODD2">
          <node concept="3clFbF" id="1mAGFBJ5BCx" role="3cqZAp">
            <node concept="2ShNRf" id="1mAGFBJ5BCv" role="3clFbG">
              <node concept="2fJWfE" id="2XLt5KV8AEV" role="2ShVmc">
                <node concept="3Tqbb2" id="2XLt5KV8AEX" role="3zrR0E">
                  <ref role="ehGHo" to="2tx7:1mAGFBJ1sqP" resolve="PatientGender" />
                </node>
                <node concept="1yR$tW" id="2XLt5KV8ARY" role="1wAG5O" />
              </node>
            </node>
          </node>
        </node>
      </node>
      <node concept="16NfWO" id="1mAGFBJ5BWZ" role="upBLP">
        <node concept="uGdhv" id="1mAGFBJ5C1R" role="16NeZM">
          <node concept="3clFbS" id="1mAGFBJ5C1T" role="2VODD2">
            <node concept="3clFbF" id="1mAGFBJ5Cav" role="3cqZAp">
              <node concept="2OqwBi" id="1mAGFBJ5CND" role="3clFbG">
                <node concept="35c_gC" id="1mAGFBJ5Cau" role="2Oq$k0">
                  <ref role="35c_gD" to="2tx7:1mAGFBJ1sqP" resolve="PatientGender" />
                </node>
                <node concept="2qgKlT" id="1mAGFBJ5Diw" role="2OqNvi">
                  <ref role="37wK5l" to="1yj:5Wfdz$0vc2$" resolve="getDisplayAlias" />
                </node>
              </node>
            </node>
          </node>
        </node>
      </node>
      <node concept="16NL0t" id="1mAGFBJ5DJC" role="upBLP">
        <node concept="uGdhv" id="1mAGFBJ5DOH" role="16NL0q">
          <node concept="3clFbS" id="1mAGFBJ5DOJ" role="2VODD2">
            <node concept="3clFbF" id="1mAGFBJ5DXl" role="3cqZAp">
              <node concept="2OqwBi" id="1mAGFBJ5EAv" role="3clFbG">
                <node concept="35c_gC" id="1mAGFBJ5DXk" role="2Oq$k0">
                  <ref role="35c_gD" to="2tx7:1mAGFBJ1sqP" resolve="PatientGender" />
                </node>
                <node concept="2qgKlT" id="1mAGFBJ5F5m" role="2OqNvi">
                  <ref role="37wK5l" to="1yj:5Wfdz$0vc3v" resolve="getDisplayDescription" />
                </node>
              </node>
            </node>
          </node>
        </node>
      </node>
    </node>
  </node>
  <node concept="24kQdi" id="1mAGFBJbKjw">
    <property role="3GE5qa" value="base.constraints" />
    <ref role="1XX52x" to="2tx7:1mAGFBJbKj6" resolve="PatientGenderEqualTo" />
    <node concept="3EZMnI" id="1mAGFBJbKjy" role="2wV5jI">
      <node concept="2iRfu4" id="1mAGFBJbKjz" role="2iSdaV" />
      <node concept="B$lHz" id="1mAGFBKysg1" role="3EZMnx" />
      <node concept="3F1sOY" id="1mAGFBJbKjJ" role="3EZMnx">
        <property role="1$x2rV" value="&lt;&lt; ... &gt;&gt;" />
        <ref role="1NtTu8" to="2tx7:1mAGFBJbKjH" resolve="gender" />
        <ref role="1ERwB7" to="uubs:1mAGFBJU9EC" resolve="DeleteSelf_ActionMap" />
      </node>
    </node>
  </node>
  <node concept="3p36aQ" id="1mAGFBJbNq8">
    <property role="3GE5qa" value="base.constraints" />
    <ref role="aqKnT" to="2tx7:1mAGFBJbKj6" resolve="PatientGenderEqualTo" />
    <node concept="3eGOop" id="1mAGFBJbNq9" role="3ft7WO">
      <node concept="ucgPf" id="1mAGFBJbNqa" role="3aKz83">
        <node concept="3clFbS" id="1mAGFBJbNqb" role="2VODD2">
          <node concept="3clFbF" id="1mAGFBJbNum" role="3cqZAp">
            <node concept="2ShNRf" id="1mAGFBJbNuk" role="3clFbG">
              <node concept="3zrR0B" id="1mAGFBJbN_E" role="2ShVmc">
                <node concept="3Tqbb2" id="1mAGFBJbN_G" role="3zrR0E">
                  <ref role="ehGHo" to="2tx7:1mAGFBJbKj6" resolve="PatientGenderEqualTo" />
                </node>
              </node>
            </node>
          </node>
        </node>
      </node>
      <node concept="16NfWO" id="1mAGFBJbNId" role="upBLP">
        <node concept="uGdhv" id="1mAGFBJbNMz" role="16NeZM">
          <node concept="3clFbS" id="1mAGFBJbNM_" role="2VODD2">
            <node concept="3clFbF" id="1mAGFBJbNVb" role="3cqZAp">
              <node concept="2OqwBi" id="1mAGFBJbOzj" role="3clFbG">
                <node concept="35c_gC" id="1mAGFBJbNVa" role="2Oq$k0">
                  <ref role="35c_gD" to="2tx7:1mAGFBJbKj6" resolve="PatientGenderEqualTo" />
                </node>
                <node concept="2qgKlT" id="1mAGFBJbOZK" role="2OqNvi">
                  <ref role="37wK5l" to="1yj:5Wfdz$0vc2$" resolve="getDisplayAlias" />
                </node>
              </node>
            </node>
          </node>
        </node>
      </node>
      <node concept="16NL0t" id="1mAGFBJbPhO" role="upBLP">
        <node concept="uGdhv" id="1mAGFBJbPmn" role="16NL0q">
          <node concept="3clFbS" id="1mAGFBJbPmp" role="2VODD2">
            <node concept="3clFbF" id="1mAGFBJbPuZ" role="3cqZAp">
              <node concept="2OqwBi" id="1mAGFBJbQ77" role="3clFbG">
                <node concept="35c_gC" id="1mAGFBJbPuY" role="2Oq$k0">
                  <ref role="35c_gD" to="2tx7:1mAGFBJbKj6" resolve="PatientGenderEqualTo" />
                </node>
                <node concept="2qgKlT" id="1mAGFBJbQz$" role="2OqNvi">
                  <ref role="37wK5l" to="1yj:5Wfdz$0vc3v" resolve="getDisplayDescription" />
                </node>
              </node>
            </node>
          </node>
        </node>
      </node>
    </node>
  </node>
  <node concept="24kQdi" id="1mAGFBJd9Co">
    <property role="3GE5qa" value="base.literals" />
    <ref role="1XX52x" to="2tx7:1mAGFBJ1sqX" resolve="GenderLiteral" />
    <node concept="PMmxH" id="1mAGFBJd9Cq" role="2wV5jI">
      <ref role="PMmxG" to="uubs:5ZQBr_XMEtE" resolve="TranslatedAlias" />
      <ref role="1k5W1q" to="uubs:6khVixykMkg" resolve="Literal" />
    </node>
  </node>
  <node concept="3p36aQ" id="1mAGFBJdcFC">
    <property role="3GE5qa" value="base.literals" />
    <ref role="aqKnT" to="2tx7:1mAGFBJ1sr0" resolve="MaleGender" />
    <node concept="3eGOop" id="1mAGFBJdcFD" role="3ft7WO">
      <node concept="ucgPf" id="1mAGFBJdcFE" role="3aKz83">
        <node concept="3clFbS" id="1mAGFBJdcFF" role="2VODD2">
          <node concept="3clFbF" id="1mAGFBJdcK6" role="3cqZAp">
            <node concept="2ShNRf" id="1mAGFBJdcK4" role="3clFbG">
              <node concept="3zrR0B" id="1mAGFBJdcRE" role="2ShVmc">
                <node concept="3Tqbb2" id="1mAGFBJdcRG" role="3zrR0E">
                  <ref role="ehGHo" to="2tx7:1mAGFBJ1sr0" resolve="MaleGender" />
                </node>
              </node>
            </node>
          </node>
        </node>
      </node>
      <node concept="16NfWO" id="1mAGFBJdd0H" role="upBLP">
        <node concept="uGdhv" id="1mAGFBJdd5j" role="16NeZM">
          <node concept="3clFbS" id="1mAGFBJdd5l" role="2VODD2">
            <node concept="3clFbF" id="1mAGFBJdddV" role="3cqZAp">
              <node concept="2OqwBi" id="1mAGFBJdefm" role="3clFbG">
                <node concept="35c_gC" id="1mAGFBJdddU" role="2Oq$k0">
                  <ref role="35c_gD" to="2tx7:1mAGFBJ1sr0" resolve="MaleGender" />
                </node>
                <node concept="2qgKlT" id="1mAGFBJdeGN" role="2OqNvi">
                  <ref role="37wK5l" to="1yj:5Wfdz$0vc2$" resolve="getDisplayAlias" />
                </node>
              </node>
            </node>
          </node>
        </node>
      </node>
      <node concept="16NL0t" id="1mAGFBJdf8S" role="upBLP">
        <node concept="uGdhv" id="1mAGFBJdfdF" role="16NL0q">
          <node concept="3clFbS" id="1mAGFBJdfdH" role="2VODD2">
            <node concept="3clFbF" id="1mAGFBJdfmj" role="3cqZAp">
              <node concept="2OqwBi" id="1mAGFBJdfYS" role="3clFbG">
                <node concept="35c_gC" id="1mAGFBJdfmi" role="2Oq$k0">
                  <ref role="35c_gD" to="2tx7:1mAGFBJ1sr0" resolve="MaleGender" />
                </node>
                <node concept="2qgKlT" id="1mAGFBJdgsl" role="2OqNvi">
                  <ref role="37wK5l" to="1yj:5Wfdz$0vc3v" resolve="getDisplayDescription" />
                </node>
              </node>
            </node>
          </node>
        </node>
      </node>
    </node>
  </node>
  <node concept="3p36aQ" id="1mAGFBJdgEk">
    <property role="3GE5qa" value="base.literals" />
    <ref role="aqKnT" to="2tx7:1mAGFBJ1sr1" resolve="FemaleGender" />
    <node concept="3eGOop" id="1mAGFBJdgEl" role="3ft7WO">
      <node concept="ucgPf" id="1mAGFBJdgEm" role="3aKz83">
        <node concept="3clFbS" id="1mAGFBJdgEn" role="2VODD2">
          <node concept="3clFbF" id="1mAGFBJdgEo" role="3cqZAp">
            <node concept="2ShNRf" id="1mAGFBJdgEp" role="3clFbG">
              <node concept="3zrR0B" id="1mAGFBJdgEq" role="2ShVmc">
                <node concept="3Tqbb2" id="1mAGFBJdgEr" role="3zrR0E">
                  <ref role="ehGHo" to="2tx7:1mAGFBJ1sr1" resolve="FemaleGender" />
                </node>
              </node>
            </node>
          </node>
        </node>
      </node>
      <node concept="16NfWO" id="1mAGFBJdgEs" role="upBLP">
        <node concept="uGdhv" id="1mAGFBJdgEt" role="16NeZM">
          <node concept="3clFbS" id="1mAGFBJdgEu" role="2VODD2">
            <node concept="3clFbF" id="1mAGFBJdgEv" role="3cqZAp">
              <node concept="2OqwBi" id="1mAGFBJdgEw" role="3clFbG">
                <node concept="35c_gC" id="1mAGFBJdgEx" role="2Oq$k0">
                  <ref role="35c_gD" to="2tx7:1mAGFBJ1sr1" resolve="FemaleGender" />
                </node>
                <node concept="2qgKlT" id="1mAGFBJdgEy" role="2OqNvi">
                  <ref role="37wK5l" to="1yj:5Wfdz$0vc2$" resolve="getDisplayAlias" />
                </node>
              </node>
            </node>
          </node>
        </node>
      </node>
      <node concept="16NL0t" id="1mAGFBJdgEz" role="upBLP">
        <node concept="uGdhv" id="1mAGFBJdgE$" role="16NL0q">
          <node concept="3clFbS" id="1mAGFBJdgE_" role="2VODD2">
            <node concept="3clFbF" id="1mAGFBJdgEA" role="3cqZAp">
              <node concept="2OqwBi" id="1mAGFBJdgEB" role="3clFbG">
                <node concept="35c_gC" id="1mAGFBJdgEC" role="2Oq$k0">
                  <ref role="35c_gD" to="2tx7:1mAGFBJ1sr1" resolve="FemaleGender" />
                </node>
                <node concept="2qgKlT" id="1mAGFBJdgED" role="2OqNvi">
                  <ref role="37wK5l" to="1yj:5Wfdz$0vc3v" resolve="getDisplayDescription" />
                </node>
              </node>
            </node>
          </node>
        </node>
      </node>
    </node>
  </node>
</model>

