<?xml version="1.0" encoding="UTF-8"?>
<model ref="r:7db5fdf4-d7be-4794-a577-ba71a13cec72(no.uio.mLab.decisions.references.biochemistry.runtime)">
  <persistence version="9" />
  <languages />
  <imports />
  <registry />
</model>

