<?xml version="1.0" encoding="UTF-8"?>
<model ref="r:01f3534b-874e-42dc-a9b5-7540591f45bb(no.uio.mLab.entities.core.structure)">
  <persistence version="9" />
  <languages>
    <use id="c72da2b9-7cce-4447-8389-f407dc1158b7" name="jetbrains.mps.lang.structure" version="6" />
    <devkit ref="78434eb8-b0e5-444b-850d-e7c4ad2da9ab(jetbrains.mps.devkit.aspect.structure)" />
  </languages>
  <imports>
    <import index="vbok" ref="r:6cc208d3-a370-49ca-a6ac-ded97805a924(no.uio.mLab.shared.structure)" />
    <import index="tpck" ref="r:00000000-0000-4000-0000-011c89590288(jetbrains.mps.lang.core.structure)" implicit="true" />
  </imports>
  <registry>
    <language id="c72da2b9-7cce-4447-8389-f407dc1158b7" name="jetbrains.mps.lang.structure">
      <concept id="1169125787135" name="jetbrains.mps.lang.structure.structure.AbstractConceptDeclaration" flags="ig" index="PkWjJ">
        <property id="6714410169261853888" name="conceptId" index="EcuMT" />
        <property id="4628067390765956807" name="final" index="R5$K2" />
        <property id="4628067390765956802" name="abstract" index="R5$K7" />
        <child id="1071489727083" name="linkDeclaration" index="1TKVEi" />
        <child id="1071489727084" name="propertyDeclaration" index="1TKVEl" />
      </concept>
      <concept id="1169125989551" name="jetbrains.mps.lang.structure.structure.InterfaceConceptDeclaration" flags="ig" index="PlHQZ">
        <child id="1169127546356" name="extends" index="PrDN$" />
      </concept>
      <concept id="1169127622168" name="jetbrains.mps.lang.structure.structure.InterfaceConceptReference" flags="ig" index="PrWs8">
        <reference id="1169127628841" name="intfc" index="PrY4T" />
      </concept>
      <concept id="1071489090640" name="jetbrains.mps.lang.structure.structure.ConceptDeclaration" flags="ig" index="1TIwiD">
        <reference id="1071489389519" name="extends" index="1TJDcQ" />
        <child id="1169129564478" name="implements" index="PzmwI" />
      </concept>
      <concept id="1071489288299" name="jetbrains.mps.lang.structure.structure.PropertyDeclaration" flags="ig" index="1TJgyi">
        <property id="241647608299431129" name="propertyId" index="IQ2nx" />
        <reference id="1082985295845" name="dataType" index="AX2Wp" />
      </concept>
      <concept id="1071489288298" name="jetbrains.mps.lang.structure.structure.LinkDeclaration" flags="ig" index="1TJgyj">
        <property id="1071599776563" name="role" index="20kJfa" />
        <property id="1071599937831" name="metaClass" index="20lmBu" />
        <property id="241647608299431140" name="linkId" index="IQ2ns" />
        <reference id="1071599976176" name="target" index="20lvS9" />
      </concept>
    </language>
    <language id="ceab5195-25ea-4f22-9b92-103b95ca8c0c" name="jetbrains.mps.lang.core">
      <concept id="1133920641626" name="jetbrains.mps.lang.core.structure.BaseConcept" flags="ng" index="2VYdi">
        <property id="1193676396447" name="virtualPackage" index="3GE5qa" />
      </concept>
      <concept id="1169194658468" name="jetbrains.mps.lang.core.structure.INamedConcept" flags="ng" index="TrEIO">
        <property id="1169194664001" name="name" index="TrG5h" />
      </concept>
    </language>
  </registry>
  <node concept="1TIwiD" id="4QUW3edDqMR">
    <property role="EcuMT" value="5601053190799076535" />
    <property role="TrG5h" value="Entity" />
    <property role="R5$K7" value="true" />
    <property role="R5$K2" value="false" />
    <property role="3GE5qa" value="" />
    <ref role="1TJDcQ" to="tpck:gw2VY9q" resolve="BaseConcept" />
    <node concept="1TJgyi" id="6khVixy0AQY" role="1TKVEl">
      <property role="IQ2nx" value="7282862830133603774" />
      <property role="TrG5h" value="code" />
      <ref role="AX2Wp" to="tpck:fKAOsGN" resolve="string" />
    </node>
    <node concept="1TJgyj" id="4QUW3edDrpg" role="1TKVEi">
      <property role="IQ2ns" value="5601053190799078992" />
      <property role="20lmBu" value="reference" />
      <property role="20kJfa" value="deprecatedBy" />
      <ref role="20lvS9" node="4QUW3edDqMR" resolve="Entity" />
    </node>
    <node concept="1TJgyi" id="4QUW3edDU1q" role="1TKVEl">
      <property role="IQ2nx" value="5601053190799204442" />
      <property role="TrG5h" value="description" />
      <ref role="AX2Wp" to="tpck:fKAOsGN" resolve="string" />
    </node>
    <node concept="PrWs8" id="4QUW3efGul3" role="PzmwI">
      <ref role="PrY4T" to="vbok:4QUW3efGuc3" resolve="IReferrableConcept" />
    </node>
    <node concept="PrWs8" id="6khVixy0Ed7" role="PzmwI">
      <ref role="PrY4T" node="6khVixy0E6I" resolve="ICoreEntityTranslatableConcept" />
    </node>
  </node>
  <node concept="PlHQZ" id="6khVixy0E6I">
    <property role="EcuMT" value="7282862830133617070" />
    <property role="TrG5h" value="ICoreEntityTranslatableConcept" />
    <node concept="PrWs8" id="6khVixy0E6J" role="PrDN$">
      <ref role="PrY4T" to="vbok:5Wfdz$0vc1Z" resolve="ITranslatableConcept" />
    </node>
  </node>
</model>

