<?xml version="1.0" encoding="UTF-8"?>
<model ref="r:c9ca59ac-20d9-40c8-9ac3-727e2f7ea881(no.uio.mLab.entities.laboratoryTest.intentions)">
  <persistence version="9" />
  <languages>
    <use id="d7a92d38-f7db-40d0-8431-763b0c3c9f20" name="jetbrains.mps.lang.intentions" version="0" />
    <devkit ref="fbc25dd2-5da4-483a-8b19-70928e1b62d7(jetbrains.mps.devkit.general-purpose)" />
  </languages>
  <imports />
  <registry />
</model>

