<?xml version="1.0" encoding="UTF-8"?>
<model ref="r:5fa88dac-5eb8-4967-bc9e-b832aaff1161(no.uio.mLab.decisions.references.laboratoryTest.actions)">
  <persistence version="9" />
  <languages>
    <use id="aee9cad2-acd4-4608-aef2-0004f6a1cdbd" name="jetbrains.mps.lang.actions" version="4" />
    <use id="13744753-c81f-424a-9c1b-cf8943bf4e86" name="jetbrains.mps.lang.sharedConcepts" version="0" />
    <use id="f3061a53-9226-4cc5-a443-f952ceaf5816" name="jetbrains.mps.baseLanguage" version="6" />
    <use id="7866978e-a0f0-4cc7-81bc-4d213d9375e1" name="jetbrains.mps.lang.smodel" version="11" />
    <devkit ref="fbc25dd2-5da4-483a-8b19-70928e1b62d7(jetbrains.mps.devkit.general-purpose)" />
  </languages>
  <imports>
    <import index="aia3" ref="r:856e974b-6e42-49cc-99cd-c3adb4161c21(no.uio.mLab.decisions.data.laboratoryTest.structure)" />
    <import index="g9p" ref="r:e3723b2c-f747-4846-9cf4-4a6dab4bac5a(no.uio.mLab.decisions.references.laboratoryTest.behavior)" />
    <import index="ruww" ref="r:d7787915-5b9a-4713-a6ab-6345c5e1ec03(no.uio.mLab.decisions.references.laboratoryTest.structure)" />
  </imports>
  <registry />
</model>

