<?xml version="1.0" encoding="UTF-8"?>
<model ref="r:e4a7a6f9-a1de-4f08-9b98-b5f2b9ecf3a4(no.uio.mLab.decisions.references.laboratoryTest.constraints)">
  <persistence version="9" />
  <languages>
    <use id="3f4bc5f5-c6c1-4a28-8b10-c83066ffa4a1" name="jetbrains.mps.lang.constraints" version="4" />
    <devkit ref="00000000-0000-4000-0000-5604ebd4f22c(jetbrains.mps.devkit.aspect.constraints)" />
  </languages>
  <imports>
    <import index="ruww" ref="r:d7787915-5b9a-4713-a6ab-6345c5e1ec03(no.uio.mLab.decisions.references.laboratoryTest.structure)" implicit="true" />
  </imports>
  <registry>
    <language id="f3061a53-9226-4cc5-a443-f952ceaf5816" name="jetbrains.mps.baseLanguage">
      <concept id="1197027756228" name="jetbrains.mps.baseLanguage.structure.DotExpression" flags="nn" index="2OqwBi">
        <child id="1197027771414" name="operand" index="2Oq$k0" />
        <child id="1197027833540" name="operation" index="2OqNvi" />
      </concept>
      <concept id="1137021947720" name="jetbrains.mps.baseLanguage.structure.ConceptFunction" flags="in" index="2VMwT0">
        <child id="1137022507850" name="body" index="2VODD2" />
      </concept>
      <concept id="1068580123155" name="jetbrains.mps.baseLanguage.structure.ExpressionStatement" flags="nn" index="3clFbF">
        <child id="1068580123156" name="expression" index="3clFbG" />
      </concept>
      <concept id="1068580123136" name="jetbrains.mps.baseLanguage.structure.StatementList" flags="sn" stub="5293379017992965193" index="3clFbS">
        <child id="1068581517665" name="statement" index="3cqZAp" />
      </concept>
    </language>
    <language id="3f4bc5f5-c6c1-4a28-8b10-c83066ffa4a1" name="jetbrains.mps.lang.constraints">
      <concept id="6702802731807351367" name="jetbrains.mps.lang.constraints.structure.ConstraintFunction_CanBeAChild" flags="in" index="9S07l" />
      <concept id="1202989658459" name="jetbrains.mps.lang.constraints.structure.ConstraintFunctionParameter_parentNode" flags="nn" index="nLn13" />
      <concept id="8401916545537438642" name="jetbrains.mps.lang.constraints.structure.InheritedNodeScopeFactory" flags="ng" index="1dDu$B">
        <reference id="8401916545537438643" name="kind" index="1dDu$A" />
      </concept>
      <concept id="1213093968558" name="jetbrains.mps.lang.constraints.structure.ConceptConstraints" flags="ng" index="1M2fIO">
        <reference id="1213093996982" name="concept" index="1M2myG" />
        <child id="6702802731807737306" name="canBeChild" index="9Vyp8" />
        <child id="1213100494875" name="referent" index="1Mr941" />
      </concept>
      <concept id="1148687176410" name="jetbrains.mps.lang.constraints.structure.NodeReferentConstraint" flags="ng" index="1N5Pfh">
        <reference id="1148687202698" name="applicableLink" index="1N5Vy1" />
        <child id="1148687345559" name="searchScopeFactory" index="1N6uqs" />
      </concept>
    </language>
    <language id="7866978e-a0f0-4cc7-81bc-4d213d9375e1" name="jetbrains.mps.lang.smodel">
      <concept id="1177026924588" name="jetbrains.mps.lang.smodel.structure.RefConcept_Reference" flags="nn" index="chp4Y">
        <reference id="1177026940964" name="conceptDeclaration" index="cht4Q" />
      </concept>
      <concept id="1139621453865" name="jetbrains.mps.lang.smodel.structure.Node_IsInstanceOfOperation" flags="nn" index="1mIQ4w">
        <child id="1177027386292" name="conceptArgument" index="cj9EA" />
      </concept>
    </language>
    <language id="ceab5195-25ea-4f22-9b92-103b95ca8c0c" name="jetbrains.mps.lang.core">
      <concept id="1133920641626" name="jetbrains.mps.lang.core.structure.BaseConcept" flags="ng" index="2VYdi">
        <property id="1193676396447" name="virtualPackage" index="3GE5qa" />
      </concept>
    </language>
  </registry>
  <node concept="1M2fIO" id="4B5aqq2QhmE">
    <property role="3GE5qa" value="aspect.references.laboratoryTest" />
    <ref role="1M2myG" to="ruww:4B5aqq2QgEt" resolve="AspectLaboratoryTestWithTextResultReference" />
    <node concept="1N5Pfh" id="4B5aqq2QhmF" role="1Mr941">
      <ref role="1N5Vy1" to="ruww:4B5aqq2QgEu" resolve="target" />
      <node concept="1dDu$B" id="4B5aqq2QhmG" role="1N6uqs">
        <ref role="1dDu$A" to="ruww:4B5aqq2QmL6" resolve="LaboratoryTestWithTextResultVariable" />
      </node>
    </node>
  </node>
  <node concept="1M2fIO" id="4B5aqq2Qhmc">
    <property role="3GE5qa" value="aspect.references.laboratoryTest" />
    <ref role="1M2myG" to="ruww:4B5aqq2QgEr" resolve="AspectLaboratoryTestWithNumberResultReference" />
    <node concept="1N5Pfh" id="4B5aqq2Qhmd" role="1Mr941">
      <ref role="1N5Vy1" to="ruww:4B5aqq2QgEs" resolve="target" />
      <node concept="1dDu$B" id="4B5aqq2Qhmf" role="1N6uqs">
        <ref role="1dDu$A" to="ruww:4B5aqq2QmL5" resolve="LaboratoryTestWithNumberResultVariable" />
      </node>
    </node>
  </node>
  <node concept="1M2fIO" id="6khVixyavEM">
    <property role="3GE5qa" value="aspect.references.specimenType" />
    <ref role="1M2myG" to="ruww:6khVixyavhZ" resolve="AspectSpecimenTypeReference" />
    <node concept="1N5Pfh" id="6khVixyavEN" role="1Mr941">
      <ref role="1N5Vy1" to="ruww:6khVixyavi0" resolve="target" />
      <node concept="1dDu$B" id="6khVixyavEP" role="1N6uqs">
        <ref role="1dDu$A" to="ruww:6khVixyavhY" resolve="SpecimenTypeVariable" />
      </node>
    </node>
  </node>
  <node concept="1M2fIO" id="4V3GMfXuDRc">
    <property role="3GE5qa" value="aspect.references.laboratoryTest" />
    <ref role="1M2myG" to="ruww:4QUW3efwB3a" resolve="AspectLaboratoryTestReference" />
    <node concept="1N5Pfh" id="4V3GMfXuDRd" role="1Mr941">
      <ref role="1N5Vy1" to="ruww:4QUW3efwB3b" resolve="target" />
      <node concept="1dDu$B" id="4V3GMfXuDRf" role="1N6uqs">
        <ref role="1dDu$A" to="ruww:4QUW3edDVyK" resolve="LaboratoryTestVariable" />
      </node>
    </node>
  </node>
  <node concept="1M2fIO" id="65epL7Mk6DK">
    <property role="3GE5qa" value="aspect.patterns.laboratoryTest.withTextResult" />
    <ref role="1M2myG" to="ruww:65epL7MjP7x" resolve="LaboratoryTestWithTextResultPattern" />
    <node concept="9S07l" id="65epL7Mk6DL" role="9Vyp8">
      <node concept="3clFbS" id="65epL7Mk6DM" role="2VODD2">
        <node concept="3clFbF" id="65epL7Mk6L5" role="3cqZAp">
          <node concept="2OqwBi" id="65epL7Mk6WL" role="3clFbG">
            <node concept="nLn13" id="65epL7Mk6L4" role="2Oq$k0" />
            <node concept="1mIQ4w" id="65epL7Mk7yC" role="2OqNvi">
              <node concept="chp4Y" id="65epL7Mk7Jl" role="cj9EA">
                <ref role="cht4Q" to="ruww:4B5aqq2QmL6" resolve="LaboratoryTestWithTextResultVariable" />
              </node>
            </node>
          </node>
        </node>
      </node>
    </node>
  </node>
  <node concept="1M2fIO" id="65epL7MkNob">
    <property role="3GE5qa" value="aspect.patterns.laboratoryTest.withNumberResult" />
    <ref role="1M2myG" to="ruww:65epL7MkNmK" resolve="LaboratoryTestWithNumberResultPattern" />
    <node concept="9S07l" id="65epL7MkNoc" role="9Vyp8">
      <node concept="3clFbS" id="65epL7MkNod" role="2VODD2">
        <node concept="3clFbF" id="65epL7MkNvw" role="3cqZAp">
          <node concept="2OqwBi" id="65epL7MkNFc" role="3clFbG">
            <node concept="nLn13" id="65epL7MkNvv" role="2Oq$k0" />
            <node concept="1mIQ4w" id="65epL7MkNRQ" role="2OqNvi">
              <node concept="chp4Y" id="65epL7MkO4z" role="cj9EA">
                <ref role="cht4Q" to="ruww:4B5aqq2QmL5" resolve="LaboratoryTestWithNumberResultVariable" />
              </node>
            </node>
          </node>
        </node>
      </node>
    </node>
  </node>
</model>

